{
"skeleton": { "hash": "XovyDxlFA6s2IVw9D5SY+MR0oz8", "spine": "3.7.94", "width": 0, "height": 0 },
"bones": [
	{ "name": "root" },
	{ "name": "ring", "parent": "root", "x": 290.21, "y": -8.43, "scaleY": 0.58 },
	{ "name": "ring01", "parent": "ring", "scaleX": 2.7, "scaleY": 2.7 }
],
"slots": [
	{ "name": "ring", "bone": "ring01", "blend": "additive" },
	{ "name": "light02", "bone": "root", "blend": "additive" },
	{ "name": "fire", "bone": "root", "blend": "additive" },
	{ "name": "fire6", "bone": "root", "blend": "additive" },
	{ "name": "fire5", "bone": "root", "blend": "additive" },
	{ "name": "fire4", "bone": "root", "blend": "additive" },
	{ "name": "fire3", "bone": "root", "blend": "additive" },
	{ "name": "fire2", "bone": "root", "blend": "additive" },
	{ "name": "fire7", "bone": "root", "blend": "additive" }
],
"skins": {
	"default": {
		"fire": {
			"fire_light": { "x": -131.41, "y": -142.6, "width": 90, "height": 98 }
		},
		"fire2": {
			"fire_light": {
				"type": "mesh",
				"uvs": [ 0.52382, 0, 0.23902, 1, 1, 1, 1, 0 ],
				"triangles": [ 0, 3, 2, 1, 0, 2 ],
				"vertices": [ 286.96, -103.51, 369.2, -162.64, 393.81, -98.73, 302.36, -63.51 ],
				"hull": 4
			}
		},
		"fire3": {
			"fire_light": {
				"type": "mesh",
				"uvs": [ 0.62795, 1, 1, 0.71943, 1, 0, 0, 0, 0, 1 ],
				"triangles": [ 3, 2, 1, 0, 4, 3, 1, 0, 3 ],
				"vertices": [ -445.15, 8.65, -411.67, 36.15, -411.67, 106.65, -501.67, 106.65, -501.67, 8.65 ],
				"hull": 5
			}
		},
		"fire4": {
			"fire_light": {
				"type": "mesh",
				"uvs": [ 0.38639, 1, 0, 0.47202, 0.45727, 0.19386, 0.5475, 0, 1, 0, 1, 1 ],
				"triangles": [ 0, 1, 2, 2, 3, 4, 5, 2, 4, 0, 2, 5 ],
				"vertices": [ 346.81, 14.53, 284.9, 7.2, 279.42, 56.26, 266.22, 72.15, 284.8, 108.39, 372.01, 63.68 ],
				"hull": 6
			}
		},
		"fire5": {
			"fire_light": {
				"type": "mesh",
				"uvs": [ 0, 0.55686, 0.40531, 0.24365, 0.5125, 0, 0.74699, 0.01058, 1, 0, 1, 0.37789, 1, 1, 0.28838, 1, 0.71051, 0.32149, 0.67816, 0.51212 ],
				"triangles": [ 8, 2, 3, 1, 2, 8, 8, 3, 4, 5, 8, 4, 9, 1, 8, 9, 8, 5, 9, 7, 0, 9, 0, 1, 9, 5, 6, 7, 9, 6 ],
				"vertices": [ 404.16, 126.33, 440.64, 157.03, 445.81, 186.67, 463.07, 172.19, 494.16, 180.91, 494.16, 143.87, 494.16, 82.91, 430.12, 82.91, 454.67, 148.76, 462.64, 130.72 ],
				"hull": 8
			}
		},
		"fire6": {
			"fire_light": {
				"type": "mesh",
				"uvs": [ 0.99878, 0.46098, 0.58928, 0.21027, 0.52429, 0.00134, 0, 0, 0, 1, 1, 1 ],
				"triangles": [ 1, 4, 3, 1, 3, 2, 1, 0, 5, 4, 1, 5 ],
				"vertices": [ -529.57, 278.72, -527.63, 234.46, -540.7, 217.65, -512.94, 179.5, -433.86, 237.38, -487.01, 310 ],
				"hull": 6
			}
		},
		"fire7": {
			"fire_light02": { "x": 335.11, "y": 69.89, "width": 103, "height": 53 }
		},
		"light02": {
			"light02": { "x": -2.76, "scaleX": 4, "scaleY": 4, "width": 330, "height": 186 }
		},
		"ring": {
			"light": { "scaleX": -1, "width": 170, "height": 170 }
		}
	}
},
"animations": {
	"bg_01": {},
	"bg_02": {
		"slots": {
			"fire": {
				"color": [
					{ "time": 0, "color": "ffffff41" },
					{ "time": 0.2667, "color": "ffffffa2" },
					{ "time": 0.8667, "color": "ffffff5b" },
					{ "time": 1.0667, "color": "ffffffa6" },
					{ "time": 1.4667, "color": "ffffff47" },
					{ "time": 1.6667, "color": "ffffff92" },
					{ "time": 2, "color": "ffffff41" }
				],
				"attachment": [
					{ "time": 0, "name": "fire_light" }
				]
			},
			"fire2": {
				"color": [
					{ "time": 0, "color": "ffffff41" },
					{ "time": 0.2667, "color": "ffffffa2" },
					{ "time": 0.8667, "color": "ffffff5b" },
					{ "time": 1.0667, "color": "ffffffa6" },
					{ "time": 1.4667, "color": "ffffff47" },
					{ "time": 1.6667, "color": "ffffff92" },
					{ "time": 2, "color": "ffffff41" }
				],
				"attachment": [
					{ "time": 0, "name": "fire_light" }
				]
			},
			"fire3": {
				"color": [
					{ "time": 0, "color": "ffffff41" },
					{ "time": 0.2667, "color": "ffffffa2" },
					{ "time": 0.8667, "color": "ffffff5b" },
					{ "time": 1.0667, "color": "ffffffa6" },
					{ "time": 1.4667, "color": "ffffff47" },
					{ "time": 1.6667, "color": "ffffff92" },
					{ "time": 2, "color": "ffffff41" }
				],
				"attachment": [
					{ "time": 0, "name": "fire_light" }
				]
			},
			"fire4": {
				"color": [
					{ "time": 0, "color": "ffffff41" },
					{ "time": 0.2667, "color": "ffffffa2" },
					{ "time": 0.8667, "color": "ffffff5b" },
					{ "time": 1.0667, "color": "ffffffa6" },
					{ "time": 1.4667, "color": "ffffff47" },
					{ "time": 1.6667, "color": "ffffff92" },
					{ "time": 2, "color": "ffffff41" }
				],
				"attachment": [
					{ "time": 0, "name": "fire_light" }
				]
			},
			"fire5": {
				"color": [
					{ "time": 0, "color": "ffffff41" },
					{ "time": 0.2667, "color": "ffffffa2" },
					{ "time": 0.8667, "color": "ffffff5b" },
					{ "time": 1.0667, "color": "ffffffa6" },
					{ "time": 1.4667, "color": "ffffff47" },
					{ "time": 1.6667, "color": "ffffff92" },
					{ "time": 2, "color": "ffffff41" }
				],
				"attachment": [
					{ "time": 0, "name": "fire_light" }
				]
			},
			"fire6": {
				"color": [
					{ "time": 0, "color": "ffffff41" },
					{ "time": 0.2667, "color": "ffffffa2" },
					{ "time": 0.8667, "color": "ffffff5b" },
					{ "time": 1.0667, "color": "ffffffa6" },
					{ "time": 1.4667, "color": "ffffff47" },
					{ "time": 1.6667, "color": "ffffff92" },
					{ "time": 2, "color": "ffffff41" }
				],
				"attachment": [
					{ "time": 0, "name": "fire_light" }
				]
			},
			"fire7": {
				"color": [
					{ "time": 0, "color": "ffffff5b" },
					{ "time": 0.2, "color": "ffffffa6" },
					{ "time": 0.6, "color": "ffffff47" },
					{ "time": 0.8, "color": "ffffff92" },
					{ "time": 1.1333, "color": "ffffff41", "curve": "stepped" },
					{ "time": 1.1667, "color": "ffffff41" },
					{ "time": 1.4333, "color": "ffffffa2" },
					{ "time": 2, "color": "ffffff5f" }
				],
				"attachment": [
					{ "time": 0, "name": "fire_light02" }
				]
			}
		}
	},
	"bg_03": {
		"slots": {
			"light02": {
				"color": [
					{ "time": 0, "color": "ffffff18", "curve": "stepped" },
					{ "time": 1.3333, "color": "ffffff18" },
					{ "time": 1.4, "color": "ffffff2d" },
					{ "time": 2.2, "color": "ffffff18", "curve": "stepped" },
					{ "time": 6.3333, "color": "ffffff18" },
					{ "time": 6.4, "color": "ffffffe9" },
					{ "time": 6.4667, "color": "fffffff1" },
					{ "time": 6.6, "color": "ffffffcc" },
					{ "time": 6.8667, "color": "ffffff3f" },
					{ "time": 6.9333, "color": "ffffffb1" },
					{ "time": 8.1, "color": "ffffff18" },
					{ "time": 8.1667, "color": "ffffff39" },
					{ "time": 8.8667, "color": "ffffff18" },
					{ "time": 8.9333, "color": "ffffff27" },
					{ "time": 9.3333, "color": "ffffff18", "curve": "stepped" },
					{ "time": 13.3667, "color": "ffffff18" },
					{ "time": 13.4333, "color": "ffffff70" },
					{ "time": 14.1333, "color": "ffffff18" },
					{ "time": 14.2, "color": "ffffff27" },
					{ "time": 14.6, "color": "ffffff18" }
				],
				"attachment": [
					{ "time": 0, "name": "light02" }
				]
			},
			"ring": {
				"color": [
					{ "time": 0, "color": "ffffff5b" },
					{ "time": 2.6333, "color": "ffffff80" },
					{ "time": 5.0667, "color": "ffffff53" },
					{ "time": 7.6667, "color": "ffffff71" },
					{ "time": 10, "color": "ffffff5b" },
					{ "time": 12.6333, "color": "ffffff80" },
					{ "time": 15.0667, "color": "ffffff53" },
					{ "time": 17.6667, "color": "ffffff71" },
					{ "time": 20, "color": "ffffff5b" }
				],
				"attachment": [
					{ "time": 0, "name": "light" }
				]
			}
		},
		"bones": {
			"ring01": {
				"rotate": [
					{ "time": 0, "angle": 0 },
					{ "time": 2.5, "angle": 89 },
					{ "time": 7.5, "angle": -93 },
					{ "time": 10, "angle": 0 },
					{ "time": 12.5, "angle": 89 },
					{ "time": 17.5, "angle": -93 },
					{ "time": 20, "angle": -2 }
				]
			}
		}
	}
}
}