{
"skeleton": { "hash": "W7TD1VGrHE9EnckWeWYjPmkX1vs", "spine": "3.7.94", "width": 0, "height": 0 },
"bones": [
	{ "name": "root" },
	{ "name": "S", "parent": "root" },
	{ "name": "spark3", "parent": "S", "x": -303.04, "y": -169.62 },
	{ "name": "spark6", "parent": "S", "x": 174.11, "y": -279.73 },
	{ "name": "spark13", "parent": "S", "x": 166.08, "y": -301.53 },
	{ "name": "tree1", "parent": "root", "rotation": -46.08, "x": -649.14, "y": -443.11, "shearY": -23.87 },
	{ "name": "tree2", "parent": "root", "rotation": -15.99, "x": 510.97, "y": 467.15 },
	{
		"name": "tree3",
		"parent": "root",
		"rotation": 105.06,
		"x": -375.38,
		"y": 402.76,
		"shearX": 40,
		"shearY": 8.11
	},
	{
		"name": "fire02",
		"parent": "root",
		"rotation": -0.09,
		"x": -226.35,
		"y": -272.85,
		"scaleX": -2.5,
		"scaleY": 1.7
	},
	{
		"name": "fire01",
		"parent": "root",
		"rotation": -21.61,
		"x": -514.71,
		"y": -367.42,
		"scaleX": 2.8,
		"scaleY": 2.4,
		"shearX": 17
	},
	{
		"name": "fire03",
		"parent": "root",
		"rotation": -18.84,
		"x": 229.72,
		"y": -280.46,
		"scaleX": 2.5,
		"scaleY": 1.7,
		"shearX": 20
	},
	{
		"name": "fire04",
		"parent": "root",
		"rotation": 3.26,
		"x": 518.44,
		"y": -266.92,
		"scaleX": 2.6,
		"scaleY": 1.8
	},
	{
		"name": "fire05",
		"parent": "root",
		"rotation": -179.97,
		"x": -531.18,
		"y": 270.52,
		"scaleX": 2.5,
		"scaleY": 1.7
	},
	{
		"name": "fire06",
		"parent": "root",
		"rotation": -170.07,
		"x": -281.81,
		"y": 283.67,
		"scaleX": -2.2,
		"scaleY": 1.5,
		"shearX": -10
	},
	{
		"name": "fire07",
		"parent": "root",
		"rotation": -179.79,
		"x": 262.37,
		"y": 280.53,
		"scaleX": -2.5,
		"scaleY": 1.5
	},
	{
		"name": "fire08",
		"parent": "root",
		"rotation": 179.32,
		"x": 516.44,
		"y": 264.84,
		"scaleX": -2.5,
		"scaleY": 1.8
	},
	{ "name": "cloud", "parent": "root", "rotation": -12.7, "x": 1.76, "y": 149.26 },
	{ "name": "cloud2", "parent": "root", "rotation": -23.69, "x": 1.76, "y": -43.56 },
	{ "name": "cloud3", "parent": "root", "rotation": -23.69, "x": 1.76, "y": -43.56 },
	{ "name": "spark4", "parent": "S", "x": -535.75, "y": -169.62 },
	{ "name": "spark5", "parent": "S", "x": 287.86, "y": -192.93 }
],
"slots": [
	{ "name": "fire_spark3", "bone": "spark3", "blend": "additive" },
	{ "name": "fire_spark17", "bone": "spark5", "blend": "additive" },
	{ "name": "fire_spark8", "bone": "spark4", "blend": "additive" },
	{ "name": "fire_spark18", "bone": "spark13", "blend": "additive" },
	{ "name": "fire_spark4", "bone": "spark3", "blend": "additive" },
	{ "name": "fire_spark19", "bone": "spark5", "blend": "additive" },
	{ "name": "fire_spark11", "bone": "spark4", "blend": "additive" },
	{ "name": "fire_spark22", "bone": "spark3", "blend": "additive" },
	{ "name": "fire_spark25", "bone": "spark5", "blend": "additive" },
	{ "name": "fire_spark23", "bone": "spark4", "blend": "additive" },
	{ "name": "fire_spark5", "bone": "spark3", "blend": "additive" },
	{ "name": "fire_spark20", "bone": "spark5", "blend": "additive" },
	{ "name": "fire_spark14", "bone": "spark4", "blend": "additive" },
	{ "name": "fire_spark16", "bone": "spark13", "blend": "additive" },
	{ "name": "fire_spark6", "bone": "spark13", "blend": "additive" },
	{ "name": "fire_spark24", "bone": "spark13", "blend": "additive" },
	{ "name": "fire_spark7", "bone": "spark6", "blend": "additive" },
	{ "name": "fire_spark13", "bone": "spark6", "blend": "additive" },
	{ "name": "fire_spark26", "bone": "spark6", "blend": "additive" },
	{ "name": "fire_spark9", "bone": "spark3", "blend": "additive" },
	{ "name": "fire_spark21", "bone": "spark5", "blend": "additive" },
	{ "name": "fire_spark15", "bone": "spark4", "blend": "additive" },
	{ "name": "fire_spark12", "bone": "spark6", "blend": "additive" },
	{ "name": "fire_spark10", "bone": "spark6", "blend": "additive" },
	{ "name": "tree", "bone": "tree1", "color": "6f00005b" },
	{ "name": "tree2", "bone": "tree2", "color": "6f00004d" },
	{ "name": "tree3", "bone": "tree3", "color": "6f00004d" },
	{ "name": "fire02", "bone": "fire02", "blend": "additive" },
	{ "name": "fire03", "bone": "fire03", "blend": "additive" },
	{ "name": "fire04", "bone": "fire04", "blend": "additive" },
	{ "name": "fire01", "bone": "fire01", "blend": "additive" },
	{ "name": "fire05", "bone": "fire05", "blend": "additive" },
	{ "name": "fire06", "bone": "fire06", "blend": "additive" },
	{ "name": "fire07", "bone": "fire07", "blend": "additive" },
	{ "name": "fire08", "bone": "fire08", "blend": "additive" },
	{ "name": "shadow", "bone": "root" },
	{ "name": "bg1_light", "bone": "root", "blend": "additive" },
	{ "name": "cloud", "bone": "cloud" },
	{ "name": "cloud3", "bone": "cloud" },
	{ "name": "cloud4", "bone": "cloud" },
	{ "name": "cloud2", "bone": "cloud2" },
	{ "name": "cloud6", "bone": "cloud3" },
	{ "name": "cloud5", "bone": "cloud2" },
	{ "name": "cloud7", "bone": "cloud3" },
	{ "name": "bg2_light", "bone": "root", "blend": "additive" }
],
"skins": {
	"default": {
		"bg1_light": {
			"bg1_light": { "scaleX": 4.26, "scaleY": 4.26, "width": 300, "height": 170 }
		},
		"bg2_light": {
			"bg2_light": { "x": 1.38, "y": -8.26, "scaleX": -6.5, "scaleY": 6.5, "width": 200, "height": 119 }
		},
		"cloud": {
			"cloud": { "x": 0.5, "scaleX": 3.5, "scaleY": 3.5, "rotation": 108.73, "width": 170, "height": 168 }
		},
		"cloud2": {
			"cloud": { "x": 0.5, "scaleX": 2.74, "scaleY": 3.5, "rotation": -64.36, "width": 170, "height": 168 }
		},
		"cloud3": {
			"cloud": {
				"x": -89.25,
				"y": -205.86,
				"scaleX": 2,
				"scaleY": 2.5,
				"rotation": -72.45,
				"width": 170,
				"height": 168
			}
		},
		"cloud4": {
			"cloud": {
				"x": -142.12,
				"y": -50.19,
				"scaleX": 2,
				"scaleY": 2.3,
				"rotation": 122.47,
				"width": 170,
				"height": 168
			}
		},
		"cloud5": {
			"cloud": {
				"x": 139.71,
				"y": 139.74,
				"scaleX": 2,
				"scaleY": 2,
				"rotation": 87,
				"width": 170,
				"height": 168
			}
		},
		"cloud6": {
			"cloud": { "x": 0.5, "scaleX": 2.74, "scaleY": 3.5, "rotation": -64.36, "width": 170, "height": 168 }
		},
		"cloud7": {
			"cloud": {
				"x": 139.71,
				"y": 139.74,
				"scaleX": 2,
				"scaleY": 2,
				"rotation": 87,
				"width": 170,
				"height": 168
			}
		},
		"fire01": {
			"fire_00": { "x": -4.46, "y": 52.16, "width": 134, "height": 110 },
			"fire_01": { "x": -4.46, "y": 52.16, "width": 134, "height": 110 },
			"fire_02": { "x": -4.46, "y": 52.16, "width": 134, "height": 110 },
			"fire_03": { "x": -4.46, "y": 52.16, "width": 134, "height": 110 },
			"fire_04": { "x": -4.46, "y": 52.16, "width": 134, "height": 110 },
			"fire_05": { "x": -4.46, "y": 52.16, "width": 134, "height": 110 },
			"fire_06": { "x": -4.46, "y": 52.16, "width": 134, "height": 110 },
			"fire_07": { "x": -4.46, "y": 52.16, "width": 134, "height": 110 },
			"fire_08": { "x": -4.46, "y": 52.16, "width": 134, "height": 110 },
			"fire_09": { "x": -4.46, "y": 52.16, "width": 134, "height": 110 },
			"fire_10": { "x": -4.46, "y": 52.16, "width": 134, "height": 110 },
			"fire_11": { "x": -4.46, "y": 52.16, "width": 134, "height": 110 },
			"fire_12": { "x": -4.46, "y": 52.16, "width": 134, "height": 110 },
			"fire_13": { "x": -4.46, "y": 52.16, "width": 134, "height": 110 },
			"fire_14": { "x": -4.46, "y": 52.16, "width": 134, "height": 110 }
		},
		"fire02": {
			"fire_00": { "width": 134, "height": 110 },
			"fire_01": { "width": 134, "height": 110 },
			"fire_02": { "width": 134, "height": 110 },
			"fire_03": { "width": 134, "height": 110 },
			"fire_04": { "width": 134, "height": 110 },
			"fire_05": { "width": 134, "height": 110 },
			"fire_06": { "width": 134, "height": 110 },
			"fire_07": { "width": 134, "height": 110 },
			"fire_08": { "width": 134, "height": 110 },
			"fire_09": { "width": 134, "height": 110 },
			"fire_10": { "width": 134, "height": 110 },
			"fire_11": { "width": 134, "height": 110 },
			"fire_12": { "width": 134, "height": 110 },
			"fire_13": { "width": 134, "height": 110 },
			"fire_14": { "width": 134, "height": 110 }
		},
		"fire03": {
			"fire_00": { "width": 134, "height": 110 },
			"fire_01": { "width": 134, "height": 110 },
			"fire_02": { "width": 134, "height": 110 },
			"fire_03": { "width": 134, "height": 110 },
			"fire_04": { "y": -0.7, "width": 134, "height": 110 },
			"fire_05": { "width": 134, "height": 110 },
			"fire_06": { "width": 134, "height": 110 },
			"fire_07": { "width": 134, "height": 110 },
			"fire_08": { "width": 134, "height": 110 },
			"fire_09": { "width": 134, "height": 110 },
			"fire_10": { "width": 134, "height": 110 },
			"fire_11": { "width": 134, "height": 110 },
			"fire_12": { "width": 134, "height": 110 },
			"fire_13": { "width": 134, "height": 110 },
			"fire_14": { "width": 134, "height": 110 }
		},
		"fire04": {
			"fire_00": { "width": 134, "height": 110 },
			"fire_01": { "width": 134, "height": 110 },
			"fire_02": { "width": 134, "height": 110 },
			"fire_03": { "width": 134, "height": 110 },
			"fire_04": { "width": 134, "height": 110 },
			"fire_05": { "width": 134, "height": 110 },
			"fire_06": { "width": 134, "height": 110 },
			"fire_07": { "width": 134, "height": 110 },
			"fire_08": { "width": 134, "height": 110 },
			"fire_09": { "width": 134, "height": 110 },
			"fire_10": { "width": 134, "height": 110 },
			"fire_11": { "width": 134, "height": 110 },
			"fire_12": { "width": 134, "height": 110 },
			"fire_13": { "width": 134, "height": 110 },
			"fire_14": { "width": 134, "height": 110 }
		},
		"fire05": {
			"fire_00": { "width": 134, "height": 110 },
			"fire_01": { "width": 134, "height": 110 },
			"fire_02": { "width": 134, "height": 110 },
			"fire_03": { "width": 134, "height": 110 },
			"fire_04": { "width": 134, "height": 110 },
			"fire_05": { "width": 134, "height": 110 },
			"fire_06": { "width": 134, "height": 110 },
			"fire_07": { "width": 134, "height": 110 },
			"fire_08": { "width": 134, "height": 110 },
			"fire_09": { "width": 134, "height": 110 },
			"fire_10": { "width": 134, "height": 110 },
			"fire_11": { "width": 134, "height": 110 },
			"fire_12": { "width": 134, "height": 110 },
			"fire_13": { "width": 134, "height": 110 },
			"fire_14": { "width": 134, "height": 110 }
		},
		"fire06": {
			"fire_00": { "width": 134, "height": 110 },
			"fire_01": { "width": 134, "height": 110 },
			"fire_02": { "width": 134, "height": 110 },
			"fire_03": { "width": 134, "height": 110 },
			"fire_04": { "width": 134, "height": 110 },
			"fire_05": { "width": 134, "height": 110 },
			"fire_06": { "width": 134, "height": 110 },
			"fire_07": { "width": 134, "height": 110 },
			"fire_08": { "width": 134, "height": 110 },
			"fire_09": { "width": 134, "height": 110 },
			"fire_10": { "width": 134, "height": 110 },
			"fire_11": { "width": 134, "height": 110 },
			"fire_12": { "width": 134, "height": 110 },
			"fire_13": { "width": 134, "height": 110 },
			"fire_14": { "width": 134, "height": 110 }
		},
		"fire07": {
			"fire_00": { "width": 134, "height": 110 },
			"fire_01": { "width": 134, "height": 110 },
			"fire_02": { "width": 134, "height": 110 },
			"fire_03": { "width": 134, "height": 110 },
			"fire_04": { "width": 134, "height": 110 },
			"fire_05": { "width": 134, "height": 110 },
			"fire_06": { "width": 134, "height": 110 },
			"fire_07": { "width": 134, "height": 110 },
			"fire_08": { "width": 134, "height": 110 },
			"fire_09": { "width": 134, "height": 110 },
			"fire_10": { "width": 134, "height": 110 },
			"fire_11": { "width": 134, "height": 110 },
			"fire_12": { "width": 134, "height": 110 },
			"fire_13": { "width": 134, "height": 110 },
			"fire_14": { "width": 134, "height": 110 }
		},
		"fire08": {
			"fire_00": { "width": 134, "height": 110 },
			"fire_01": { "width": 134, "height": 110 },
			"fire_02": { "width": 134, "height": 110 },
			"fire_03": { "width": 134, "height": 110 },
			"fire_04": { "width": 134, "height": 110 },
			"fire_05": { "width": 134, "height": 110 },
			"fire_06": { "width": 134, "height": 110 },
			"fire_07": { "width": 134, "height": 110 },
			"fire_08": { "width": 134, "height": 110 },
			"fire_09": { "width": 134, "height": 110 },
			"fire_10": { "width": 134, "height": 110 },
			"fire_11": { "width": 134, "height": 110 },
			"fire_12": { "width": 134, "height": 110 },
			"fire_13": { "width": 134, "height": 110 },
			"fire_14": { "width": 134, "height": 110 }
		},
		"fire_spark10": {
			"fire_spark": {
				"type": "mesh",
				"uvs": [ 1, 1, 0, 1, 0, 0, 1, 0 ],
				"triangles": [ 1, 2, 3, 1, 3, 0 ],
				"vertices": [ -426.86, 38.03, -444.86, 38.03, -444.86, 56.03, -426.86, 56.03 ],
				"hull": 4
			}
		},
		"fire_spark11": {
			"fire_spark": {
				"type": "mesh",
				"uvs": [ 1, 1, 0, 1, 0, 0, 1, 0 ],
				"triangles": [ 1, 2, 3, 1, 3, 0 ],
				"vertices": [ 225.78, -119.11, 207.78, -119.11, 207.78, -101.11, 225.78, -101.11 ],
				"hull": 4
			}
		},
		"fire_spark12": {
			"fire_spark": {
				"type": "mesh",
				"uvs": [ 1, 1, 0, 1, 0, 0, 1, 0 ],
				"triangles": [ 1, 2, 3, 1, 3, 0 ],
				"vertices": [ -306.42, 32.29, -324.42, 32.29, -324.42, 50.29, -306.42, 50.29 ],
				"hull": 4
			}
		},
		"fire_spark13": {
			"fire_spark": {
				"type": "mesh",
				"uvs": [ 1, 1, 0, 1, 0, 0, 1, 0 ],
				"triangles": [ 1, 2, 3, 1, 3, 0 ],
				"vertices": [ 0.97, -30.79, -17.03, -30.79, -17.03, -12.79, 0.97, -12.79 ],
				"hull": 4
			}
		},
		"fire_spark14": {
			"fire_spark": {
				"type": "mesh",
				"uvs": [ 1, 1, 0, 1, 0, 0, 1, 0 ],
				"triangles": [ 1, 2, 3, 1, 3, 0 ],
				"vertices": [ 450.6, -69.79, 432.6, -69.79, 432.6, -51.79, 450.6, -51.79 ],
				"hull": 4
			}
		},
		"fire_spark15": {
			"fire_spark": {
				"type": "mesh",
				"uvs": [ 1, 1, 0, 1, 0, 0, 1, 0 ],
				"triangles": [ 1, 2, 3, 1, 3, 0 ],
				"vertices": [ 170.73, -77.82, 152.73, -77.82, 152.73, -59.82, 170.73, -59.82 ],
				"hull": 4
			}
		},
		"fire_spark16": {
			"fire_spark": {
				"type": "mesh",
				"uvs": [ 1, 1, 0, 1, 0, 0, 1, 0 ],
				"triangles": [ 1, 2, 3, 1, 3, 0 ],
				"vertices": [ -18.53, 62.11, -36.53, 62.11, -36.53, 80.11, -18.53, 80.11 ],
				"hull": 4
			}
		},
		"fire_spark17": {
			"fire_spark": {
				"type": "mesh",
				"uvs": [ 1, 1, 0, 1, 0, 0, 1, 0 ],
				"triangles": [ 1, 2, 3, 1, 3, 0 ],
				"vertices": [ 9, -9, -9, -9, -9, 9, 9, 9 ],
				"hull": 4
			}
		},
		"fire_spark18": {
			"fire_spark": {
				"type": "mesh",
				"uvs": [ 1, 1, 0, 1, 0, 0, 1, 0 ],
				"triangles": [ 1, 2, 3, 1, 3, 0 ],
				"vertices": [ -460.12, 122.9, -478.12, 122.9, -478.12, 140.9, -460.12, 140.9 ],
				"hull": 4
			}
		},
		"fire_spark19": {
			"fire_spark": {
				"type": "mesh",
				"uvs": [ 1, 1, 0, 1, 0, 0, 1, 0 ],
				"triangles": [ 1, 2, 3, 1, 3, 0 ],
				"vertices": [ 225.78, -119.11, 207.78, -119.11, 207.78, -101.11, 225.78, -101.11 ],
				"hull": 4
			}
		},
		"fire_spark20": {
			"fire_spark": {
				"type": "mesh",
				"uvs": [ 1, 1, 0, 1, 0, 0, 1, 0 ],
				"triangles": [ 1, 2, 3, 1, 3, 0 ],
				"vertices": [ 450.6, -69.79, 432.6, -69.79, 432.6, -51.79, 450.6, -51.79 ],
				"hull": 4
			}
		},
		"fire_spark21": {
			"fire_spark": {
				"type": "mesh",
				"uvs": [ 1, 1, 0, 1, 0, 0, 1, 0 ],
				"triangles": [ 1, 2, 3, 1, 3, 0 ],
				"vertices": [ 170.73, -77.82, 152.73, -77.82, 152.73, -59.82, 170.73, -59.82 ],
				"hull": 4
			}
		},
		"fire_spark22": {
			"fire_spark": {
				"type": "mesh",
				"uvs": [ 1, 1, 0, 1, 0, 0, 1, 0 ],
				"triangles": [ 1, 2, 3, 1, 3, 0 ],
				"vertices": [ 199.5, -117.57, 181.5, -117.57, 181.5, -99.57, 199.5, -99.57 ],
				"hull": 4
			}
		},
		"fire_spark23": {
			"fire_spark": {
				"type": "mesh",
				"uvs": [ 1, 1, 0, 1, 0, 0, 1, 0 ],
				"triangles": [ 1, 2, 3, 1, 3, 0 ],
				"vertices": [ 199.5, -117.57, 181.5, -117.57, 181.5, -99.57, 199.5, -99.57 ],
				"hull": 4
			}
		},
		"fire_spark24": {
			"fire_spark": {
				"type": "mesh",
				"uvs": [ 1, 1, 0, 1, 0, 0, 1, 0 ],
				"triangles": [ 1, 2, 3, 1, 3, 0 ],
				"vertices": [ 109.49, 2.82, 91.49, 2.82, 91.49, 20.82, 109.49, 20.82 ],
				"hull": 4
			}
		},
		"fire_spark25": {
			"fire_spark": {
				"type": "mesh",
				"uvs": [ 1, 1, 0, 1, 0, 0, 1, 0 ],
				"triangles": [ 1, 2, 3, 1, 3, 0 ],
				"vertices": [ 199.5, -117.57, 181.5, -117.57, 181.5, -99.57, 199.5, -99.57 ],
				"hull": 4
			}
		},
		"fire_spark26": {
			"fire_spark": {
				"type": "mesh",
				"uvs": [ 1, 1, 0, 1, 0, 0, 1, 0 ],
				"triangles": [ 1, 2, 3, 1, 3, 0 ],
				"vertices": [ 93.43, -40.77, 75.43, -40.77, 75.43, -22.77, 93.43, -22.77 ],
				"hull": 4
			}
		},
		"fire_spark3": {
			"fire_spark": {
				"type": "mesh",
				"uvs": [ 1, 1, 0, 1, 0, 0, 1, 0 ],
				"triangles": [ 1, 2, 3, 1, 3, 0 ],
				"vertices": [ 9, -9, -9, -9, -9, 9, 9, 9 ],
				"hull": 4
			}
		},
		"fire_spark4": {
			"fire_spark": {
				"type": "mesh",
				"uvs": [ 1, 1, 0, 1, 0, 0, 1, 0 ],
				"triangles": [ 1, 2, 3, 1, 3, 0 ],
				"vertices": [ 225.78, -119.11, 207.78, -119.11, 207.78, -101.11, 225.78, -101.11 ],
				"hull": 4
			}
		},
		"fire_spark5": {
			"fire_spark": {
				"type": "mesh",
				"uvs": [ 1, 1, 0, 1, 0, 0, 1, 0 ],
				"triangles": [ 1, 2, 3, 1, 3, 0 ],
				"vertices": [ 450.6, -69.79, 432.6, -69.79, 432.6, -51.79, 450.6, -51.79 ],
				"hull": 4
			}
		},
		"fire_spark6": {
			"fire_spark": {
				"type": "mesh",
				"uvs": [ 1, 1, 0, 1, 0, 0, 1, 0 ],
				"triangles": [ 1, 2, 3, 1, 3, 0 ],
				"vertices": [ 17.03, 12.79, -0.97, 12.79, -0.97, 30.79, 17.03, 30.79 ],
				"hull": 4
			}
		},
		"fire_spark7": {
			"fire_spark": {
				"type": "mesh",
				"uvs": [ 1, 1, 0, 1, 0, 0, 1, 0 ],
				"triangles": [ 1, 2, 3, 1, 3, 0 ],
				"vertices": [ -156.17, -37.67, -174.17, -37.67, -174.17, -19.67, -156.17, -19.67 ],
				"hull": 4
			}
		},
		"fire_spark8": {
			"fire_spark": {
				"type": "mesh",
				"uvs": [ 1, 1, 0, 1, 0, 0, 1, 0 ],
				"triangles": [ 1, 2, 3, 1, 3, 0 ],
				"vertices": [ 9, -9, -9, -9, -9, 9, 9, 9 ],
				"hull": 4
			}
		},
		"fire_spark9": {
			"fire_spark": {
				"type": "mesh",
				"uvs": [ 1, 1, 0, 1, 0, 0, 1, 0 ],
				"triangles": [ 1, 2, 3, 1, 3, 0 ],
				"vertices": [ 170.73, -77.82, 152.73, -77.82, 152.73, -59.82, 170.73, -59.82 ],
				"hull": 4
			}
		},
		"shadow": {
			"shadow": { "x": 156.42, "y": 37.23, "scaleX": 3.2, "scaleY": 3.2, "width": 300, "height": 201 }
		},
		"tree": {
			"tree": {
				"x": -65.78,
				"y": 122.69,
				"scaleX": 2.98,
				"scaleY": 4,
				"rotation": 28.62,
				"width": 150,
				"height": 114
			}
		},
		"tree2": {
			"tree": {
				"x": 34.13,
				"y": -90.11,
				"scaleX": 2.5,
				"scaleY": 2.5,
				"rotation": -154.98,
				"width": 150,
				"height": 114
			}
		},
		"tree3": {
			"tree": {
				"x": -96.46,
				"y": 178.41,
				"scaleX": -3.5,
				"scaleY": 3,
				"rotation": 73.45,
				"width": 150,
				"height": 114
			}
		}
	}
},
"animations": {
	"bg_1": {
		"slots": {
			"bg1_light": {
				"color": [
					{ "time": 0, "color": "ffffff00" },
					{ "time": 3.3333, "color": "ffffff8f" },
					{ "time": 6.5, "color": "ffffff00" },
					{ "time": 8.3333, "color": "f6ba813b" },
					{ "time": 10, "color": "ffffff00" },
					{ "time": 13.3333, "color": "ffffff75" },
					{ "time": 16.5, "color": "ffffff00" },
					{ "time": 18.3667, "color": "f6ba813b" },
					{ "time": 20, "color": "ffffff00" }
				],
				"attachment": [
					{ "time": 0, "name": "bg1_light" }
				]
			},
			"cloud": {
				"color": [
					{ "time": 0, "color": "ffffff65" },
					{ "time": 1.5, "color": "ffffff00" },
					{ "time": 1.5333, "color": "ffffff00" },
					{ "time": 1.6, "color": "ffffff00" },
					{ "time": 1.6333, "color": "ffffff83" },
					{ "time": 8.0333, "color": "ffc9b173" },
					{ "time": 9.1333, "color": "ffffff00", "curve": "stepped" },
					{ "time": 9.1667, "color": "ffffff00" },
					{ "time": 10, "color": "ffffffb1" },
					{ "time": 12.3667, "color": "ffffffba" },
					{ "time": 13.4667, "color": "ffffff9a" },
					{ "time": 14.6667, "color": "ffffff00", "curve": "stepped" },
					{ "time": 14.7, "color": "ffffff00" },
					{ "time": 15.5, "color": "ffffff7e" },
					{ "time": 17.8, "color": "ffffff96" },
					{ "time": 20, "color": "ffffff67" }
				],
				"attachment": [
					{ "time": 0, "name": "cloud" }
				]
			},
			"cloud2": {
				"color": [
					{ "time": 0, "color": "ffffff83" },
					{ "time": 4, "color": "ffffffa2" },
					{ "time": 8, "color": "ffffff00" },
					{ "time": 8.0333, "color": "ffffff00" },
					{ "time": 11.8333, "color": "ffffff00" },
					{ "time": 11.8667, "color": "ffffff83" },
					{ "time": 14.9667, "color": "ffffffbf" },
					{ "time": 17.6333, "color": "ffffffb1" },
					{ "time": 19.8333, "color": "ffffff00" }
				],
				"attachment": [
					{ "time": 0, "name": "cloud" }
				]
			},
			"cloud3": {
				"color": [
					{ "time": 0, "color": "ffffff55" },
					{ "time": 1.5, "color": "ffffff00" },
					{ "time": 1.5333, "color": "ffffff00" },
					{ "time": 1.6, "color": "ffffff00" },
					{ "time": 1.6333, "color": "ffffff83" },
					{ "time": 8.0333, "color": "ffc9b173" },
					{ "time": 9.1333, "color": "ffffff00", "curve": "stepped" },
					{ "time": 9.1667, "color": "ffffff00" },
					{ "time": 10, "color": "ffffff7e" },
					{ "time": 12.3667, "color": "fffffff4" },
					{ "time": 13.4667, "color": "ffffff9a" },
					{ "time": 14.6667, "color": "ffffff00", "curve": "stepped" },
					{ "time": 14.7, "color": "ffffff00" },
					{ "time": 15.5, "color": "ffffff7e" },
					{ "time": 17.8, "color": "ffffff69" },
					{ "time": 20, "color": "ffffff57" }
				],
				"attachment": [
					{ "time": 0, "name": "cloud" }
				]
			},
			"cloud4": {
				"color": [
					{ "time": 0, "color": "ffffff55" },
					{ "time": 1.5, "color": "ffffff00" },
					{ "time": 1.5333, "color": "ffffff00" },
					{ "time": 1.6, "color": "ffffff00" },
					{ "time": 1.6333, "color": "ffffff83" },
					{ "time": 8.0333, "color": "ffc9b173" },
					{ "time": 9.1333, "color": "ffffff00", "curve": "stepped" },
					{ "time": 9.1667, "color": "ffffff00" },
					{ "time": 10, "color": "ffffff7e" },
					{ "time": 12.3667, "color": "ffffff69" },
					{ "time": 13.4667, "color": "ffffff9a" },
					{ "time": 14.6667, "color": "ffffff00", "curve": "stepped" },
					{ "time": 14.7, "color": "ffffff00" },
					{ "time": 15.5, "color": "ffffff7e" },
					{ "time": 17.8, "color": "ffffff69" },
					{ "time": 20, "color": "ffffff57" }
				],
				"attachment": [
					{ "time": 0, "name": "cloud" }
				]
			},
			"cloud5": {
				"color": [
					{ "time": 0, "color": "ffffff83" },
					{ "time": 4, "color": "ffffffa2" },
					{ "time": 8, "color": "ffffff00" },
					{ "time": 8.0333, "color": "ffffff00" },
					{ "time": 11.8333, "color": "ffffff00" },
					{ "time": 11.8667, "color": "ffffff83" },
					{ "time": 14.9667, "color": "ffffffa2" },
					{ "time": 19.8333, "color": "ffffff00" }
				],
				"attachment": [
					{ "time": 0, "name": "cloud" }
				]
			},
			"cloud6": {
				"color": [
					{ "time": 0, "color": "ffffffa1" },
					{ "time": 2.3333, "color": "ffffff9c" },
					{ "time": 4.6333, "color": "ffffff00" },
					{ "time": 16.6667, "color": "ffffff83" },
					{ "time": 20, "color": "ffffffa2" }
				],
				"attachment": [
					{ "time": 0, "name": "cloud" }
				]
			},
			"cloud7": {
				"color": [
					{ "time": 0, "color": "ffffffa1" },
					{ "time": 2.3333, "color": "ffffff9c" },
					{ "time": 4.6333, "color": "ffffff00" },
					{ "time": 16.6667, "color": "ffffff83" },
					{ "time": 20, "color": "ffffffa2" }
				],
				"attachment": [
					{ "time": 0, "name": "cloud" }
				]
			},
			"shadow": {
				"color": [
					{ "time": 0, "color": "ffffff00" },
					{ "time": 3.3333, "color": "4061c026" },
					{ "time": 6.5, "color": "ffffff00" },
					{ "time": 8.3333, "color": "a884d940" },
					{ "time": 10, "color": "ffffff00" },
					{ "time": 13.3333, "color": "4063c03f" },
					{ "time": 16.5, "color": "ffffff00" },
					{ "time": 18.3667, "color": "a884d929" },
					{ "time": 20, "color": "ffffff00" }
				],
				"attachment": [
					{ "time": 0, "name": "shadow" }
				]
			},
			"tree": {
				"attachment": [
					{ "time": 0, "name": "tree" }
				]
			},
			"tree2": {
				"attachment": [
					{ "time": 0, "name": "tree" }
				]
			},
			"tree3": {
				"attachment": [
					{ "time": 0, "name": "tree" }
				]
			}
		},
		"bones": {
			"tree1": {
				"rotate": [
					{ "time": 0, "angle": 0 },
					{ "time": 3.3333, "angle": 1.77 },
					{ "time": 6.6667, "angle": 0 },
					{ "time": 10, "angle": 1.77 },
					{ "time": 13.3333, "angle": 0 },
					{ "time": 16.6667, "angle": 1.77 },
					{ "time": 20, "angle": 0 }
				],
				"shear": [
					{ "time": 0, "x": 0, "y": 0 },
					{ "time": 3.3333, "x": 0, "y": 1.87 },
					{ "time": 6.6667, "x": 0, "y": 0 },
					{ "time": 10, "x": 0, "y": 1.87 },
					{ "time": 13.3333, "x": 0, "y": 0 },
					{ "time": 16.6667, "x": 0, "y": 1.87 },
					{ "time": 20, "x": 0, "y": 0 }
				]
			},
			"tree2": {
				"rotate": [
					{ "time": 0, "angle": 0 },
					{ "time": 3, "angle": 2.91 },
					{ "time": 6.6667, "angle": 0 },
					{ "time": 9.6667, "angle": 2.91 },
					{ "time": 13.3333, "angle": 0 },
					{ "time": 16.3333, "angle": 2.91 },
					{ "time": 20, "angle": 0 }
				],
				"shear": [
					{ "time": 0, "x": 0, "y": 0 },
					{ "time": 3, "x": 0, "y": 1.89 },
					{ "time": 6.6667, "x": 0, "y": 0 },
					{ "time": 9.6667, "x": 0, "y": 1.89 },
					{ "time": 13.3333, "x": 0, "y": 0 },
					{ "time": 16.3333, "x": 0, "y": 1.89 },
					{ "time": 20, "x": 0, "y": 0 }
				]
			},
			"tree3": {
				"rotate": [
					{ "time": 0, "angle": 0 },
					{ "time": 2, "angle": -2.69 },
					{ "time": 4.3333, "angle": 2.09 },
					{ "time": 6.6667, "angle": 0 },
					{ "time": 8.6667, "angle": -2.69 },
					{ "time": 11, "angle": 2.09 },
					{ "time": 13.3333, "angle": 0 },
					{ "time": 15.3333, "angle": -2.69 },
					{ "time": 17.6667, "angle": 2.09 },
					{ "time": 20, "angle": 0 }
				]
			},
			"cloud": {
				"translate": [
					{ "time": 0, "x": 319.6, "y": -76.1 },
					{ "time": 1.5, "x": 504.72, "y": 80.64 },
					{ "time": 1.6333, "x": -934.42, "y": -326.92 },
					{ "time": 9.1333, "x": 240.02, "y": 255.52 },
					{ "time": 9.1667, "x": -826.53, "y": -102.59 },
					{ "time": 14.6667, "x": -172.59, "y": 411.22 },
					{ "time": 14.7, "x": -338.63, "y": -633.43 },
					{ "time": 20, "x": 315.48, "y": -79.59 }
				]
			},
			"cloud2": {
				"translate": [
					{ "time": 0, "x": -20.4, "y": -552.46 },
					{ "time": 8, "x": 831.66, "y": 27.55 },
					{ "time": 11.8667, "x": -334.4, "y": -552.46 },
					{ "time": 19.8333, "x": 709.7, "y": 95.02 }
				]
			},
			"cloud3": {
				"translate": [
					{ "time": 0, "x": -642.46, "y": 6.37 },
					{ "time": 4.6333, "x": -107.67, "y": 369.35 },
					{ "time": 16.6667, "x": -1031.05, "y": -257.38 },
					{ "time": 20, "x": -646.31, "y": 3.76 }
				]
			}
		}
	},
	"bg_2": {
		"slots": {
			"bg2_light": {
				"color": [
					{ "time": 0, "color": "ffffff00" },
					{ "time": 0.1667, "color": "ffffff0d" },
					{ "time": 0.4333, "color": "ffffff04" },
					{ "time": 0.6333, "color": "ffffff11" },
					{ "time": 0.8333, "color": "ffffff08" },
					{ "time": 0.9667, "color": "ffffff11" },
					{ "time": 1.3, "color": "ffffff00" },
					{ "time": 1.4, "color": "ffffff0c" },
					{ "time": 2, "color": "ffffff00" }
				],
				"attachment": [
					{ "time": 0, "name": "bg2_light" }
				]
			},
			"fire01": {
				"color": [
					{ "time": 0, "color": "f08a8aff" },
					{ "time": 1, "color": "f5bebee3" },
					{ "time": 2, "color": "f08a8aff" }
				],
				"attachment": [
					{ "time": 0, "name": "fire_00" },
					{ "time": 0.0667, "name": "fire_01" },
					{ "time": 0.1333, "name": "fire_02" },
					{ "time": 0.2, "name": "fire_03" },
					{ "time": 0.2667, "name": "fire_04" },
					{ "time": 0.3333, "name": "fire_05" },
					{ "time": 0.4, "name": "fire_06" },
					{ "time": 0.4667, "name": "fire_07" },
					{ "time": 0.5333, "name": "fire_08" },
					{ "time": 0.6, "name": "fire_09" },
					{ "time": 0.6667, "name": "fire_10" },
					{ "time": 0.7333, "name": "fire_11" },
					{ "time": 0.8, "name": "fire_12" },
					{ "time": 0.8667, "name": "fire_13" },
					{ "time": 0.9333, "name": "fire_14" },
					{ "time": 1, "name": "fire_00" },
					{ "time": 1.0667, "name": "fire_01" },
					{ "time": 1.1333, "name": "fire_02" },
					{ "time": 1.2, "name": "fire_03" },
					{ "time": 1.2667, "name": "fire_04" },
					{ "time": 1.3333, "name": "fire_05" },
					{ "time": 1.4, "name": "fire_06" },
					{ "time": 1.4667, "name": "fire_07" },
					{ "time": 1.5333, "name": "fire_08" },
					{ "time": 1.6, "name": "fire_09" },
					{ "time": 1.6667, "name": "fire_10" },
					{ "time": 1.7333, "name": "fire_11" },
					{ "time": 1.8, "name": "fire_12" },
					{ "time": 1.8667, "name": "fire_13" },
					{ "time": 1.9333, "name": "fire_14" },
					{ "time": 2, "name": "fire_00" }
				]
			},
			"fire02": {
				"attachment": [
					{ "time": 0, "name": "fire_02" },
					{ "time": 0.0667, "name": "fire_03" },
					{ "time": 0.1333, "name": "fire_04" },
					{ "time": 0.2, "name": "fire_05" },
					{ "time": 0.2667, "name": "fire_06" },
					{ "time": 0.3333, "name": "fire_07" },
					{ "time": 0.4, "name": "fire_08" },
					{ "time": 0.4667, "name": "fire_09" },
					{ "time": 0.5333, "name": "fire_10" },
					{ "time": 0.6, "name": "fire_11" },
					{ "time": 0.6667, "name": "fire_12" },
					{ "time": 0.7333, "name": "fire_13" },
					{ "time": 0.8, "name": "fire_14" },
					{ "time": 0.8667, "name": "fire_00" },
					{ "time": 0.9333, "name": "fire_01" },
					{ "time": 1, "name": "fire_02" },
					{ "time": 1.0667, "name": "fire_03" },
					{ "time": 1.1333, "name": "fire_04" },
					{ "time": 1.2, "name": "fire_05" },
					{ "time": 1.2667, "name": "fire_06" },
					{ "time": 1.3333, "name": "fire_07" },
					{ "time": 1.4, "name": "fire_08" },
					{ "time": 1.4667, "name": "fire_09" },
					{ "time": 1.5333, "name": "fire_10" },
					{ "time": 1.6, "name": "fire_11" },
					{ "time": 1.6667, "name": "fire_12" },
					{ "time": 1.7333, "name": "fire_13" },
					{ "time": 1.8, "name": "fire_14" },
					{ "time": 1.8667, "name": "fire_00" },
					{ "time": 1.9333, "name": "fire_01" },
					{ "time": 2, "name": "fire_02" }
				]
			},
			"fire03": {
				"attachment": [
					{ "time": 0, "name": "fire_06" },
					{ "time": 0.0667, "name": "fire_07" },
					{ "time": 0.1333, "name": "fire_08" },
					{ "time": 0.2, "name": "fire_09" },
					{ "time": 0.2667, "name": "fire_10" },
					{ "time": 0.3333, "name": "fire_11" },
					{ "time": 0.4, "name": "fire_12" },
					{ "time": 0.4667, "name": "fire_13" },
					{ "time": 0.5333, "name": "fire_14" },
					{ "time": 0.6, "name": "fire_00" },
					{ "time": 0.6667, "name": "fire_01" },
					{ "time": 0.7333, "name": "fire_02" },
					{ "time": 0.8, "name": "fire_03" },
					{ "time": 0.8667, "name": "fire_04" },
					{ "time": 0.9333, "name": "fire_05" },
					{ "time": 1, "name": "fire_06" },
					{ "time": 1.0667, "name": "fire_07" },
					{ "time": 1.1333, "name": "fire_08" },
					{ "time": 1.2, "name": "fire_09" },
					{ "time": 1.2667, "name": "fire_10" },
					{ "time": 1.3333, "name": "fire_11" },
					{ "time": 1.4, "name": "fire_12" },
					{ "time": 1.4667, "name": "fire_13" },
					{ "time": 1.5333, "name": "fire_14" },
					{ "time": 1.6, "name": "fire_00" },
					{ "time": 1.6667, "name": "fire_01" },
					{ "time": 1.7333, "name": "fire_02" },
					{ "time": 1.8, "name": "fire_03" },
					{ "time": 1.8667, "name": "fire_04" },
					{ "time": 1.9333, "name": "fire_05" },
					{ "time": 2, "name": "fire_06" }
				]
			},
			"fire04": {
				"color": [
					{ "time": 0, "color": "f08a8adc" },
					{ "time": 1, "color": "f1bbbbd5" },
					{ "time": 2, "color": "f08a8adc" }
				],
				"attachment": [
					{ "time": 0, "name": "fire_11" },
					{ "time": 0.0667, "name": "fire_12" },
					{ "time": 0.1333, "name": "fire_13" },
					{ "time": 0.2, "name": "fire_14" },
					{ "time": 0.2667, "name": "fire_00" },
					{ "time": 0.3333, "name": "fire_01" },
					{ "time": 0.4, "name": "fire_02" },
					{ "time": 0.4667, "name": "fire_03" },
					{ "time": 0.5333, "name": "fire_04" },
					{ "time": 0.6, "name": "fire_05" },
					{ "time": 0.6667, "name": "fire_06" },
					{ "time": 0.7333, "name": "fire_07" },
					{ "time": 0.8, "name": "fire_08" },
					{ "time": 0.8667, "name": "fire_09" },
					{ "time": 0.9333, "name": "fire_10" },
					{ "time": 1, "name": "fire_11" },
					{ "time": 1.0667, "name": "fire_12" },
					{ "time": 1.1333, "name": "fire_13" },
					{ "time": 1.2, "name": "fire_14" },
					{ "time": 1.2667, "name": "fire_00" },
					{ "time": 1.3333, "name": "fire_01" },
					{ "time": 1.4, "name": "fire_02" },
					{ "time": 1.4667, "name": "fire_03" },
					{ "time": 1.5333, "name": "fire_04" },
					{ "time": 1.6, "name": "fire_05" },
					{ "time": 1.6667, "name": "fire_06" },
					{ "time": 1.7333, "name": "fire_07" },
					{ "time": 1.8, "name": "fire_08" },
					{ "time": 1.8667, "name": "fire_09" },
					{ "time": 1.9333, "name": "fire_10" },
					{ "time": 2, "name": "fire_11" }
				]
			},
			"fire05": {
				"color": [
					{ "time": 0, "color": "e97878b9" },
					{ "time": 1, "color": "e99b7899" },
					{ "time": 2, "color": "e97878b9" }
				],
				"attachment": [
					{ "time": 0, "name": "fire_13" },
					{ "time": 0.0667, "name": "fire_14" },
					{ "time": 0.1333, "name": "fire_00" },
					{ "time": 0.2, "name": "fire_01" },
					{ "time": 0.2667, "name": "fire_02" },
					{ "time": 0.3333, "name": "fire_03" },
					{ "time": 0.4, "name": "fire_04" },
					{ "time": 0.4667, "name": "fire_05" },
					{ "time": 0.5333, "name": "fire_06" },
					{ "time": 0.6, "name": "fire_07" },
					{ "time": 0.6667, "name": "fire_08" },
					{ "time": 0.7333, "name": "fire_09" },
					{ "time": 0.8, "name": "fire_10" },
					{ "time": 0.8667, "name": "fire_11" },
					{ "time": 0.9333, "name": "fire_12" },
					{ "time": 1, "name": "fire_13" },
					{ "time": 1.0667, "name": "fire_14" },
					{ "time": 1.1333, "name": "fire_00" },
					{ "time": 1.2, "name": "fire_01" },
					{ "time": 1.2667, "name": "fire_02" },
					{ "time": 1.3333, "name": "fire_03" },
					{ "time": 1.4, "name": "fire_04" },
					{ "time": 1.4667, "name": "fire_05" },
					{ "time": 1.5333, "name": "fire_06" },
					{ "time": 1.6, "name": "fire_07" },
					{ "time": 1.6667, "name": "fire_08" },
					{ "time": 1.7333, "name": "fire_09" },
					{ "time": 1.8, "name": "fire_10" },
					{ "time": 1.8667, "name": "fire_11" },
					{ "time": 1.9333, "name": "fire_12" },
					{ "time": 2, "name": "fire_13" }
				]
			},
			"fire06": {
				"attachment": [
					{ "time": 0, "name": "fire_06" },
					{ "time": 0.0667, "name": "fire_07" },
					{ "time": 0.1333, "name": "fire_08" },
					{ "time": 0.2, "name": "fire_09" },
					{ "time": 0.2667, "name": "fire_10" },
					{ "time": 0.3333, "name": "fire_11" },
					{ "time": 0.4, "name": "fire_12" },
					{ "time": 0.4667, "name": "fire_13" },
					{ "time": 0.5333, "name": "fire_14" },
					{ "time": 0.6, "name": "fire_00" },
					{ "time": 0.6667, "name": "fire_01" },
					{ "time": 0.7333, "name": "fire_02" },
					{ "time": 0.8, "name": "fire_03" },
					{ "time": 0.8667, "name": "fire_04" },
					{ "time": 0.9333, "name": "fire_05" },
					{ "time": 1, "name": "fire_06" },
					{ "time": 1.0667, "name": "fire_07" },
					{ "time": 1.1333, "name": "fire_08" },
					{ "time": 1.2, "name": "fire_09" },
					{ "time": 1.2667, "name": "fire_10" },
					{ "time": 1.3333, "name": "fire_11" },
					{ "time": 1.4, "name": "fire_12" },
					{ "time": 1.4667, "name": "fire_13" },
					{ "time": 1.5333, "name": "fire_14" },
					{ "time": 1.6, "name": "fire_00" },
					{ "time": 1.6667, "name": "fire_01" },
					{ "time": 1.7333, "name": "fire_02" },
					{ "time": 1.8, "name": "fire_03" },
					{ "time": 1.8667, "name": "fire_04" },
					{ "time": 1.9333, "name": "fire_05" },
					{ "time": 2, "name": "fire_06" }
				]
			},
			"fire07": {
				"color": [
					{ "time": 0, "color": "ffffffbc" },
					{ "time": 1, "color": "ffffffe4" },
					{ "time": 2, "color": "ffffffbc" }
				],
				"attachment": [
					{ "time": 0, "name": "fire_03" },
					{ "time": 0.0667, "name": "fire_04" },
					{ "time": 0.1333, "name": "fire_05" },
					{ "time": 0.2, "name": "fire_06" },
					{ "time": 0.2667, "name": "fire_07" },
					{ "time": 0.3333, "name": "fire_08" },
					{ "time": 0.4, "name": "fire_09" },
					{ "time": 0.4667, "name": "fire_10" },
					{ "time": 0.5333, "name": "fire_11" },
					{ "time": 0.6, "name": "fire_12" },
					{ "time": 0.6667, "name": "fire_13" },
					{ "time": 0.7333, "name": "fire_14" },
					{ "time": 0.8, "name": "fire_00" },
					{ "time": 0.8667, "name": "fire_01" },
					{ "time": 0.9333, "name": "fire_02" },
					{ "time": 1, "name": "fire_03" },
					{ "time": 1.0667, "name": "fire_04" },
					{ "time": 1.1333, "name": "fire_05" },
					{ "time": 1.2, "name": "fire_06" },
					{ "time": 1.2667, "name": "fire_07" },
					{ "time": 1.3333, "name": "fire_08" },
					{ "time": 1.4, "name": "fire_09" },
					{ "time": 1.4667, "name": "fire_10" },
					{ "time": 1.5333, "name": "fire_11" },
					{ "time": 1.6, "name": "fire_12" },
					{ "time": 1.6667, "name": "fire_13" },
					{ "time": 1.7333, "name": "fire_14" },
					{ "time": 1.8, "name": "fire_00" },
					{ "time": 1.8667, "name": "fire_01" },
					{ "time": 1.9333, "name": "fire_02" },
					{ "time": 2, "name": "fire_03" }
				]
			},
			"fire08": {
				"color": [
					{ "time": 0, "color": "f08a8adc" },
					{ "time": 1, "color": "f08a8aa9" },
					{ "time": 2, "color": "f08a8adc" }
				],
				"attachment": [
					{ "time": 0, "name": "fire_11" },
					{ "time": 0.0667, "name": "fire_12" },
					{ "time": 0.1333, "name": "fire_13" },
					{ "time": 0.2, "name": "fire_14" },
					{ "time": 0.2667, "name": "fire_00" },
					{ "time": 0.3333, "name": "fire_01" },
					{ "time": 0.4, "name": "fire_02" },
					{ "time": 0.4667, "name": "fire_03" },
					{ "time": 0.5333, "name": "fire_04" },
					{ "time": 0.6, "name": "fire_05" },
					{ "time": 0.6667, "name": "fire_06" },
					{ "time": 0.7333, "name": "fire_07" },
					{ "time": 0.8, "name": "fire_08" },
					{ "time": 0.8667, "name": "fire_09" },
					{ "time": 0.9333, "name": "fire_10" },
					{ "time": 1, "name": "fire_11" },
					{ "time": 1.0667, "name": "fire_12" },
					{ "time": 1.1333, "name": "fire_13" },
					{ "time": 1.2, "name": "fire_14" },
					{ "time": 1.2667, "name": "fire_00" },
					{ "time": 1.3333, "name": "fire_01" },
					{ "time": 1.4, "name": "fire_02" },
					{ "time": 1.4667, "name": "fire_03" },
					{ "time": 1.5333, "name": "fire_04" },
					{ "time": 1.6, "name": "fire_05" },
					{ "time": 1.6667, "name": "fire_06" },
					{ "time": 1.7333, "name": "fire_07" },
					{ "time": 1.8, "name": "fire_08" },
					{ "time": 1.8667, "name": "fire_09" },
					{ "time": 1.9333, "name": "fire_10" },
					{ "time": 2, "name": "fire_11" }
				]
			},
			"fire_spark3": {
				"color": [
					{ "time": 0, "color": "ffffff00" },
					{ "time": 0.6667, "color": "ffffffff", "curve": "stepped" },
					{ "time": 1.3667, "color": "ffffffff" },
					{ "time": 2, "color": "ffffff00" }
				],
				"attachment": [
					{ "time": 0, "name": "fire_spark" }
				]
			},
			"fire_spark4": {
				"color": [
					{ "time": 0, "color": "ffffff00" },
					{ "time": 0.7333, "color": "ffffffff", "curve": "stepped" },
					{ "time": 1.3667, "color": "ffffffff" },
					{ "time": 2, "color": "ffffff00" }
				],
				"attachment": [
					{ "time": 0, "name": "fire_spark" }
				]
			},
			"fire_spark5": {
				"color": [
					{ "time": 0, "color": "ffffff00" },
					{ "time": 0.6, "color": "ffffffff", "curve": "stepped" },
					{ "time": 1.4, "color": "ffffffff" },
					{ "time": 2, "color": "ffffff00" }
				],
				"attachment": [
					{ "time": 0, "name": "fire_spark" }
				]
			},
			"fire_spark6": {
				"color": [
					{ "time": 0, "color": "ffffffb2" },
					{ "time": 0.2, "color": "ffffffff", "curve": "stepped" },
					{ "time": 1, "color": "ffffffff" },
					{ "time": 1.5333, "color": "ffffff00", "curve": "stepped" },
					{ "time": 1.5667, "color": "ffffff00" },
					{ "time": 2, "color": "ffffffa5" }
				],
				"attachment": [
					{ "time": 0, "name": "fire_spark" }
				]
			},
			"fire_spark7": {
				"color": [
					{ "time": 0.4333, "color": "ffffffff" },
					{ "time": 1.0333, "color": "ffffff00", "curve": "stepped" },
					{ "time": 1.2667, "color": "ffffff00" },
					{ "time": 1.9333, "color": "ffffffff" }
				],
				"attachment": [
					{ "time": 0, "name": "fire_spark" }
				]
			},
			"fire_spark8": {
				"color": [
					{ "time": 0.4, "color": "ffffffff" },
					{ "time": 1.0333, "color": "ffffff00", "curve": "stepped" },
					{ "time": 1.0667, "color": "ffffff00" },
					{ "time": 1.7333, "color": "ffffffff" }
				],
				"attachment": [
					{ "time": 0, "name": "fire_spark" }
				]
			},
			"fire_spark9": {
				"color": [
					{ "time": 0, "color": "ffffff00" },
					{ "time": 0.6667, "color": "ffffffff", "curve": "stepped" },
					{ "time": 1.3333, "color": "ffffffff" },
					{ "time": 2, "color": "ffffff00" }
				],
				"attachment": [
					{ "time": 0, "name": "fire_spark" }
				]
			},
			"fire_spark10": {
				"color": [
					{ "time": 0.3, "color": "ffffffff" },
					{ "time": 1.0333, "color": "ffffff00", "curve": "stepped" },
					{ "time": 1.0667, "color": "ffffff00" },
					{ "time": 1.7, "color": "ffffffff" }
				],
				"attachment": [
					{ "time": 0, "name": "fire_spark" }
				]
			},
			"fire_spark11": {
				"color": [
					{ "time": 0.4, "color": "ffffffff" },
					{ "time": 1.0333, "color": "ffffff00", "curve": "stepped" },
					{ "time": 1.0667, "color": "ffffff00" },
					{ "time": 1.8, "color": "ffffffff" }
				],
				"attachment": [
					{ "time": 0, "name": "fire_spark" }
				]
			},
			"fire_spark12": {
				"color": [
					{ "time": 0.3, "color": "ffffffff" },
					{ "time": 1.0333, "color": "ffffff00", "curve": "stepped" },
					{ "time": 1.0667, "color": "ffffff00" },
					{ "time": 1.7667, "color": "ffffffff" }
				],
				"attachment": [
					{ "time": 0, "name": "fire_spark" }
				]
			},
			"fire_spark13": {
				"color": [
					{ "time": 0.3667, "color": "ffffffff" },
					{ "time": 1.0333, "color": "ffffff00", "curve": "stepped" },
					{ "time": 1.0667, "color": "ffffff00" },
					{ "time": 1.8, "color": "ffffffff" }
				],
				"attachment": [
					{ "time": 0, "name": "fire_spark" }
				]
			},
			"fire_spark14": {
				"color": [
					{ "time": 0.4333, "color": "ffffffff" },
					{ "time": 1.0333, "color": "ffffff00", "curve": "stepped" },
					{ "time": 1.0667, "color": "ffffff00" },
					{ "time": 1.6667, "color": "ffffffff" }
				],
				"attachment": [
					{ "time": 0, "name": "fire_spark" }
				]
			},
			"fire_spark15": {
				"color": [
					{ "time": 0.3667, "color": "ffffffff" },
					{ "time": 1.0333, "color": "ffffff00", "curve": "stepped" },
					{ "time": 1.0667, "color": "ffffff00" },
					{ "time": 1.7333, "color": "ffffffff" }
				],
				"attachment": [
					{ "time": 0, "name": "fire_spark" }
				]
			},
			"fire_spark16": {
				"color": [
					{ "time": 0, "color": "ffffffb2" },
					{ "time": 0.2, "color": "ffffffff" },
					{ "time": 1.5333, "color": "ffffff00", "curve": "stepped" },
					{ "time": 1.5667, "color": "ffffff00" },
					{ "time": 2, "color": "ffffffa5" }
				],
				"attachment": [
					{ "time": 0, "name": "fire_spark" }
				]
			},
			"fire_spark17": {
				"color": [
					{ "time": 0, "color": "ffffffff" },
					{ "time": 0.6333, "color": "ffffff00", "curve": "stepped" },
					{ "time": 0.6667, "color": "ffffff00" },
					{ "time": 1.3333, "color": "ffffffff" }
				],
				"attachment": [
					{ "time": 0, "name": "fire_spark" }
				]
			},
			"fire_spark18": {
				"color": [
					{ "time": 0, "color": "ffffffaa" },
					{ "time": 0.2333, "color": "ffffffff" },
					{ "time": 1.5333, "color": "ffffff00", "curve": "stepped" },
					{ "time": 1.5667, "color": "ffffff00" },
					{ "time": 2, "color": "ffffff9d" }
				],
				"attachment": [
					{ "time": 0, "name": "fire_spark" }
				]
			},
			"fire_spark19": {
				"color": [
					{ "time": 0, "color": "ffffffff" },
					{ "time": 0.6333, "color": "ffffff00", "curve": "stepped" },
					{ "time": 0.6667, "color": "ffffff00" },
					{ "time": 1.4, "color": "ffffffff" }
				],
				"attachment": [
					{ "time": 0, "name": "fire_spark" }
				]
			},
			"fire_spark20": {
				"color": [
					{ "time": 0.0333, "color": "ffffffff" },
					{ "time": 0.6333, "color": "ffffff00", "curve": "stepped" },
					{ "time": 0.6667, "color": "ffffff00" },
					{ "time": 1.2667, "color": "ffffffff" }
				],
				"attachment": [
					{ "time": 0, "name": "fire_spark" }
				]
			},
			"fire_spark21": {
				"color": [
					{ "time": 0, "color": "fffffff2" },
					{ "time": 0.6333, "color": "ffffff00", "curve": "stepped" },
					{ "time": 0.6667, "color": "ffffff00" },
					{ "time": 1.3333, "color": "ffffffff" }
				],
				"attachment": [
					{ "time": 0, "name": "fire_spark" }
				]
			},
			"fire_spark22": {
				"color": [
					{ "time": 0, "color": "ffffff00" },
					{ "time": 1.1, "color": "ffffffff" },
					{ "time": 2, "color": "ffffff00" }
				],
				"attachment": [
					{ "time": 0, "name": "fire_spark" }
				]
			},
			"fire_spark23": {
				"color": [
					{ "time": 0, "color": "ffffffe0" },
					{ "time": 0.1333, "color": "ffffffff" },
					{ "time": 1.0333, "color": "ffffff00", "curve": "stepped" },
					{ "time": 1.0667, "color": "ffffff00" },
					{ "time": 2, "color": "ffffffd8" }
				],
				"attachment": [
					{ "time": 0, "name": "fire_spark" }
				]
			},
			"fire_spark24": {
				"color": [
					{ "time": 0, "color": "ffffffa2" },
					{ "time": 0.2667, "color": "ffffffff" },
					{ "time": 1.5333, "color": "ffffff00", "curve": "stepped" },
					{ "time": 1.5667, "color": "ffffff00" },
					{ "time": 2, "color": "ffffff96" }
				],
				"attachment": [
					{ "time": 0, "name": "fire_spark" }
				]
			},
			"fire_spark25": {
				"color": [
					{ "time": 0, "color": "ffffffb3" },
					{ "time": 0.6333, "color": "ffffff00", "curve": "stepped" },
					{ "time": 0.6667, "color": "ffffff00" },
					{ "time": 1.7667, "color": "ffffffff" },
					{ "time": 2, "color": "ffffffbc" }
				],
				"attachment": [
					{ "time": 0, "name": "fire_spark" }
				]
			},
			"fire_spark26": {
				"color": [
					{ "time": 0.3667, "color": "ffffffff" },
					{ "time": 1.0333, "color": "ffffff00", "curve": "stepped" },
					{ "time": 1.0667, "color": "ffffff00" },
					{ "time": 1.8, "color": "ffffffff" }
				],
				"attachment": [
					{ "time": 0, "name": "fire_spark" }
				]
			}
		},
		"bones": {
			"spark3": {
				"translate": [
					{ "time": 0, "x": -8.32, "y": -63.17 },
					{ "time": 0.3333, "x": 7.63, "y": -34.17 },
					{ "time": 0.6667, "x": 10.53, "y": 10.78 },
					{ "time": 1, "x": -14.12, "y": 54.28 },
					{ "time": 1.3333, "x": -19.92, "y": 103.58 },
					{ "time": 1.6667, "x": 16.33, "y": 154.33 },
					{ "time": 2, "x": 38.08, "y": 212.33 }
				]
			},
			"spark6": {
				"translate": [
					{ "time": 0, "x": -19.95, "y": 32.96 },
					{ "time": 0.0333, "x": -20.82, "y": 34.07 },
					{ "time": 0.5, "x": -16.6, "y": 67.35 },
					{ "time": 1.0333, "x": 12.62, "y": 105.38 },
					{ "time": 1.0667, "x": -2.52, "y": 0.63 },
					{ "time": 1.5, "x": -5.9, "y": 15.12 },
					{ "time": 2, "x": -19.07, "y": 31.84 }
				]
			},
			"spark13": {
				"translate": [
					{ "time": 0, "x": -6.78, "y": 16.24 },
					{ "time": 0.5333, "x": -20.82, "y": 34.07 },
					{ "time": 1, "x": -16.6, "y": 67.35 },
					{ "time": 1.5333, "x": 12.62, "y": 105.38 },
					{ "time": 1.5667, "x": -2.52, "y": 0.63 },
					{ "time": 2, "x": -5.9, "y": 15.12 }
				]
			},
			"spark4": {
				"translate": [
					{ "time": 0, "x": -11.66, "y": 49.93 },
					{ "time": 0.0333, "x": -14.12, "y": 54.28 },
					{ "time": 0.3667, "x": -19.92, "y": 103.58 },
					{ "time": 0.7, "x": 16.33, "y": 154.33 },
					{ "time": 1.0333, "x": 38.08, "y": 212.33 },
					{ "time": 1.0667, "x": -8.32, "y": -63.17 },
					{ "time": 1.4, "x": 7.63, "y": -34.17 },
					{ "time": 1.7333, "x": 10.53, "y": 10.78 },
					{ "time": 2, "x": -9.19, "y": 45.58 }
				]
			},
			"spark5": {
				"translate": [
					{ "time": 0, "x": -16.3, "y": 108.66 },
					{ "time": 0.3, "x": 16.33, "y": 154.33 },
					{ "time": 0.6333, "x": 38.08, "y": 212.33 },
					{ "time": 0.6667, "x": -8.32, "y": -63.17 },
					{ "time": 1, "x": 7.63, "y": -34.17 },
					{ "time": 1.3333, "x": 10.53, "y": 10.78 },
					{ "time": 1.6667, "x": -14.12, "y": 54.28 },
					{ "time": 2, "x": -19.92, "y": 103.58 }
				]
			}
		},
		"deform": {
			"default": {
				"fire_spark3": {
					"fire_spark": [
						{ "time": 0 },
						{
							"time": 0.9333,
							"offset": 2,
							"vertices": [ 3.02039, 5.13046, -0.15698, 3.45401, -7.57391, -4.40599 ]
						},
						{
							"time": 1.3667,
							"vertices": [ -2.27638, 11.25376, 8.26935, 2.77747, 4.69764, -1.43121, -2.98489, 3.53757 ]
						},
						{
							"time": 1.5667,
							"vertices": [ -2.26886, 9.56981, 3.02039, 5.13046, 5.35101, -3.68593, -0.86688, 7.20383 ]
						},
						{
							"time": 2,
							"vertices": [ -6.69287, 12.09781, 5.0744, 5.44646, 8.03699, -4.47594, -0.86688, 7.20383 ]
						}
					]
				},
				"fire_spark4": {
					"fire_spark": [
						{ "time": 0 },
						{
							"time": 0.9333,
							"offset": 2,
							"vertices": [ 3.02039, 5.13046, -0.15698, 3.45401, -7.57391, -4.40599 ]
						},
						{
							"time": 1.3667,
							"vertices": [ -2.27638, 11.25376, 8.26935, 2.77747, 4.69764, -1.43121, -2.98489, 3.53757 ]
						},
						{
							"time": 1.5667,
							"vertices": [ -2.26886, 9.56981, 3.02039, 5.13046, 5.35101, -3.68593, -0.86688, 7.20383 ]
						},
						{
							"time": 2,
							"vertices": [ -6.69287, 12.09781, 5.0744, 5.44646, 8.03699, -4.47594, -0.86688, 7.20383 ]
						}
					]
				},
				"fire_spark5": {
					"fire_spark": [
						{ "time": 0 },
						{
							"time": 0.9333,
							"offset": 2,
							"vertices": [ 3.02039, 5.13046, -0.15698, 3.45401, -7.57391, -4.40599 ]
						},
						{
							"time": 1.3667,
							"vertices": [ -2.27638, 11.25376, 8.26935, 2.77747, 4.69764, -1.43121, -2.98489, 3.53757 ]
						},
						{
							"time": 1.5667,
							"vertices": [ -2.26886, 9.56981, 3.02039, 5.13046, 5.35101, -3.68593, -0.86688, 7.20383 ]
						},
						{
							"time": 2,
							"vertices": [ -6.69287, 12.09781, 5.0744, 5.44646, 8.03699, -4.47594, -0.86688, 7.20383 ]
						}
					]
				},
				"fire_spark6": {
					"fire_spark": [
						{
							"time": 0,
							"offset": 2,
							"vertices": [ 1.51019, 2.56523, -0.07849, 1.72701, -3.78696, -2.203 ]
						},
						{
							"time": 0.4667,
							"offset": 2,
							"vertices": [ 3.02039, 5.13046, -0.15698, 3.45401, -7.57391, -4.40599 ]
						},
						{
							"time": 0.9,
							"vertices": [ -2.27638, 11.25376, 8.26935, 2.77747, 4.69764, -1.43121, -2.98489, 3.53757 ]
						},
						{
							"time": 1.1,
							"vertices": [ -2.26886, 9.56981, 3.02039, 5.13046, 5.35101, -3.68593, -0.86688, 7.20383 ]
						},
						{
							"time": 1.5333,
							"vertices": [ -6.69287, 12.09781, 5.0744, 5.44646, 8.03699, -4.47594, -0.86688, 7.20383 ]
						},
						{ "time": 1.5667 },
						{
							"time": 2,
							"offset": 2,
							"vertices": [ 1.40232, 2.382, -0.07288, 1.60365, -3.51646, -2.04564 ]
						}
					]
				},
				"fire_spark7": {
					"fire_spark": [
						{
							"time": 0,
							"vertices": [ -0.17511, 0.86567, 3.42415, 4.94946, 0.21645, 3.07822, -7.22091, -3.79495 ]
						},
						{
							"time": 0.4,
							"vertices": [ -2.27638, 11.25376, 8.26935, 2.77747, 4.69764, -1.43121, -2.98489, 3.53757 ]
						},
						{
							"time": 0.6,
							"vertices": [ -2.26886, 9.56981, 3.02039, 5.13046, 5.35101, -3.68593, -0.86688, 7.20383 ]
						},
						{
							"time": 1.0333,
							"vertices": [ -6.69287, 12.09781, 5.0744, 5.44646, 8.03699, -4.47594, -0.86688, 7.20383 ]
						},
						{ "time": 1.0667 },
						{
							"time": 2,
							"offset": 2,
							"vertices": [ 3.02039, 5.13046, -0.15698, 3.45401, -7.57391, -4.40599 ]
						}
					]
				},
				"fire_spark8": {
					"fire_spark": [
						{
							"time": 0,
							"offset": 2,
							"vertices": [ 3.02039, 5.13046, -0.15698, 3.45401, -7.57391, -4.40599 ]
						},
						{
							"time": 0.4,
							"vertices": [ -2.27638, 11.25376, 8.26935, 2.77747, 4.69764, -1.43121, -2.98489, 3.53757 ]
						},
						{
							"time": 0.6,
							"vertices": [ -2.26886, 9.56981, 3.02039, 5.13046, 5.35101, -3.68593, -0.86688, 7.20383 ]
						},
						{
							"time": 1.0333,
							"vertices": [ -6.69287, 12.09781, 5.0744, 5.44646, 8.03699, -4.47594, -0.86688, 7.20383 ]
						},
						{ "time": 1.0667 },
						{
							"time": 2,
							"offset": 2,
							"vertices": [ 3.02039, 5.13046, -0.15698, 3.45401, -7.57391, -4.40599 ]
						}
					]
				},
				"fire_spark9": {
					"fire_spark": [
						{ "time": 0 },
						{
							"time": 0.9333,
							"offset": 2,
							"vertices": [ 3.02039, 5.13046, -0.15698, 3.45401, -7.57391, -4.40599 ]
						},
						{
							"time": 1.3667,
							"vertices": [ -2.27638, 11.25376, 8.26935, 2.77747, 4.69764, -1.43121, -2.98489, 3.53757 ]
						},
						{
							"time": 1.5667,
							"vertices": [ -2.26886, 9.56981, 3.02039, 5.13046, 5.35101, -3.68593, -0.86688, 7.20383 ]
						},
						{
							"time": 2,
							"vertices": [ -6.69287, 12.09781, 5.0744, 5.44646, 8.03699, -4.47594, -0.86688, 7.20383 ]
						}
					]
				},
				"fire_spark10": {
					"fire_spark": [
						{
							"time": 0,
							"vertices": [ -0.17511, 0.86567, 3.42415, 4.94946, 0.21645, 3.07822, -7.22091, -3.79495 ]
						},
						{
							"time": 0.4,
							"vertices": [ -2.27638, 11.25376, 8.26935, 2.77747, 4.69764, -1.43121, -2.98489, 3.53757 ]
						},
						{
							"time": 0.6,
							"vertices": [ -2.26886, 9.56981, 3.02039, 5.13046, 5.35101, -3.68593, -0.86688, 7.20383 ]
						},
						{
							"time": 1.0333,
							"vertices": [ -6.69287, 12.09781, 5.0744, 5.44646, 8.03699, -4.47594, -0.86688, 7.20383 ]
						},
						{ "time": 1.0667 },
						{
							"time": 2,
							"offset": 2,
							"vertices": [ 3.02039, 5.13046, -0.15698, 3.45401, -7.57391, -4.40599 ]
						}
					]
				},
				"fire_spark11": {
					"fire_spark": [
						{
							"time": 0,
							"offset": 2,
							"vertices": [ 3.02039, 5.13046, -0.15698, 3.45401, -7.57391, -4.40599 ]
						},
						{
							"time": 0.4,
							"vertices": [ -2.27638, 11.25376, 8.26935, 2.77747, 4.69764, -1.43121, -2.98489, 3.53757 ]
						},
						{
							"time": 0.6,
							"vertices": [ -2.26886, 9.56981, 3.02039, 5.13046, 5.35101, -3.68593, -0.86688, 7.20383 ]
						},
						{
							"time": 1.0333,
							"vertices": [ -6.69287, 12.09781, 5.0744, 5.44646, 8.03699, -4.47594, -0.86688, 7.20383 ]
						},
						{ "time": 1.0667 },
						{
							"time": 2,
							"offset": 2,
							"vertices": [ 3.02039, 5.13046, -0.15698, 3.45401, -7.57391, -4.40599 ]
						}
					]
				},
				"fire_spark12": {
					"fire_spark": [
						{
							"time": 0,
							"vertices": [ -0.17511, 0.86567, 3.42415, 4.94946, 0.21645, 3.07822, -7.22091, -3.79495 ]
						},
						{
							"time": 0.4,
							"vertices": [ -2.27638, 11.25376, 8.26935, 2.77747, 4.69764, -1.43121, -2.98489, 3.53757 ]
						},
						{
							"time": 0.6,
							"vertices": [ -2.26886, 9.56981, 3.02039, 5.13046, 5.35101, -3.68593, -0.86688, 7.20383 ]
						},
						{
							"time": 1.0333,
							"vertices": [ -6.69287, 12.09781, 5.0744, 5.44646, 8.03699, -4.47594, -0.86688, 7.20383 ]
						},
						{ "time": 1.0667 },
						{
							"time": 2,
							"offset": 2,
							"vertices": [ 3.02039, 5.13046, -0.15698, 3.45401, -7.57391, -4.40599 ]
						}
					]
				},
				"fire_spark13": {
					"fire_spark": [
						{
							"time": 0,
							"vertices": [ -0.17511, 0.86567, 3.42415, 4.94946, 0.21645, 3.07822, -7.22091, -3.79495 ]
						},
						{
							"time": 0.4,
							"vertices": [ -2.27638, 11.25376, 8.26935, 2.77747, 4.69764, -1.43121, -2.98489, 3.53757 ]
						},
						{
							"time": 0.6,
							"vertices": [ -2.26886, 9.56981, 3.02039, 5.13046, 5.35101, -3.68593, -0.86688, 7.20383 ]
						},
						{
							"time": 1.0333,
							"vertices": [ -6.69287, 12.09781, 5.0744, 5.44646, 8.03699, -4.47594, -0.86688, 7.20383 ]
						},
						{ "time": 1.0667 },
						{
							"time": 2,
							"offset": 2,
							"vertices": [ 3.02039, 5.13046, -0.15698, 3.45401, -7.57391, -4.40599 ]
						}
					]
				},
				"fire_spark14": {
					"fire_spark": [
						{
							"time": 0,
							"offset": 2,
							"vertices": [ 3.02039, 5.13046, -0.15698, 3.45401, -7.57391, -4.40599 ]
						},
						{
							"time": 0.4,
							"vertices": [ -2.27638, 11.25376, 8.26935, 2.77747, 4.69764, -1.43121, -2.98489, 3.53757 ]
						},
						{
							"time": 0.6,
							"vertices": [ -2.26886, 9.56981, 3.02039, 5.13046, 5.35101, -3.68593, -0.86688, 7.20383 ]
						},
						{
							"time": 1.0333,
							"vertices": [ -6.69287, 12.09781, 5.0744, 5.44646, 8.03699, -4.47594, -0.86688, 7.20383 ]
						},
						{ "time": 1.0667 },
						{
							"time": 2,
							"offset": 2,
							"vertices": [ 3.02039, 5.13046, -0.15698, 3.45401, -7.57391, -4.40599 ]
						}
					]
				},
				"fire_spark15": {
					"fire_spark": [
						{
							"time": 0,
							"offset": 2,
							"vertices": [ 3.02039, 5.13046, -0.15698, 3.45401, -7.57391, -4.40599 ]
						},
						{
							"time": 0.4,
							"vertices": [ -2.27638, 11.25376, 8.26935, 2.77747, 4.69764, -1.43121, -2.98489, 3.53757 ]
						},
						{
							"time": 0.6,
							"vertices": [ -2.26886, 9.56981, 3.02039, 5.13046, 5.35101, -3.68593, -0.86688, 7.20383 ]
						},
						{
							"time": 1.0333,
							"vertices": [ -6.69287, 12.09781, 5.0744, 5.44646, 8.03699, -4.47594, -0.86688, 7.20383 ]
						},
						{ "time": 1.0667 },
						{
							"time": 2,
							"offset": 2,
							"vertices": [ 3.02039, 5.13046, -0.15698, 3.45401, -7.57391, -4.40599 ]
						}
					]
				},
				"fire_spark16": {
					"fire_spark": [
						{
							"time": 0,
							"offset": 2,
							"vertices": [ 2.34919, 3.99036, -0.1221, 2.68645, -5.89082, -3.42688 ]
						},
						{
							"time": 0.1333,
							"offset": 2,
							"vertices": [ 3.02039, 5.13046, -0.15698, 3.45401, -7.57391, -4.40599 ]
						},
						{
							"time": 0.7,
							"vertices": [ -2.27638, 11.25376, 8.26935, 2.77747, 4.69764, -1.43121, -2.98489, 3.53757 ]
						},
						{
							"time": 0.9667,
							"vertices": [ -2.26886, 9.56981, 3.02039, 5.13046, 5.35101, -3.68593, -0.86688, 7.20383 ]
						},
						{
							"time": 1.5333,
							"vertices": [ -6.69287, 12.09781, 5.0744, 5.44646, 8.03699, -4.47594, -0.86688, 7.20383 ]
						},
						{ "time": 1.5667 },
						{
							"time": 2,
							"offset": 2,
							"vertices": [ 2.18139, 3.70533, -0.11338, 2.49456, -5.47005, -3.1821 ]
						}
					]
				},
				"fire_spark17": {
					"fire_spark": [
						{
							"time": 0,
							"vertices": [ -2.27638, 11.25376, 8.26935, 2.77747, 4.69764, -1.43121, -2.98489, 3.53757 ]
						},
						{
							"time": 0.2,
							"vertices": [ -2.26886, 9.56981, 3.02039, 5.13046, 5.35101, -3.68593, -0.86688, 7.20383 ]
						},
						{
							"time": 0.6333,
							"vertices": [ -6.69287, 12.09781, 5.0744, 5.44646, 8.03699, -4.47594, -0.86688, 7.20383 ]
						},
						{ "time": 0.6667 },
						{
							"time": 1.6,
							"offset": 2,
							"vertices": [ 3.02039, 5.13046, -0.15698, 3.45401, -7.57391, -4.40599 ]
						},
						{
							"time": 2,
							"vertices": [ -2.27638, 11.25376, 8.26935, 2.77747, 4.69764, -1.43121, -2.98489, 3.53757 ]
						}
					]
				},
				"fire_spark18": {
					"fire_spark": [
						{
							"time": 0,
							"offset": 2,
							"vertices": [ 2.22555, 3.78034, -0.11567, 2.54506, -5.58078, -3.24652 ]
						},
						{
							"time": 0.1667,
							"offset": 2,
							"vertices": [ 3.02039, 5.13046, -0.15698, 3.45401, -7.57391, -4.40599 ]
						},
						{
							"time": 0.7,
							"vertices": [ -2.27638, 11.25376, 8.26935, 2.77747, 4.69764, -1.43121, -2.98489, 3.53757 ]
						},
						{
							"time": 0.9667,
							"vertices": [ -2.26886, 9.56981, 3.02039, 5.13046, 5.35101, -3.68593, -0.86688, 7.20383 ]
						},
						{
							"time": 1.5333,
							"vertices": [ -6.69287, 12.09781, 5.0744, 5.44646, 8.03699, -4.47594, -0.86688, 7.20383 ]
						},
						{ "time": 1.5667 },
						{
							"time": 2,
							"offset": 2,
							"vertices": [ 2.06658, 3.51032, -0.10741, 2.36327, -5.18215, -3.01463 ]
						}
					]
				},
				"fire_spark19": {
					"fire_spark": [
						{
							"time": 0,
							"vertices": [ -2.27638, 11.25376, 8.26935, 2.77747, 4.69764, -1.43121, -2.98489, 3.53757 ]
						},
						{
							"time": 0.2,
							"vertices": [ -2.26886, 9.56981, 3.02039, 5.13046, 5.35101, -3.68593, -0.86688, 7.20383 ]
						},
						{
							"time": 0.6333,
							"vertices": [ -6.69287, 12.09781, 5.0744, 5.44646, 8.03699, -4.47594, -0.86688, 7.20383 ]
						},
						{ "time": 0.6667 },
						{
							"time": 1.6,
							"offset": 2,
							"vertices": [ 3.02039, 5.13046, -0.15698, 3.45401, -7.57391, -4.40599 ]
						},
						{
							"time": 2,
							"vertices": [ -2.27638, 11.25376, 8.26935, 2.77747, 4.69764, -1.43121, -2.98489, 3.53757 ]
						}
					]
				},
				"fire_spark20": {
					"fire_spark": [
						{
							"time": 0,
							"vertices": [ -2.27638, 11.25376, 8.26935, 2.77747, 4.69764, -1.43121, -2.98489, 3.53757 ]
						},
						{
							"time": 0.2,
							"vertices": [ -2.26886, 9.56981, 3.02039, 5.13046, 5.35101, -3.68593, -0.86688, 7.20383 ]
						},
						{
							"time": 0.6333,
							"vertices": [ -6.69287, 12.09781, 5.0744, 5.44646, 8.03699, -4.47594, -0.86688, 7.20383 ]
						},
						{ "time": 0.6667 },
						{
							"time": 1.6,
							"offset": 2,
							"vertices": [ 3.02039, 5.13046, -0.15698, 3.45401, -7.57391, -4.40599 ]
						},
						{
							"time": 2,
							"vertices": [ -2.27638, 11.25376, 8.26935, 2.77747, 4.69764, -1.43121, -2.98489, 3.53757 ]
						}
					]
				},
				"fire_spark21": {
					"fire_spark": [
						{
							"time": 0,
							"vertices": [ -2.27638, 11.25376, 8.26935, 2.77747, 4.69764, -1.43121, -2.98489, 3.53757 ]
						},
						{
							"time": 0.2,
							"vertices": [ -2.26886, 9.56981, 3.02039, 5.13046, 5.35101, -3.68593, -0.86688, 7.20383 ]
						},
						{
							"time": 0.6333,
							"vertices": [ -6.69287, 12.09781, 5.0744, 5.44646, 8.03699, -4.47594, -0.86688, 7.20383 ]
						},
						{ "time": 0.6667 },
						{
							"time": 1.6,
							"offset": 2,
							"vertices": [ 3.02039, 5.13046, -0.15698, 3.45401, -7.57391, -4.40599 ]
						},
						{
							"time": 2,
							"vertices": [ -2.27638, 11.25376, 8.26935, 2.77747, 4.69764, -1.43121, -2.98489, 3.53757 ]
						}
					]
				},
				"fire_spark22": {
					"fire_spark": [
						{ "time": 0 },
						{
							"time": 1.0667,
							"offset": 2,
							"vertices": [ 3.02039, 5.13046, -0.15698, 3.45401, -7.57391, -4.40599 ]
						},
						{
							"time": 1.4333,
							"vertices": [ -2.27638, 11.25376, 8.26935, 2.77747, 4.69764, -1.43121, -2.98489, 3.53757 ]
						},
						{
							"time": 1.6,
							"vertices": [ -2.26886, 9.56981, 3.02039, 5.13046, 5.35101, -3.68593, -0.86688, 7.20383 ]
						},
						{
							"time": 2,
							"vertices": [ -6.69287, 12.09781, 5.0744, 5.44646, 8.03699, -4.47594, -0.86688, 7.20383 ]
						}
					]
				},
				"fire_spark23": {
					"fire_spark": [
						{
							"time": 0,
							"offset": 2,
							"vertices": [ 2.64284, 4.48915, -0.13736, 3.02226, -6.62717, -3.85524 ]
						},
						{
							"time": 0.1,
							"offset": 2,
							"vertices": [ 3.02039, 5.13046, -0.15698, 3.45401, -7.57391, -4.40599 ]
						},
						{
							"time": 0.4667,
							"vertices": [ -2.27638, 11.25376, 8.26935, 2.77747, 4.69764, -1.43121, -2.98489, 3.53757 ]
						},
						{
							"time": 0.6333,
							"vertices": [ -2.26886, 9.56981, 3.02039, 5.13046, 5.35101, -3.68593, -0.86688, 7.20383 ]
						},
						{
							"time": 1.0333,
							"vertices": [ -6.69287, 12.09781, 5.0744, 5.44646, 8.03699, -4.47594, -0.86688, 7.20383 ]
						},
						{ "time": 1.0667 },
						{
							"time": 2,
							"offset": 2,
							"vertices": [ 2.64284, 4.48915, -0.13736, 3.02226, -6.62717, -3.85524 ]
						}
					]
				},
				"fire_spark24": {
					"fire_spark": [
						{
							"time": 0,
							"offset": 2,
							"vertices": [ 2.11427, 3.59132, -0.10989, 2.41781, -5.30174, -3.08419 ]
						},
						{
							"time": 0.2,
							"offset": 2,
							"vertices": [ 3.02039, 5.13046, -0.15698, 3.45401, -7.57391, -4.40599 ]
						},
						{
							"time": 0.7333,
							"vertices": [ -2.27638, 11.25376, 8.26935, 2.77747, 4.69764, -1.43121, -2.98489, 3.53757 ]
						},
						{
							"time": 1,
							"vertices": [ -2.26886, 9.56981, 3.02039, 5.13046, 5.35101, -3.68593, -0.86688, 7.20383 ]
						},
						{
							"time": 1.5333,
							"vertices": [ -6.69287, 12.09781, 5.0744, 5.44646, 8.03699, -4.47594, -0.86688, 7.20383 ]
						},
						{ "time": 1.5667 },
						{
							"time": 2,
							"offset": 2,
							"vertices": [ 1.96325, 3.3348, -0.10204, 2.24511, -4.92304, -2.86389 ]
						}
					]
				},
				"fire_spark25": {
					"fire_spark": [
						{
							"time": 0,
							"vertices": [ -1.86249, 9.20762, 8.68596, 1.83425, 3.81499, -0.54299, -3.81926, 2.09329 ]
						},
						{
							"time": 0.0667,
							"vertices": [ -2.27638, 11.25376, 8.26935, 2.77747, 4.69764, -1.43121, -2.98489, 3.53757 ]
						},
						{
							"time": 0.2333,
							"vertices": [ -2.26886, 9.56981, 3.02039, 5.13046, 5.35101, -3.68593, -0.86688, 7.20383 ]
						},
						{
							"time": 0.6333,
							"vertices": [ -6.69287, 12.09781, 5.0744, 5.44646, 8.03699, -4.47594, -0.86688, 7.20383 ]
						},
						{ "time": 0.6667 },
						{
							"time": 1.7333,
							"offset": 2,
							"vertices": [ 3.02039, 5.13046, -0.15698, 3.45401, -7.57391, -4.40599 ]
						},
						{
							"time": 2,
							"vertices": [ -1.86249, 9.20762, 8.68596, 1.83425, 3.81499, -0.54299, -3.81926, 2.09329 ]
						}
					]
				},
				"fire_spark26": {
					"fire_spark": [
						{
							"time": 0,
							"vertices": [ -0.17511, 0.86567, 3.42415, 4.94946, 0.21645, 3.07822, -7.22091, -3.79495 ]
						},
						{
							"time": 0.4,
							"vertices": [ -2.27638, 11.25376, 8.26935, 2.77747, 4.69764, -1.43121, -2.98489, 3.53757 ]
						},
						{
							"time": 0.6,
							"vertices": [ -2.26886, 9.56981, 3.02039, 5.13046, 5.35101, -3.68593, -0.86688, 7.20383 ]
						},
						{
							"time": 1.0333,
							"vertices": [ -6.69287, 12.09781, 5.0744, 5.44646, 8.03699, -4.47594, -0.86688, 7.20383 ]
						},
						{ "time": 1.0667 },
						{
							"time": 2,
							"offset": 2,
							"vertices": [ 3.02039, 5.13046, -0.15698, 3.45401, -7.57391, -4.40599 ]
						}
					]
				}
			}
		}
	},
	"bg_3": {}
}
}