{
"skeleton": { "hash": "EMD65h8OLFN7itvj9UVRveSG6VM", "spine": "3.7.94", "width": 986.61, "height": 396.8 },
"bones": [
	{ "name": "root" },
	{ "name": "txt_boss", "parent": "root", "y": 16.32, "scaleX": 1.101, "scaleY": 1.101 },
	{ "name": "txt_debut", "parent": "root", "x": 45.5, "y": -60.62 },
	{ "name": "gem", "parent": "root", "y": -223.26 },
	{ "name": "spark", "parent": "gem", "x": 48.46, "y": 59.4 },
	{ "name": "gem_r", "parent": "gem", "length": 132.77, "rotation": -2.28, "x": 96.97, "y": 29.72 },
	{ "name": "wing1", "parent": "gem", "length": 284.14, "rotation": 51.25, "x": 119.61, "y": 7.74 },
	{
		"name": "wing2",
		"parent": "gem",
		"length": 320.41,
		"rotation": 33.16,
		"x": 211.42,
		"y": 1.4,
		"scaleX": 0.96
	},
	{ "name": "txt_debut2", "parent": "root", "x": -127.15, "y": -37.2 },
	{ "name": "spark2", "parent": "gem", "x": -53, "y": 60.72, "scaleX": -1 },
	{
		"name": "wing3",
		"parent": "gem",
		"length": 284.14,
		"rotation": -37.1,
		"x": -105.99,
		"y": 18.64,
		"scaleX": -1
	},
	{
		"name": "gem_r2",
		"parent": "gem",
		"length": 132.77,
		"rotation": -2.28,
		"x": -119.09,
		"y": 23.65,
		"scaleX": -1
	},
	{
		"name": "wing4",
		"parent": "gem",
		"length": 320.41,
		"rotation": -31.5,
		"x": -142.57,
		"y": -8.91,
		"scaleX": -1
	},
	{ "name": "smoke", "parent": "root", "x": -217.28, "y": -49.87 },
	{ "name": "smoke2", "parent": "root", "x": 198.57, "y": -120.93, "scaleX": -1 },
	{ "name": "bet", "parent": "root", "y": -118.51 },
	{ "name": "hundr", "parent": "bet", "x": -40.3, "y": 2.85 },
	{ "name": "tens", "parent": "bet", "x": -12.02, "y": 3.01 },
	{ "name": "digit", "parent": "bet", "x": 16.24, "y": 3.49 },
	{ "name": "thou", "parent": "bet", "x": -70.31, "y": 2.85 }
],
"slots": [
	{ "name": "wing2", "bone": "wing2", "attachment": "wing2" },
	{ "name": "wing4", "bone": "wing4", "attachment": "wing2" },
	{ "name": "wing1", "bone": "wing1", "attachment": "wing1" },
	{ "name": "wing3", "bone": "wing3", "attachment": "wing1" },
	{ "name": "gem_r", "bone": "gem_r", "attachment": "gem_r" },
	{ "name": "gem_r2", "bone": "gem_r2", "attachment": "gem_r" },
	{ "name": "gem", "bone": "gem", "attachment": "gem" },
	{ "name": "spark", "bone": "spark", "attachment": "spark", "blend": "additive" },
	{ "name": "spark2", "bone": "spark2", "attachment": "spark", "blend": "additive" },
	{ "name": "txt_boss", "bone": "txt_boss", "attachment": "txt_boss" },
	{ "name": "txt_debut", "bone": "txt_debut", "attachment": "txt_debut" },
	{ "name": "txt_debut2", "bone": "txt_debut2" },
	{ "name": "smoke", "bone": "smoke" },
	{ "name": "smoke2", "bone": "smoke2" },
	{ "name": "bet", "bone": "bet", "attachment": "bet" },
	{ "name": "thou", "bone": "thou", "attachment": "num11" },
	{ "name": "hundrl2", "bone": "thou", "blend": "additive" },
	{ "name": "hundr", "bone": "hundr", "attachment": "num2" },
	{ "name": "num0", "bone": "tens", "attachment": "num0" },
	{ "name": "num3", "bone": "digit", "attachment": "num0" },
	{ "name": "hundrl", "bone": "hundr", "blend": "additive" },
	{ "name": "num0l", "bone": "tens", "blend": "additive" },
	{ "name": "num2l2", "bone": "digit", "blend": "additive" }
],
"skins": {
	"default": {
		"bet": {
			"bet": { "x": 1.34, "width": 168, "height": 68 }
		},
		"gem": {
			"gem": { "y": 39.6, "width": 548, "height": 167 }
		},
		"gem_r": {
			"gem_r": { "x": 84.51, "y": 10.16, "rotation": 2.28, "width": 323, "height": 132 }
		},
		"gem_r2": {
			"gem_r": { "x": 84.51, "y": 10.16, "rotation": 2.28, "width": 323, "height": 132 }
		},
		"hundr": {
			"num2": { "x": -3.33, "width": 49, "height": 62 },
			"num6": { "x": 0.5, "width": 46, "height": 63 },
			"num9": { "x": -0.38, "width": 46, "height": 63 }
		},
		"hundrl": {
			"num2l": { "x": 0.19, "y": 2.49, "width": 43, "height": 58 },
			"num6l": { "x": 0.19, "y": 2.49, "width": 41, "height": 59 },
			"num9l": { "x": -0.69, "y": 2.49, "width": 42, "height": 59 }
		},
		"hundrl2": {
			"num6l": { "x": 0.19, "y": 2.49, "width": 41, "height": 59 },
			"num8l": { "x": 0.19, "y": 2.49, "width": 40, "height": 58 },
			"num8l2": { "path": "num0l", "x": 0.19, "y": 2.49, "width": 41, "height": 59 },
			"num8l3": { "path": "num1l", "x": 0.19, "y": 2.49, "width": 36, "height": 57 }
		},
		"num0": {
			"num0": { "x": -0.52, "width": 45, "height": 63 }
		},
		"num0l": {
			"num0l": { "x": -0.36, "y": 3.68, "width": 41, "height": 59 }
		},
		"num2l2": {
			"num0l": { "x": -0.36, "y": 3.68, "width": 41, "height": 59 }
		},
		"num3": {
			"num0": { "x": -0.94, "width": 45, "height": 63 }
		},
		"smoke": {
			"smoke": { "width": 454, "height": 312 }
		},
		"smoke2": {
			"smoke": { "x": 7.9, "y": 42.11, "width": 454, "height": 312 }
		},
		"spark": {
			"spark": { "x": -3.42, "y": -0.33, "width": 299, "height": 71 }
		},
		"spark2": {
			"spark": { "x": -3.42, "y": -0.33, "width": 299, "height": 71 }
		},
		"thou": {
			"num6": { "x": 0.5, "width": 46, "height": 63 },
			"num8": { "x": 0.5, "width": 40, "height": 58 },
			"num10": { "path": "num0", "x": 0.5, "width": 45, "height": 63 },
			"num11": { "path": "num1", "x": 0.5, "width": 41, "height": 62 }
		},
		"txt_boss": {
			"txt_boss": { "x": 5.26, "y": 32.45, "width": 383, "height": 141 }
		},
		"txt_debut": {
			"txt_debut": { "x": 4.47, "y": 23.76, "width": 218, "height": 95 }
		},
		"txt_debut2": {
			"txt_boss_DiaoChan": { "width": 222, "height": 97 },
			"txt_boss_DongZhuo": { "y": 0.5, "width": 220, "height": 97 },
			"txt_boss_lubu": { "width": 215, "height": 97 }
		},
		"wing1": {
			"wing1": { "x": 121.59, "y": -1.01, "rotation": -57.46, "width": 155, "height": 224 }
		},
		"wing2": {
			"wing2": { "color": "b1b1b1ff", "x": 188.09, "y": -4.75, "rotation": -31.71, "width": 316, "height": 194 }
		},
		"wing3": {
			"wing1": { "x": 121.59, "y": -1.01, "rotation": -57.46, "width": 155, "height": 224 }
		},
		"wing4": {
			"wing2": { "color": "b1b1b1ff", "x": 188.09, "y": -4.75, "rotation": -31.71, "width": 316, "height": 194 }
		}
	}
},
"animations": {
	"DiaoChan": {
		"slots": {
			"bet": {
				"color": [
					{ "time": 3.3333, "color": "ffffffff" },
					{ "time": 3.8333, "color": "ffffff00" }
				],
				"attachment": [
					{ "time": 0, "name": null },
					{ "time": 1, "name": "bet" }
				]
			},
			"gem": {
				"color": [
					{ "time": 3.3333, "color": "ffffffff" },
					{ "time": 3.8333, "color": "ffffff00" }
				]
			},
			"gem_r": {
				"color": [
					{ "time": 3.3333, "color": "ffffffff" },
					{ "time": 3.8333, "color": "ffffff00" }
				]
			},
			"gem_r2": {
				"color": [
					{ "time": 3.3333, "color": "ffffffff" },
					{ "time": 3.8333, "color": "ffffff00" }
				]
			},
			"hundr": {
				"color": [
					{ "time": 3.3333, "color": "ffffffff" },
					{ "time": 3.8333, "color": "ffffff00" }
				],
				"attachment": [
					{ "time": 0, "name": null },
					{ "time": 1.1667, "name": "num9" }
				]
			},
			"hundrl": {
				"color": [
					{ "time": 1.1667, "color": "ffffff00" },
					{ "time": 1.3333, "color": "ffffffff" },
					{ "time": 1.6667, "color": "ffffff00" }
				],
				"attachment": [
					{ "time": 1, "name": "num6l" },
					{ "time": 1.1667, "name": "num9l" }
				]
			},
			"num0": {
				"color": [
					{ "time": 3.3333, "color": "ffffffff" },
					{ "time": 3.8333, "color": "ffffff00" }
				],
				"attachment": [
					{ "time": 0, "name": null },
					{ "time": 1.1667, "name": "num0" }
				]
			},
			"num0l": {
				"color": [
					{ "time": 1.1667, "color": "ffffff00" },
					{ "time": 1.2667, "color": "ffffffff" },
					{ "time": 1.6667, "color": "ffffff00" }
				],
				"attachment": [
					{ "time": 1.1667, "name": "num0l" }
				]
			},
			"num3": {
				"color": [
					{ "time": 3.3333, "color": "ffffffff" },
					{ "time": 3.8333, "color": "ffffff00" }
				],
				"attachment": [
					{ "time": 0, "name": null },
					{ "time": 1.3333, "name": "num0" }
				]
			},
			"num2l2": {
				"color": [
					{ "time": 1.3333, "color": "ffffff00" },
					{ "time": 1.4333, "color": "ffffffff" },
					{ "time": 1.8333, "color": "ffffff00" }
				],
				"attachment": [
					{ "time": 1.3333, "name": "num0l" }
				]
			},
			"smoke": {
				"color": [
					{ "time": 0, "color": "ffffffff" },
					{ "time": 0.1667, "color": "ffffff00" },
					{ "time": 0.3, "color": "ffffffff" },
					{ "time": 0.5, "color": "ffffff00", "curve": "stepped" },
					{ "time": 1.3, "color": "ffffff00" },
					{ "time": 1.3333, "color": "ffffffff" },
					{ "time": 1.5, "color": "ffffff00" }
				],
				"attachment": [
					{ "time": 0.1667, "name": "smoke" }
				]
			},
			"smoke2": {
				"color": [
					{ "time": 0, "color": "ffffffff" },
					{ "time": 0.1667, "color": "ffffff00" },
					{ "time": 0.3, "color": "ffffffff" },
					{ "time": 0.5, "color": "ffffff00", "curve": "stepped" },
					{ "time": 1.3, "color": "ffffff00" },
					{ "time": 1.3333, "color": "ffffffff" },
					{ "time": 1.5, "color": "ffffff00" }
				],
				"attachment": [
					{ "time": 0.1667, "name": "smoke" }
				]
			},
			"spark": {
				"color": [
					{ "time": 0, "color": "ffffffff" },
					{ "time": 0.1667, "color": "ffffff24" },
					{ "time": 0.5, "color": "ffffffff" },
					{ "time": 1, "color": "ffffff00", "curve": "stepped" },
					{ "time": 3.3333, "color": "ffffff00" },
					{ "time": 3.8333, "color": "ffffff00" }
				],
				"attachment": [
					{ "time": 0, "name": null },
					{ "time": 0.1667, "name": "spark" }
				]
			},
			"spark2": {
				"color": [
					{ "time": 0, "color": "ffffffff" },
					{ "time": 0.1667, "color": "ffffff24" },
					{ "time": 0.5, "color": "ffffffff" },
					{ "time": 1, "color": "ffffff00", "curve": "stepped" },
					{ "time": 3.3333, "color": "ffffff00" },
					{ "time": 3.8333, "color": "ffffff00" }
				],
				"attachment": [
					{ "time": 0, "name": null },
					{ "time": 0.1667, "name": "spark" }
				]
			},
			"thou": {
				"color": [
					{ "time": 3.3333, "color": "ffffffff" },
					{ "time": 3.8333, "color": "ffffff00" }
				],
				"attachment": [
					{ "time": 0, "name": null }
				]
			},
			"txt_boss": {
				"color": [
					{ "time": 3.3333, "color": "ffffffff" },
					{ "time": 3.8333, "color": "ffffff00" }
				]
			},
			"txt_debut": {
				"color": [
					{ "time": 3.3333, "color": "ffffffff" },
					{ "time": 3.8333, "color": "ffffff00" }
				],
				"attachment": [
					{ "time": 0, "name": null },
					{ "time": 0.1667, "name": "txt_debut" }
				]
			},
			"txt_debut2": {
				"color": [
					{ "time": 3.3333, "color": "ffffffff" },
					{ "time": 3.8333, "color": "ffffff00" }
				],
				"attachment": [
					{ "time": 0.1667, "name": "txt_boss_DiaoChan" }
				]
			},
			"wing1": {
				"color": [
					{ "time": 3.3333, "color": "ffffffff" },
					{ "time": 3.8333, "color": "ffffff00" }
				]
			},
			"wing2": {
				"color": [
					{ "time": 3.3333, "color": "ffffffff" },
					{ "time": 3.8333, "color": "ffffff00" }
				]
			},
			"wing3": {
				"color": [
					{ "time": 3.3333, "color": "ffffffff" },
					{ "time": 3.8333, "color": "ffffff00" }
				]
			},
			"wing4": {
				"color": [
					{ "time": 3.3333, "color": "ffffffff" },
					{ "time": 3.8333, "color": "ffffff00" }
				]
			}
		},
		"bones": {
			"txt_boss": {
				"translate": [
					{ "time": 1, "x": 0, "y": 0 },
					{ "time": 1.5, "x": 0, "y": -17.93 }
				],
				"scale": [
					{ "time": 0, "x": 0, "y": 0 },
					{ "time": 0.1667, "x": 1, "y": -0.004 },
					{ "time": 0.3333, "x": 1, "y": 1 }
				]
			},
			"txt_debut": {
				"translate": [
					{ "time": 0.1667, "x": 700.24, "y": 5.14 },
					{ "time": 0.3, "x": 14.19, "y": 11.67 },
					{ "time": 0.4, "x": 37.88, "y": 14.15, "curve": "stepped" },
					{ "time": 1, "x": 37.88, "y": 14.15 },
					{ "time": 1.5, "x": 37.88, "y": -3.78 }
				],
				"scale": [
					{ "time": 0.1667, "x": 1, "y": -0.016 },
					{ "time": 0.3, "x": 1, "y": 1 }
				]
			},
			"spark": {
				"scale": [
					{ "time": 0.5, "x": 1, "y": 1 },
					{ "time": 1, "x": 2.031, "y": 2.031 }
				]
			},
			"gem": {
				"rotate": [
					{ "time": 0, "angle": 3.35 },
					{ "time": 0.1667, "angle": -2.36 },
					{ "time": 0.3333, "angle": 1.68 },
					{ "time": 0.5, "angle": 0 }
				],
				"translate": [
					{ "time": 0, "x": 0, "y": 182.91 },
					{ "time": 0.1667, "x": 0, "y": 82.99 },
					{ "time": 1, "x": 0, "y": 67.38 }
				],
				"scale": [
					{ "time": 0, "x": 2.198, "y": 2.198 },
					{ "time": 0.1667, "x": 0.8, "y": 0.8 },
					{ "time": 0.3333, "x": 1.1, "y": 1.1 },
					{ "time": 0.5, "x": 1, "y": 1 }
				]
			},
			"gem_r": {
				"rotate": [
					{ "time": 0, "angle": -10.2, "curve": "stepped" },
					{ "time": 0.1667, "angle": -10.2 },
					{ "time": 0.4, "angle": -17.88 },
					{ "time": 0.6667, "angle": -5.75 },
					{ "time": 0.8333, "angle": -6.08 }
				],
				"translate": [
					{ "time": 0, "x": -145.83, "y": 11.72, "curve": "stepped" },
					{ "time": 0.1667, "x": -145.83, "y": 11.72 },
					{ "time": 0.4, "x": -35.12, "y": -10.06 },
					{ "time": 0.8333, "x": -36.03, "y": -4.61 }
				],
				"scale": [
					{ "time": 0, "x": 0.644, "y": 0.644, "curve": "stepped" },
					{ "time": 0.1667, "x": 0.644, "y": 0.644 },
					{ "time": 0.4, "x": 1, "y": 1 }
				]
			},
			"txt_debut2": {
				"translate": [
					{ "time": 0, "x": -2, "y": 0 },
					{ "time": 0.1667, "x": -590.1, "y": 5.14 },
					{ "time": 0.3, "x": 49.51, "y": 14.15 },
					{ "time": 0.4, "x": 51.41, "y": 14.15, "curve": "stepped" },
					{ "time": 1, "x": 51.41, "y": 14.15 },
					{ "time": 1.5, "x": 51.41, "y": -3.78 }
				],
				"scale": [
					{ "time": 0.1667, "x": 1, "y": -0.016 },
					{ "time": 0.3, "x": 1, "y": 1 }
				]
			},
			"root": {
				"translate": [
					{ "time": 0.6667, "x": 0, "y": 0 },
					{ "time": 1, "x": 0, "y": -126.21 }
				]
			},
			"spark2": {
				"scale": [
					{ "time": 0.5, "x": 1, "y": 1 },
					{ "time": 1, "x": 2, "y": 2 }
				]
			},
			"wing2": {
				"rotate": [
					{ "time": 0, "angle": -20.88 },
					{ "time": 0.2667, "angle": -20.46 },
					{ "time": 0.8333, "angle": -10.3 }
				],
				"translate": [
					{ "time": 0, "x": -185.97, "y": 39.42 },
					{ "time": 0.2667, "x": -130.1, "y": -5.53 }
				],
				"scale": [
					{ "time": 0, "x": 0.271, "y": 0.743, "curve": "stepped" },
					{ "time": 0.2667, "x": 0.271, "y": 0.743 },
					{ "time": 0.5, "x": 1.041, "y": 1 }
				]
			},
			"wing1": {
				"rotate": [
					{ "time": 0, "angle": -26.46, "curve": "stepped" },
					{ "time": 0.3333, "angle": -26.46 },
					{ "time": 1, "angle": -0.17 }
				],
				"translate": [
					{ "time": 0, "x": -77.98, "y": 19.91 },
					{ "time": 0.3333, "x": -50.76, "y": -2.54 },
					{ "time": 0.6667, "x": -4.23, "y": 21.15 }
				],
				"scale": [
					{ "time": 0, "x": 0.415, "y": 0.563, "curve": "stepped" },
					{ "time": 0.3333, "x": 0.415, "y": 0.563 },
					{ "time": 0.6667, "x": 1, "y": 1 }
				]
			},
			"wing3": {
				"rotate": [
					{ "time": 0, "angle": 23.72, "curve": "stepped" },
					{ "time": 0.3333, "angle": 23.72 },
					{ "time": 1, "angle": -0.17 }
				],
				"translate": [
					{ "time": 0, "x": 91.85, "y": 25.1, "curve": "stepped" },
					{ "time": 0.3333, "x": 91.85, "y": 25.1 },
					{ "time": 0.6667, "x": -4.23, "y": 21.15 }
				],
				"scale": [
					{ "time": 0, "x": 0.415, "y": 0.563, "curve": "stepped" },
					{ "time": 0.3333, "x": 0.415, "y": 0.563 },
					{ "time": 0.6667, "x": 1, "y": 1 }
				]
			},
			"gem_r2": {
				"rotate": [
					{ "time": 0, "angle": 11.03, "curve": "stepped" },
					{ "time": 0.1667, "angle": 11.03 },
					{ "time": 0.4, "angle": 12.67 },
					{ "time": 0.6667, "angle": 9.32 },
					{ "time": 0.8333, "angle": 11.15 }
				],
				"translate": [
					{ "time": 0, "x": 162.2, "y": 12.75, "curve": "stepped" },
					{ "time": 0.1667, "x": 162.2, "y": 12.75 },
					{ "time": 0.4, "x": 48.39, "y": -9.32 },
					{ "time": 0.8333, "x": 51.94, "y": -0.71 }
				],
				"scale": [
					{ "time": 0, "x": 0.644, "y": 0.644, "curve": "stepped" },
					{ "time": 0.1667, "x": 0.644, "y": 0.644 },
					{ "time": 0.4, "x": 1, "y": 1 }
				]
			},
			"wing4": {
				"rotate": [
					{ "time": 0, "angle": 11.77, "curve": "stepped" },
					{ "time": 0.2667, "angle": 11.77 },
					{ "time": 0.8333, "angle": 12.34 }
				],
				"translate": [
					{ "time": 0, "x": 115.41, "y": 39.05 },
					{ "time": 0.2667, "x": 41.9, "y": 7.81 }
				],
				"scale": [
					{ "time": 0, "x": 0.271, "y": 0.743, "curve": "stepped" },
					{ "time": 0.2667, "x": 0.271, "y": 0.743 },
					{ "time": 0.5, "x": 1.041, "y": 1 }
				]
			},
			"smoke": {
				"translate": [
					{ "time": 0.1667, "x": 189.58, "y": -49.75 },
					{ "time": 0.5, "x": -406.56, "y": -42.05 },
					{ "time": 1.3333, "x": 123.79, "y": -64.66 },
					{ "time": 1.5, "x": 81.96, "y": -73.64 }
				],
				"scale": [
					{ "time": 0.1667, "x": 0.648, "y": 0.648 },
					{ "time": 0.5, "x": 1.486, "y": 1.486 },
					{ "time": 1.3333, "x": 0.214, "y": 0.214 },
					{ "time": 1.5, "x": 0.442, "y": 0.442 }
				]
			},
			"smoke2": {
				"translate": [
					{ "time": 0.1667, "x": -179.83, "y": 3.82 },
					{ "time": 0.5, "x": 403.8, "y": -21.08 },
					{ "time": 1.3333, "x": -118.38, "y": 6.57 },
					{ "time": 1.5, "x": -62.25, "y": -8.83 }
				],
				"scale": [
					{ "time": 0.1667, "x": 0.648, "y": 0.648 },
					{ "time": 0.5, "x": 1.486, "y": 1.486 },
					{ "time": 1.3333, "x": 0.241, "y": 0.241 },
					{ "time": 1.5, "x": 0.475, "y": 0.475 }
				]
			},
			"bet": {
				"rotate": [
					{ "time": 1, "angle": 15 },
					{ "time": 1.2333, "angle": -2.71 },
					{ "time": 1.4333, "angle": 0.57 }
				],
				"translate": [
					{ "time": 1, "x": 6.84, "y": 209.29 },
					{ "time": 1.2333, "x": 0, "y": 13.27 },
					{ "time": 1.4333, "x": 0, "y": -15.28 }
				],
				"scale": [
					{ "time": 1, "x": 5.214, "y": 5.214 },
					{ "time": 1.2333, "x": 1, "y": 1 },
					{ "time": 1.4333, "x": 1.2, "y": 1.2 }
				]
			},
			"hundr": {
				"scale": [
					{ "time": 1, "x": 1, "y": 1 },
					{ "time": 1.1667, "x": 1.676, "y": 1.676 },
					{ "time": 1.4, "x": 0.905, "y": 0.905 },
					{ "time": 1.5, "x": 1, "y": 1 }
				]
			},
			"tens": {
				"scale": [
					{ "time": 1.1667, "x": 1, "y": 1 },
					{ "time": 1.3333, "x": 1.604, "y": 1.604 },
					{ "time": 1.5667, "x": 0.876, "y": 0.876 },
					{ "time": 1.6667, "x": 1, "y": 1 }
				]
			},
			"digit": {
				"scale": [
					{ "time": 1.3333, "x": 1, "y": 1 },
					{ "time": 1.5, "x": 1.559, "y": 1.559 },
					{ "time": 1.7333, "x": 0.876, "y": 0.876 },
					{ "time": 1.8333, "x": 1, "y": 1 }
				]
			}
		}
	},
	"DongZhuo": {
		"slots": {
			"bet": {
				"color": [
					{ "time": 3.3333, "color": "ffffffff" },
					{ "time": 3.8333, "color": "ffffff00" }
				],
				"attachment": [
					{ "time": 0, "name": null },
					{ "time": 1, "name": "bet" }
				]
			},
			"gem": {
				"color": [
					{ "time": 3.3333, "color": "ffffffff" },
					{ "time": 3.8333, "color": "ffffff00" }
				]
			},
			"gem_r": {
				"color": [
					{ "time": 3.3333, "color": "ffffffff" },
					{ "time": 3.8333, "color": "ffffff00" }
				]
			},
			"gem_r2": {
				"color": [
					{ "time": 3.3333, "color": "ffffffff" },
					{ "time": 3.8333, "color": "ffffff00" }
				]
			},
			"hundr": {
				"color": [
					{ "time": 3.3333, "color": "ffffffff" },
					{ "time": 3.8333, "color": "ffffff00" }
				],
				"attachment": [
					{ "time": 0, "name": null },
					{ "time": 1.1667, "name": "num2" }
				]
			},
			"hundrl": {
				"color": [
					{ "time": 1.3333, "color": "ffffff00" },
					{ "time": 1.5, "color": "ffffffff" },
					{ "time": 1.8333, "color": "ffffff00" }
				],
				"attachment": [
					{ "time": 1.1667, "name": "num2l" }
				]
			},
			"hundrl2": {
				"color": [
					{ "time": 1.1, "color": "ffffffff" },
					{ "time": 1.6, "color": "ffffff00" }
				],
				"attachment": [
					{ "time": 1.1, "name": "num8l3" }
				]
			},
			"num0": {
				"color": [
					{ "time": 3.3333, "color": "ffffffff" },
					{ "time": 3.8333, "color": "ffffff00" }
				],
				"attachment": [
					{ "time": 0, "name": null },
					{ "time": 1.3333, "name": "num0" }
				]
			},
			"num0l": {
				"color": [
					{ "time": 1.3333, "color": "ffffff00" },
					{ "time": 1.4333, "color": "ffffffff" },
					{ "time": 1.8333, "color": "ffffff00" }
				],
				"attachment": [
					{ "time": 1.3333, "name": "num0l" }
				]
			},
			"num3": {
				"color": [
					{ "time": 3.3333, "color": "ffffffff" },
					{ "time": 3.8333, "color": "ffffff00" }
				],
				"attachment": [
					{ "time": 0, "name": null },
					{ "time": 1.5, "name": "num0" }
				]
			},
			"num2l2": {
				"color": [
					{ "time": 1.5, "color": "ffffff00" },
					{ "time": 1.6, "color": "ffffffff" },
					{ "time": 2, "color": "ffffff00" }
				],
				"attachment": [
					{ "time": 1.5, "name": "num0l" }
				]
			},
			"smoke": {
				"color": [
					{ "time": 0, "color": "ffffffff" },
					{ "time": 0.1667, "color": "ffffff00" },
					{ "time": 0.3, "color": "ffffffff" },
					{ "time": 0.5, "color": "ffffff00", "curve": "stepped" },
					{ "time": 1.3, "color": "ffffff00" },
					{ "time": 1.3333, "color": "ffffffff" },
					{ "time": 1.5, "color": "ffffff00" }
				],
				"attachment": [
					{ "time": 0.1667, "name": "smoke" }
				]
			},
			"smoke2": {
				"color": [
					{ "time": 0, "color": "ffffffff" },
					{ "time": 0.1667, "color": "ffffff00" },
					{ "time": 0.3, "color": "ffffffff" },
					{ "time": 0.5, "color": "ffffff00", "curve": "stepped" },
					{ "time": 1.3, "color": "ffffff00" },
					{ "time": 1.3333, "color": "ffffffff" },
					{ "time": 1.5, "color": "ffffff00" }
				],
				"attachment": [
					{ "time": 0.1667, "name": "smoke" }
				]
			},
			"spark": {
				"color": [
					{ "time": 0, "color": "ffffffff" },
					{ "time": 0.1667, "color": "ffffff24" },
					{ "time": 0.5, "color": "ffffffff" },
					{ "time": 1, "color": "ffffff00", "curve": "stepped" },
					{ "time": 3.3333, "color": "ffffff00" },
					{ "time": 3.8333, "color": "ffffff00" }
				],
				"attachment": [
					{ "time": 0, "name": null },
					{ "time": 0.1667, "name": "spark" }
				]
			},
			"spark2": {
				"color": [
					{ "time": 0, "color": "ffffffff" },
					{ "time": 0.1667, "color": "ffffff24" },
					{ "time": 0.5, "color": "ffffffff" },
					{ "time": 1, "color": "ffffff00", "curve": "stepped" },
					{ "time": 3.3333, "color": "ffffff00" },
					{ "time": 3.8333, "color": "ffffff00" }
				],
				"attachment": [
					{ "time": 0, "name": null },
					{ "time": 0.1667, "name": "spark" }
				]
			},
			"thou": {
				"color": [
					{ "time": 3.3333, "color": "ffffffff" },
					{ "time": 3.8333, "color": "ffffff00" }
				],
				"attachment": [
					{ "time": 0, "name": null },
					{ "time": 1.1, "name": "num11" }
				]
			},
			"txt_boss": {
				"color": [
					{ "time": 3.3333, "color": "ffffffff" },
					{ "time": 3.8333, "color": "ffffff00" }
				]
			},
			"txt_debut": {
				"color": [
					{ "time": 3.3333, "color": "ffffffff" },
					{ "time": 3.8333, "color": "ffffff00" }
				],
				"attachment": [
					{ "time": 0, "name": null },
					{ "time": 0.1667, "name": "txt_debut" }
				]
			},
			"txt_debut2": {
				"color": [
					{ "time": 3.3333, "color": "ffffffff" },
					{ "time": 3.8333, "color": "ffffff00" }
				],
				"attachment": [
					{ "time": 0.1667, "name": "txt_boss_DongZhuo" }
				]
			},
			"wing1": {
				"color": [
					{ "time": 3.3333, "color": "ffffffff" },
					{ "time": 3.8333, "color": "ffffff00" }
				]
			},
			"wing2": {
				"color": [
					{ "time": 3.3333, "color": "ffffffff" },
					{ "time": 3.8333, "color": "ffffff00" }
				]
			},
			"wing3": {
				"color": [
					{ "time": 3.3333, "color": "ffffffff" },
					{ "time": 3.8333, "color": "ffffff00" }
				]
			},
			"wing4": {
				"color": [
					{ "time": 3.3333, "color": "ffffffff" },
					{ "time": 3.8333, "color": "ffffff00" }
				]
			}
		},
		"bones": {
			"txt_boss": {
				"translate": [
					{ "time": 1, "x": 0, "y": 0 },
					{ "time": 1.5, "x": 0, "y": -17.93 }
				],
				"scale": [
					{ "time": 0, "x": 0, "y": 0 },
					{ "time": 0.1667, "x": 1, "y": -0.004 },
					{ "time": 0.3333, "x": 1, "y": 1 }
				]
			},
			"txt_debut": {
				"translate": [
					{ "time": 0.1667, "x": 700.24, "y": 5.14 },
					{ "time": 0.3, "x": 14.19, "y": 11.67 },
					{ "time": 0.4, "x": 37.88, "y": 14.15, "curve": "stepped" },
					{ "time": 1, "x": 37.88, "y": 14.15 },
					{ "time": 1.5, "x": 37.88, "y": -3.78 }
				],
				"scale": [
					{ "time": 0.1667, "x": 1, "y": -0.016 },
					{ "time": 0.3, "x": 1, "y": 1 }
				]
			},
			"spark": {
				"scale": [
					{ "time": 0.5, "x": 1, "y": 1 },
					{ "time": 1, "x": 2.031, "y": 2.031 }
				]
			},
			"gem": {
				"rotate": [
					{ "time": 0, "angle": 3.35 },
					{ "time": 0.1667, "angle": -2.36 },
					{ "time": 0.3333, "angle": 1.68 },
					{ "time": 0.5, "angle": 0 }
				],
				"translate": [
					{ "time": 0, "x": 0, "y": 182.91 },
					{ "time": 0.1667, "x": 0, "y": 82.99 },
					{ "time": 1, "x": 0, "y": 67.38 }
				],
				"scale": [
					{ "time": 0, "x": 2.198, "y": 2.198 },
					{ "time": 0.1667, "x": 0.8, "y": 0.8 },
					{ "time": 0.3333, "x": 1.1, "y": 1.1 },
					{ "time": 0.5, "x": 1, "y": 1 }
				]
			},
			"gem_r": {
				"rotate": [
					{ "time": 0, "angle": -10.2, "curve": "stepped" },
					{ "time": 0.1667, "angle": -10.2 },
					{ "time": 0.4, "angle": -17.88 },
					{ "time": 0.6667, "angle": -5.75 },
					{ "time": 0.8333, "angle": -6.08 }
				],
				"translate": [
					{ "time": 0, "x": -145.83, "y": 11.72, "curve": "stepped" },
					{ "time": 0.1667, "x": -145.83, "y": 11.72 },
					{ "time": 0.4, "x": -35.12, "y": -10.06 },
					{ "time": 0.8333, "x": -36.03, "y": -4.61 }
				],
				"scale": [
					{ "time": 0, "x": 0.644, "y": 0.644, "curve": "stepped" },
					{ "time": 0.1667, "x": 0.644, "y": 0.644 },
					{ "time": 0.4, "x": 1, "y": 1 }
				]
			},
			"txt_debut2": {
				"translate": [
					{ "time": 0, "x": -2, "y": 0 },
					{ "time": 0.1667, "x": -590.1, "y": 5.14 },
					{ "time": 0.3, "x": 49.51, "y": 14.15 },
					{ "time": 0.4, "x": 51.41, "y": 14.15, "curve": "stepped" },
					{ "time": 1, "x": 51.41, "y": 14.15 },
					{ "time": 1.5, "x": 51.41, "y": -3.78 }
				],
				"scale": [
					{ "time": 0.1667, "x": 1, "y": -0.016 },
					{ "time": 0.3, "x": 1, "y": 1 }
				]
			},
			"root": {
				"translate": [
					{ "time": 0.6667, "x": 0, "y": 0 },
					{ "time": 1, "x": 0, "y": -126.21 }
				]
			},
			"spark2": {
				"scale": [
					{ "time": 0.5, "x": 1, "y": 1 },
					{ "time": 1, "x": 2, "y": 2 }
				]
			},
			"wing2": {
				"rotate": [
					{ "time": 0, "angle": -20.88 },
					{ "time": 0.2667, "angle": -20.46 },
					{ "time": 0.8333, "angle": -10.3 }
				],
				"translate": [
					{ "time": 0, "x": -185.97, "y": 39.42 },
					{ "time": 0.2667, "x": -130.1, "y": -5.53 }
				],
				"scale": [
					{ "time": 0, "x": 0.271, "y": 0.743, "curve": "stepped" },
					{ "time": 0.2667, "x": 0.271, "y": 0.743 },
					{ "time": 0.5, "x": 1.041, "y": 1 }
				]
			},
			"wing1": {
				"rotate": [
					{ "time": 0, "angle": -26.46, "curve": "stepped" },
					{ "time": 0.3333, "angle": -26.46 },
					{ "time": 1, "angle": -0.17 }
				],
				"translate": [
					{ "time": 0, "x": -77.98, "y": 19.91 },
					{ "time": 0.3333, "x": -50.76, "y": -2.54 },
					{ "time": 0.6667, "x": -4.23, "y": 21.15 }
				],
				"scale": [
					{ "time": 0, "x": 0.415, "y": 0.563, "curve": "stepped" },
					{ "time": 0.3333, "x": 0.415, "y": 0.563 },
					{ "time": 0.6667, "x": 1, "y": 1 }
				]
			},
			"wing3": {
				"rotate": [
					{ "time": 0, "angle": 23.72, "curve": "stepped" },
					{ "time": 0.3333, "angle": 23.72 },
					{ "time": 1, "angle": -0.17 }
				],
				"translate": [
					{ "time": 0, "x": 91.85, "y": 25.1, "curve": "stepped" },
					{ "time": 0.3333, "x": 91.85, "y": 25.1 },
					{ "time": 0.6667, "x": -4.23, "y": 21.15 }
				],
				"scale": [
					{ "time": 0, "x": 0.415, "y": 0.563, "curve": "stepped" },
					{ "time": 0.3333, "x": 0.415, "y": 0.563 },
					{ "time": 0.6667, "x": 1, "y": 1 }
				]
			},
			"gem_r2": {
				"rotate": [
					{ "time": 0, "angle": 11.03, "curve": "stepped" },
					{ "time": 0.1667, "angle": 11.03 },
					{ "time": 0.4, "angle": 12.67 },
					{ "time": 0.6667, "angle": 9.32 },
					{ "time": 0.8333, "angle": 11.15 }
				],
				"translate": [
					{ "time": 0, "x": 162.2, "y": 12.75, "curve": "stepped" },
					{ "time": 0.1667, "x": 162.2, "y": 12.75 },
					{ "time": 0.4, "x": 48.39, "y": -9.32 },
					{ "time": 0.8333, "x": 51.94, "y": -0.71 }
				],
				"scale": [
					{ "time": 0, "x": 0.644, "y": 0.644, "curve": "stepped" },
					{ "time": 0.1667, "x": 0.644, "y": 0.644 },
					{ "time": 0.4, "x": 1, "y": 1 }
				]
			},
			"wing4": {
				"rotate": [
					{ "time": 0, "angle": 11.77, "curve": "stepped" },
					{ "time": 0.2667, "angle": 11.77 },
					{ "time": 0.8333, "angle": 12.34 }
				],
				"translate": [
					{ "time": 0, "x": 115.41, "y": 39.05 },
					{ "time": 0.2667, "x": 41.9, "y": 7.81 }
				],
				"scale": [
					{ "time": 0, "x": 0.271, "y": 0.743, "curve": "stepped" },
					{ "time": 0.2667, "x": 0.271, "y": 0.743 },
					{ "time": 0.5, "x": 1.041, "y": 1 }
				]
			},
			"smoke": {
				"translate": [
					{ "time": 0.1667, "x": 189.58, "y": -49.75 },
					{ "time": 0.5, "x": -406.56, "y": -42.05 },
					{ "time": 1.3333, "x": 123.79, "y": -64.66 },
					{ "time": 1.5, "x": 81.96, "y": -73.64 }
				],
				"scale": [
					{ "time": 0.1667, "x": 0.648, "y": 0.648 },
					{ "time": 0.5, "x": 1.486, "y": 1.486 },
					{ "time": 1.3333, "x": 0.214, "y": 0.214 },
					{ "time": 1.5, "x": 0.442, "y": 0.442 }
				]
			},
			"smoke2": {
				"translate": [
					{ "time": 0.1667, "x": -179.83, "y": 3.82 },
					{ "time": 0.5, "x": 403.8, "y": -21.08 },
					{ "time": 1.3333, "x": -118.38, "y": 6.57 },
					{ "time": 1.5, "x": -62.25, "y": -8.83 }
				],
				"scale": [
					{ "time": 0.1667, "x": 0.648, "y": 0.648 },
					{ "time": 0.5, "x": 1.486, "y": 1.486 },
					{ "time": 1.3333, "x": 0.241, "y": 0.241 },
					{ "time": 1.5, "x": 0.475, "y": 0.475 }
				]
			},
			"bet": {
				"rotate": [
					{ "time": 1, "angle": 15 },
					{ "time": 1.2333, "angle": -2.71 },
					{ "time": 1.4333, "angle": 0.57 }
				],
				"translate": [
					{ "time": 1, "x": 0, "y": 209.29 },
					{ "time": 1.2333, "x": 0, "y": 13.27 },
					{ "time": 1.4333, "x": 0, "y": -15.28 }
				],
				"scale": [
					{ "time": 1, "x": 5.214, "y": 5.214 },
					{ "time": 1.2333, "x": 1, "y": 1 },
					{ "time": 1.4333, "x": 1.2, "y": 1.2 }
				]
			},
			"hundr": {
				"translate": [
					{ "time": 1.1667, "x": 9.21, "y": -2.47 },
					{ "time": 2, "x": 2.4, "y": -2.4 }
				],
				"scale": [
					{ "time": 1.1667, "x": 1, "y": 1 },
					{ "time": 1.3333, "x": 1.676, "y": 1.676 },
					{ "time": 1.5667, "x": 0.905, "y": 0.905 },
					{ "time": 1.6667, "x": 1, "y": 1 }
				]
			},
			"tens": {
				"translate": [
					{ "time": 1.1667, "x": 9.21, "y": -2.47 },
					{ "time": 2, "x": 2.4, "y": -2.4 }
				],
				"scale": [
					{ "time": 1.3333, "x": 1, "y": 1 },
					{ "time": 1.5, "x": 1.604, "y": 1.604 },
					{ "time": 1.7333, "x": 0.876, "y": 0.876 },
					{ "time": 1.8333, "x": 1, "y": 1 }
				]
			},
			"digit": {
				"translate": [
					{ "time": 1.1667, "x": 9.21, "y": -2.47 },
					{ "time": 2, "x": 2.4, "y": -2.4 }
				],
				"scale": [
					{ "time": 1.5, "x": 1, "y": 1 },
					{ "time": 1.6667, "x": 1.559, "y": 1.559 },
					{ "time": 1.9, "x": 0.876, "y": 0.876 },
					{ "time": 2, "x": 1, "y": 1 }
				]
			},
			"thou": {
				"translate": [
					{ "time": 1.1, "x": 9.21, "y": -2.47 },
					{ "time": 1.7667, "x": 2.4, "y": -2.4 }
				],
				"scale": [
					{ "time": 1.1, "x": 1, "y": 1 },
					{ "time": 1.3333, "x": 0.905, "y": 0.905 },
					{ "time": 1.4333, "x": 1, "y": 1 }
				]
			}
		}
	},
	"LuBu": {
		"slots": {
			"bet": {
				"color": [
					{ "time": 3.3333, "color": "ffffffff" },
					{ "time": 3.8333, "color": "ffffff00" }
				],
				"attachment": [
					{ "time": 0, "name": null },
					{ "time": 1, "name": "bet" }
				]
			},
			"gem": {
				"color": [
					{ "time": 3.3333, "color": "ffffffff" },
					{ "time": 3.8333, "color": "ffffff00" }
				]
			},
			"gem_r": {
				"color": [
					{ "time": 3.3333, "color": "ffffffff" },
					{ "time": 3.8333, "color": "ffffff00" }
				]
			},
			"gem_r2": {
				"color": [
					{ "time": 3.3333, "color": "ffffffff" },
					{ "time": 3.8333, "color": "ffffff00" }
				]
			},
			"hundr": {
				"color": [
					{ "time": 3.3333, "color": "ffffffff" },
					{ "time": 3.8333, "color": "ffffff00" }
				],
				"attachment": [
					{ "time": 0, "name": null },
					{ "time": 1.1667, "name": "num6" }
				]
			},
			"hundrl": {
				"color": [
					{ "time": 1.1667, "color": "ffffff00" },
					{ "time": 1.3333, "color": "ffffffff" },
					{ "time": 1.6667, "color": "ffffff00" }
				],
				"attachment": [
					{ "time": 1, "name": "num9l" },
					{ "time": 1.1667, "name": "num6l" }
				]
			},
			"num0": {
				"color": [
					{ "time": 3.3333, "color": "ffffffff" },
					{ "time": 3.8333, "color": "ffffff00" }
				],
				"attachment": [
					{ "time": 0, "name": null },
					{ "time": 1.1667, "name": "num0" }
				]
			},
			"num0l": {
				"color": [
					{ "time": 1.1667, "color": "ffffff00" },
					{ "time": 1.2667, "color": "ffffffff" },
					{ "time": 1.6667, "color": "ffffff00" }
				],
				"attachment": [
					{ "time": 1.1667, "name": "num0l" }
				]
			},
			"num3": {
				"color": [
					{ "time": 3.3333, "color": "ffffffff" },
					{ "time": 3.8333, "color": "ffffff00" }
				],
				"attachment": [
					{ "time": 0, "name": null },
					{ "time": 1.3333, "name": "num0" }
				]
			},
			"num2l2": {
				"color": [
					{ "time": 1.3333, "color": "ffffff00" },
					{ "time": 1.4333, "color": "ffffffff" },
					{ "time": 1.8333, "color": "ffffff00" }
				],
				"attachment": [
					{ "time": 1.3333, "name": "num0l" }
				]
			},
			"smoke": {
				"color": [
					{ "time": 0, "color": "ffffffff" },
					{ "time": 0.1667, "color": "ffffff00" },
					{ "time": 0.3, "color": "ffffffff" },
					{ "time": 0.5, "color": "ffffff00", "curve": "stepped" },
					{ "time": 1.3, "color": "ffffff00" },
					{ "time": 1.3333, "color": "ffffffff" },
					{ "time": 1.5, "color": "ffffff00" }
				],
				"attachment": [
					{ "time": 0.1667, "name": "smoke" }
				]
			},
			"smoke2": {
				"color": [
					{ "time": 0, "color": "ffffffff" },
					{ "time": 0.1667, "color": "ffffff00" },
					{ "time": 0.3, "color": "ffffffff" },
					{ "time": 0.5, "color": "ffffff00", "curve": "stepped" },
					{ "time": 1.3, "color": "ffffff00" },
					{ "time": 1.3333, "color": "ffffffff" },
					{ "time": 1.5, "color": "ffffff00" }
				],
				"attachment": [
					{ "time": 0.1667, "name": "smoke" }
				]
			},
			"spark": {
				"color": [
					{ "time": 0, "color": "ffffffff" },
					{ "time": 0.1667, "color": "ffffff24" },
					{ "time": 0.5, "color": "ffffffff" },
					{ "time": 1, "color": "ffffff00", "curve": "stepped" },
					{ "time": 3.3333, "color": "ffffff00" },
					{ "time": 3.8333, "color": "ffffff00" }
				],
				"attachment": [
					{ "time": 0, "name": null },
					{ "time": 0.1667, "name": "spark" }
				]
			},
			"spark2": {
				"color": [
					{ "time": 0, "color": "ffffffff" },
					{ "time": 0.1667, "color": "ffffff24" },
					{ "time": 0.5, "color": "ffffffff" },
					{ "time": 1, "color": "ffffff00", "curve": "stepped" },
					{ "time": 3.3333, "color": "ffffff00" },
					{ "time": 3.8333, "color": "ffffff00" }
				],
				"attachment": [
					{ "time": 0, "name": null },
					{ "time": 0.1667, "name": "spark" }
				]
			},
			"thou": {
				"color": [
					{ "time": 3.3333, "color": "ffffffff" },
					{ "time": 3.8333, "color": "ffffff00" }
				],
				"attachment": [
					{ "time": 0, "name": null }
				]
			},
			"txt_boss": {
				"color": [
					{ "time": 3.3333, "color": "ffffffff" },
					{ "time": 3.8333, "color": "ffffff00" }
				]
			},
			"txt_debut": {
				"color": [
					{ "time": 3.3333, "color": "ffffffff" },
					{ "time": 3.8333, "color": "ffffff00" }
				],
				"attachment": [
					{ "time": 0, "name": null },
					{ "time": 0.1667, "name": "txt_debut" }
				]
			},
			"txt_debut2": {
				"color": [
					{ "time": 3.3333, "color": "ffffffff" },
					{ "time": 3.8333, "color": "ffffff00" }
				],
				"attachment": [
					{ "time": 0.1667, "name": "txt_boss_lubu" }
				]
			},
			"wing1": {
				"color": [
					{ "time": 3.3333, "color": "ffffffff" },
					{ "time": 3.8333, "color": "ffffff00" }
				]
			},
			"wing2": {
				"color": [
					{ "time": 3.3333, "color": "ffffffff" },
					{ "time": 3.8333, "color": "ffffff00" }
				]
			},
			"wing3": {
				"color": [
					{ "time": 3.3333, "color": "ffffffff" },
					{ "time": 3.8333, "color": "ffffff00" }
				]
			},
			"wing4": {
				"color": [
					{ "time": 3.3333, "color": "ffffffff" },
					{ "time": 3.8333, "color": "ffffff00" }
				]
			}
		},
		"bones": {
			"txt_boss": {
				"translate": [
					{ "time": 1, "x": 0, "y": 0 },
					{ "time": 1.5, "x": 0, "y": -17.93 }
				],
				"scale": [
					{ "time": 0, "x": 0, "y": 0 },
					{ "time": 0.1667, "x": 1, "y": -0.004 },
					{ "time": 0.3333, "x": 1, "y": 1 }
				]
			},
			"txt_debut": {
				"translate": [
					{ "time": 0.1667, "x": 700.24, "y": 5.14 },
					{ "time": 0.3, "x": 14.19, "y": 11.67 },
					{ "time": 0.4, "x": 37.88, "y": 14.15, "curve": "stepped" },
					{ "time": 1, "x": 37.88, "y": 14.15 },
					{ "time": 1.5, "x": 37.88, "y": -3.78 }
				],
				"scale": [
					{ "time": 0.1667, "x": 1, "y": -0.016 },
					{ "time": 0.3, "x": 1, "y": 1 }
				]
			},
			"spark": {
				"scale": [
					{ "time": 0.5, "x": 1, "y": 1 },
					{ "time": 1, "x": 2.031, "y": 2.031 }
				]
			},
			"gem": {
				"rotate": [
					{ "time": 0, "angle": 3.35 },
					{ "time": 0.1667, "angle": -2.36 },
					{ "time": 0.3333, "angle": 1.68 },
					{ "time": 0.5, "angle": 0 }
				],
				"translate": [
					{ "time": 0, "x": 0, "y": 182.91 },
					{ "time": 0.1667, "x": 0, "y": 82.99 },
					{ "time": 1, "x": 0, "y": 67.38 }
				],
				"scale": [
					{ "time": 0, "x": 2.198, "y": 2.198 },
					{ "time": 0.1667, "x": 0.8, "y": 0.8 },
					{ "time": 0.3333, "x": 1.1, "y": 1.1 },
					{ "time": 0.5, "x": 1, "y": 1 }
				]
			},
			"gem_r": {
				"rotate": [
					{ "time": 0, "angle": -10.2, "curve": "stepped" },
					{ "time": 0.1667, "angle": -10.2 },
					{ "time": 0.4, "angle": -17.88 },
					{ "time": 0.6667, "angle": -5.75 },
					{ "time": 0.8333, "angle": -6.08 }
				],
				"translate": [
					{ "time": 0, "x": -145.83, "y": 11.72, "curve": "stepped" },
					{ "time": 0.1667, "x": -145.83, "y": 11.72 },
					{ "time": 0.4, "x": -35.12, "y": -10.06 },
					{ "time": 0.8333, "x": -36.03, "y": -4.61 }
				],
				"scale": [
					{ "time": 0, "x": 0.644, "y": 0.644, "curve": "stepped" },
					{ "time": 0.1667, "x": 0.644, "y": 0.644 },
					{ "time": 0.4, "x": 1, "y": 1 }
				]
			},
			"txt_debut2": {
				"translate": [
					{ "time": 0, "x": -2, "y": 0 },
					{ "time": 0.1667, "x": -590.1, "y": 5.14 },
					{ "time": 0.3, "x": 49.51, "y": 14.15 },
					{ "time": 0.4, "x": 51.41, "y": 14.15, "curve": "stepped" },
					{ "time": 1, "x": 51.41, "y": 14.15 },
					{ "time": 1.5, "x": 51.41, "y": -3.78 }
				],
				"scale": [
					{ "time": 0.1667, "x": 1, "y": -0.016 },
					{ "time": 0.3, "x": 1, "y": 1 }
				]
			},
			"root": {
				"translate": [
					{ "time": 0.6667, "x": 0, "y": 0 },
					{ "time": 1, "x": 0, "y": -126.21 }
				]
			},
			"spark2": {
				"scale": [
					{ "time": 0.5, "x": 1, "y": 1 },
					{ "time": 1, "x": 2, "y": 2 }
				]
			},
			"wing2": {
				"rotate": [
					{ "time": 0, "angle": -20.88 },
					{ "time": 0.2667, "angle": -20.46 },
					{ "time": 0.8333, "angle": -10.3 }
				],
				"translate": [
					{ "time": 0, "x": -185.97, "y": 39.42 },
					{ "time": 0.2667, "x": -130.1, "y": -5.53 }
				],
				"scale": [
					{ "time": 0, "x": 0.271, "y": 0.743, "curve": "stepped" },
					{ "time": 0.2667, "x": 0.271, "y": 0.743 },
					{ "time": 0.5, "x": 1.041, "y": 1 }
				]
			},
			"wing1": {
				"rotate": [
					{ "time": 0, "angle": -26.46, "curve": "stepped" },
					{ "time": 0.3333, "angle": -26.46 },
					{ "time": 1, "angle": -0.17 }
				],
				"translate": [
					{ "time": 0, "x": -77.98, "y": 19.91 },
					{ "time": 0.3333, "x": -50.76, "y": -2.54 },
					{ "time": 0.6667, "x": -4.23, "y": 21.15 }
				],
				"scale": [
					{ "time": 0, "x": 0.415, "y": 0.563, "curve": "stepped" },
					{ "time": 0.3333, "x": 0.415, "y": 0.563 },
					{ "time": 0.6667, "x": 1, "y": 1 }
				]
			},
			"wing3": {
				"rotate": [
					{ "time": 0, "angle": 23.72, "curve": "stepped" },
					{ "time": 0.3333, "angle": 23.72 },
					{ "time": 1, "angle": -0.17 }
				],
				"translate": [
					{ "time": 0, "x": 91.85, "y": 25.1, "curve": "stepped" },
					{ "time": 0.3333, "x": 91.85, "y": 25.1 },
					{ "time": 0.6667, "x": -4.23, "y": 21.15 }
				],
				"scale": [
					{ "time": 0, "x": 0.415, "y": 0.563, "curve": "stepped" },
					{ "time": 0.3333, "x": 0.415, "y": 0.563 },
					{ "time": 0.6667, "x": 1, "y": 1 }
				]
			},
			"gem_r2": {
				"rotate": [
					{ "time": 0, "angle": 11.03, "curve": "stepped" },
					{ "time": 0.1667, "angle": 11.03 },
					{ "time": 0.4, "angle": 12.67 },
					{ "time": 0.6667, "angle": 9.32 },
					{ "time": 0.8333, "angle": 11.15 }
				],
				"translate": [
					{ "time": 0, "x": 162.2, "y": 12.75, "curve": "stepped" },
					{ "time": 0.1667, "x": 162.2, "y": 12.75 },
					{ "time": 0.4, "x": 48.39, "y": -9.32 },
					{ "time": 0.8333, "x": 51.94, "y": -0.71 }
				],
				"scale": [
					{ "time": 0, "x": 0.644, "y": 0.644, "curve": "stepped" },
					{ "time": 0.1667, "x": 0.644, "y": 0.644 },
					{ "time": 0.4, "x": 1, "y": 1 }
				]
			},
			"wing4": {
				"rotate": [
					{ "time": 0, "angle": 11.77, "curve": "stepped" },
					{ "time": 0.2667, "angle": 11.77 },
					{ "time": 0.8333, "angle": 12.34 }
				],
				"translate": [
					{ "time": 0, "x": 115.41, "y": 39.05 },
					{ "time": 0.2667, "x": 41.9, "y": 7.81 }
				],
				"scale": [
					{ "time": 0, "x": 0.271, "y": 0.743, "curve": "stepped" },
					{ "time": 0.2667, "x": 0.271, "y": 0.743 },
					{ "time": 0.5, "x": 1.041, "y": 1 }
				]
			},
			"smoke": {
				"translate": [
					{ "time": 0.1667, "x": 189.58, "y": -49.75 },
					{ "time": 0.5, "x": -406.56, "y": -42.05 },
					{ "time": 1.3333, "x": 123.79, "y": -64.66 },
					{ "time": 1.5, "x": 81.96, "y": -73.64 }
				],
				"scale": [
					{ "time": 0.1667, "x": 0.648, "y": 0.648 },
					{ "time": 0.5, "x": 1.486, "y": 1.486 },
					{ "time": 1.3333, "x": 0.214, "y": 0.214 },
					{ "time": 1.5, "x": 0.442, "y": 0.442 }
				]
			},
			"smoke2": {
				"translate": [
					{ "time": 0.1667, "x": -179.83, "y": 3.82 },
					{ "time": 0.5, "x": 403.8, "y": -21.08 },
					{ "time": 1.3333, "x": -118.38, "y": 6.57 },
					{ "time": 1.5, "x": -62.25, "y": -8.83 }
				],
				"scale": [
					{ "time": 0.1667, "x": 0.648, "y": 0.648 },
					{ "time": 0.5, "x": 1.486, "y": 1.486 },
					{ "time": 1.3333, "x": 0.241, "y": 0.241 },
					{ "time": 1.5, "x": 0.475, "y": 0.475 }
				]
			},
			"bet": {
				"rotate": [
					{ "time": 1, "angle": 15 },
					{ "time": 1.2333, "angle": -2.71 },
					{ "time": 1.4333, "angle": 0.57 }
				],
				"translate": [
					{ "time": 1, "x": 0, "y": 209.29 },
					{ "time": 1.2333, "x": 0, "y": 13.27 },
					{ "time": 1.4333, "x": 0, "y": -15.28 }
				],
				"scale": [
					{ "time": 1, "x": 5.214, "y": 5.214 },
					{ "time": 1.2333, "x": 1, "y": 1 },
					{ "time": 1.4333, "x": 1.2, "y": 1.2 }
				]
			},
			"hundr": {
				"scale": [
					{ "time": 1, "x": 1, "y": 1 },
					{ "time": 1.1667, "x": 1.676, "y": 1.676 },
					{ "time": 1.4, "x": 0.905, "y": 0.905 },
					{ "time": 1.5, "x": 1, "y": 1 }
				]
			},
			"tens": {
				"scale": [
					{ "time": 1.1667, "x": 1, "y": 1 },
					{ "time": 1.3333, "x": 1.604, "y": 1.604 },
					{ "time": 1.5667, "x": 0.876, "y": 0.876 },
					{ "time": 1.6667, "x": 1, "y": 1 }
				]
			},
			"digit": {
				"scale": [
					{ "time": 1.3333, "x": 1, "y": 1 },
					{ "time": 1.5, "x": 1.559, "y": 1.559 },
					{ "time": 1.7333, "x": 0.876, "y": 0.876 },
					{ "time": 1.8333, "x": 1, "y": 1 }
				]
			}
		}
	}
}
}