{
"skeleton": { "hash": "fsy+B6IjSKHKceOE3fGhwpfw18U", "spine": "3.7.94", "width": 100, "height": 145.99 },
"bones": [
	{ "name": "root", "x": -14.05, "y": -429.66 },
	{ "name": "dice", "parent": "root" },
	{ "name": "light", "parent": "dice" },
	{ "name": "dice2", "parent": "root", "y": -45.99 }
],
"slots": [
	{ "name": "dicet2", "bone": "dice2", "color": "00000084", "attachment": "dicet1" },
	{ "name": "dice", "bone": "dice", "attachment": "dice6" },
	{ "name": "dicet", "bone": "dice", "attachment": "dicet1" },
	{ "name": "light", "bone": "light", "blend": "additive" }
],
"skins": {
	"default": {
		"dice": {
			"dice1": { "width": 100, "height": 100 },
			"dice2": { "width": 100, "height": 100 },
			"dice3": { "width": 100, "height": 100 },
			"dice4": { "width": 100, "height": 100 },
			"dice5": { "width": 100, "height": 100 },
			"dice6": { "width": 100, "height": 100 }
		},
		"dicet": {
			"dicet1": { "width": 100, "height": 100 },
			"dicet2": { "width": 100, "height": 100 },
			"dicet3": { "width": 100, "height": 100 },
			"dicet4": { "width": 100, "height": 100 }
		},
		"dicet2": {
			"dice1": { "width": 100, "height": 100 },
			"dicet1": { "width": 100, "height": 100 },
			"dicet2": { "width": 100, "height": 100 },
			"dicet3": { "width": 100, "height": 100 },
			"dicet4": { "width": 100, "height": 100 }
		},
		"light": {
			"light": { "x": 0.5, "width": 128, "height": 127 }
		}
	}
},
"animations": {
	"dice1": {
		"slots": {
			"dice": {
				"color": [
					{ "time": 1.3333, "color": "ffffffff" },
					{ "time": 1.6667, "color": "00000000" }
				],
				"attachment": [
					{ "time": 0, "name": null },
					{ "time": 1.0667, "name": "dice1" }
				]
			},
			"dicet": {
				"attachment": [
					{ "time": 0.0667, "name": "dicet2" },
					{ "time": 0.1333, "name": "dicet3" },
					{ "time": 0.2, "name": "dicet4" },
					{ "time": 0.3333, "name": "dicet1" },
					{ "time": 0.4, "name": "dicet2" },
					{ "time": 0.4667, "name": "dicet3" },
					{ "time": 0.5333, "name": "dicet4" },
					{ "time": 0.6, "name": "dicet1" },
					{ "time": 0.6667, "name": "dicet2" },
					{ "time": 0.7333, "name": "dicet3" },
					{ "time": 0.8, "name": "dicet4" },
					{ "time": 0.8667, "name": "dicet1" },
					{ "time": 0.9333, "name": "dicet2" },
					{ "time": 1, "name": "dicet3" },
					{ "time": 1.0667, "name": null }
				]
			},
			"dicet2": {
				"color": [
					{ "time": 1.3333, "color": "00000084" },
					{ "time": 1.6667, "color": "00000000" }
				],
				"attachment": [
					{ "time": 0.0667, "name": "dicet2" },
					{ "time": 0.1333, "name": "dicet3" },
					{ "time": 0.2, "name": "dicet4" },
					{ "time": 0.3333, "name": "dicet1" },
					{ "time": 0.4, "name": "dicet2" },
					{ "time": 0.4667, "name": "dicet3" },
					{ "time": 0.5333, "name": "dicet4" },
					{ "time": 0.6, "name": "dicet1" },
					{ "time": 0.6667, "name": "dicet2" },
					{ "time": 0.7333, "name": "dicet3" },
					{ "time": 0.8, "name": "dicet4" },
					{ "time": 0.8667, "name": "dicet1" },
					{ "time": 0.9333, "name": "dicet2" },
					{ "time": 1, "name": "dicet3" },
					{ "time": 1.0667, "name": "dice1" }
				]
			}
		},
		"bones": {
			"dice": {
				"translate": [
					{ "time": 0, "x": 0, "y": 0 },
					{ "time": 0.2333, "x": -2.06, "y": 311.98 },
					{ "time": 0.5, "x": -1.53, "y": 363.86 },
					{ "time": 0.7, "x": -1.13, "y": 416.27 },
					{ "time": 1.0333, "x": -0.74, "y": 436.77 }
				],
				"scale": [
					{ "time": 0, "x": 0.891, "y": 0.891 },
					{ "time": 0.2333, "x": 2.225, "y": 2.225 },
					{ "time": 0.4333, "x": 1.217, "y": 1.217 },
					{ "time": 0.7, "x": 1.566, "y": 1.566 },
					{ "time": 0.9, "x": 1.361, "y": 1.361 },
					{ "time": 1.0333, "x": 1.275, "y": 1.275 }
				]
			},
			"dice2": {
				"translate": [
					{ "time": 0, "x": 0, "y": 0 },
					{ "time": 0.2333, "x": -2.06, "y": 243.78 },
					{ "time": 0.5, "x": -1.53, "y": 363.86 },
					{ "time": 0.7, "x": -1.13, "y": 376.62 },
					{ "time": 1.0333, "x": -0.74, "y": 451.04 },
					{ "time": 1.0667, "x": -0.74, "y": 465.32 }
				],
				"scale": [
					{ "time": 0, "x": 0.891, "y": 0.891, "curve": "stepped" },
					{ "time": 0.2333, "x": 0.891, "y": 0.891 },
					{ "time": 0.5, "x": 1.07, "y": 1.07 },
					{ "time": 0.7, "x": 0.971, "y": 0.971 },
					{ "time": 1.0333, "x": 1.141, "y": 1.141 },
					{ "time": 1.0667, "x": 1.215, "y": 1.215 }
				]
			}
		}
	},
	"dice2": {
		"slots": {
			"dice": {
				"color": [
					{ "time": 1.3, "color": "ffffffff" },
					{ "time": 1.4667, "color": "ff1d05ff", "curve": "stepped" },
					{ "time": 1.8333, "color": "ff1d05ff" },
					{ "time": 2, "color": "ff1c0400" }
				],
				"attachment": [
					{ "time": 0, "name": null },
					{ "time": 1.0667, "name": "dice2" }
				]
			},
			"dicet": {
				"attachment": [
					{ "time": 0.0667, "name": "dicet2" },
					{ "time": 0.1333, "name": "dicet3" },
					{ "time": 0.2, "name": "dicet4" },
					{ "time": 0.3333, "name": "dicet1" },
					{ "time": 0.4, "name": "dicet2" },
					{ "time": 0.4667, "name": "dicet3" },
					{ "time": 0.5333, "name": "dicet4" },
					{ "time": 0.6, "name": "dicet1" },
					{ "time": 0.6667, "name": "dicet2" },
					{ "time": 0.7333, "name": "dicet3" },
					{ "time": 0.8, "name": "dicet4" },
					{ "time": 0.8667, "name": "dicet1" },
					{ "time": 0.9333, "name": "dicet2" },
					{ "time": 1, "name": "dicet3" },
					{ "time": 1.0667, "name": null }
				]
			},
			"dicet2": {
				"color": [
					{ "time": 1.8333, "color": "00000084" },
					{ "time": 2, "color": "00000000" }
				],
				"attachment": [
					{ "time": 0.0667, "name": "dicet2" },
					{ "time": 0.1333, "name": "dicet3" },
					{ "time": 0.2, "name": "dicet4" },
					{ "time": 0.3333, "name": "dicet1" },
					{ "time": 0.4, "name": "dicet2" },
					{ "time": 0.4667, "name": "dicet3" },
					{ "time": 0.5333, "name": "dicet4" },
					{ "time": 0.6, "name": "dicet1" },
					{ "time": 0.6667, "name": "dicet2" },
					{ "time": 0.7333, "name": "dicet3" },
					{ "time": 0.8, "name": "dicet4" },
					{ "time": 0.8667, "name": "dicet1" },
					{ "time": 0.9333, "name": "dicet2" },
					{ "time": 1, "name": "dicet3" },
					{ "time": 1.0667, "name": "dice1" }
				]
			},
			"light": {
				"color": [
					{ "time": 1.2333, "color": "ff7c7c00" },
					{ "time": 1.3333, "color": "ff8181ff" },
					{ "time": 1.4333, "color": "ff969600" }
				],
				"attachment": [
					{ "time": 1.2333, "name": "light" }
				]
			}
		},
		"bones": {
			"dice": {
				"translate": [
					{ "time": 0, "x": 0, "y": 0 },
					{ "time": 0.2333, "x": -2.06, "y": 311.98 },
					{ "time": 0.5, "x": -1.53, "y": 363.86 },
					{ "time": 0.7, "x": -1.13, "y": 416.27 },
					{ "time": 1.0333, "x": -0.74, "y": 436.77 }
				],
				"scale": [
					{ "time": 0, "x": 0.891, "y": 0.891 },
					{ "time": 0.2333, "x": 2.225, "y": 2.225 },
					{ "time": 0.4333, "x": 1.217, "y": 1.217 },
					{ "time": 0.7, "x": 1.566, "y": 1.566 },
					{ "time": 0.9, "x": 1.361, "y": 1.361 },
					{ "time": 1.0333, "x": 1.275, "y": 1.275 }
				]
			},
			"light": {
				"scale": [
					{ "time": 1.2333, "x": 0.376, "y": 0.376 },
					{ "time": 1.4333, "x": 1.393, "y": 1.393 }
				]
			},
			"dice2": {
				"translate": [
					{ "time": 0, "x": 0, "y": 0 },
					{ "time": 0.2333, "x": -2.06, "y": 243.78 },
					{ "time": 0.5, "x": -1.53, "y": 363.86 },
					{ "time": 0.7, "x": -1.13, "y": 376.62 },
					{ "time": 1.0333, "x": -0.74, "y": 451.04 },
					{ "time": 1.0667, "x": -0.74, "y": 465.32 }
				],
				"scale": [
					{ "time": 0, "x": 0.891, "y": 0.891, "curve": "stepped" },
					{ "time": 0.2333, "x": 0.891, "y": 0.891 },
					{ "time": 0.5, "x": 1.07, "y": 1.07 },
					{ "time": 0.7, "x": 0.971, "y": 0.971 },
					{ "time": 1.0333, "x": 1.141, "y": 1.141 },
					{ "time": 1.0667, "x": 1.215, "y": 1.215 }
				]
			}
		}
	},
	"dice3": {
		"slots": {
			"dice": {
				"color": [
					{ "time": 1.3, "color": "ffffffff" },
					{ "time": 1.5, "color": "f945ffff", "curve": "stepped" },
					{ "time": 1.8333, "color": "f945ffff" },
					{ "time": 2, "color": "ff45df00" }
				],
				"attachment": [
					{ "time": 0, "name": null },
					{ "time": 1.0667, "name": "dice3" }
				]
			},
			"dicet": {
				"attachment": [
					{ "time": 0.0667, "name": "dicet2" },
					{ "time": 0.1333, "name": "dicet3" },
					{ "time": 0.2, "name": "dicet4" },
					{ "time": 0.3333, "name": "dicet1" },
					{ "time": 0.4, "name": "dicet2" },
					{ "time": 0.4667, "name": "dicet3" },
					{ "time": 0.5333, "name": "dicet4" },
					{ "time": 0.6, "name": "dicet1" },
					{ "time": 0.6667, "name": "dicet2" },
					{ "time": 0.7333, "name": "dicet3" },
					{ "time": 0.8, "name": "dicet4" },
					{ "time": 0.8667, "name": "dicet1" },
					{ "time": 0.9333, "name": "dicet2" },
					{ "time": 1, "name": "dicet3" },
					{ "time": 1.0667, "name": null }
				]
			},
			"dicet2": {
				"color": [
					{ "time": 1.8333, "color": "00000084" },
					{ "time": 2, "color": "00000000" }
				],
				"attachment": [
					{ "time": 0.0667, "name": "dicet2" },
					{ "time": 0.1333, "name": "dicet3" },
					{ "time": 0.2, "name": "dicet4" },
					{ "time": 0.3333, "name": "dicet1" },
					{ "time": 0.4, "name": "dicet2" },
					{ "time": 0.4667, "name": "dicet3" },
					{ "time": 0.5333, "name": "dicet4" },
					{ "time": 0.6, "name": "dicet1" },
					{ "time": 0.6667, "name": "dicet2" },
					{ "time": 0.7333, "name": "dicet3" },
					{ "time": 0.8, "name": "dicet4" },
					{ "time": 0.8667, "name": "dicet1" },
					{ "time": 0.9333, "name": "dicet2" },
					{ "time": 1, "name": "dicet3" },
					{ "time": 1.0667, "name": "dice1" }
				]
			},
			"light": {
				"color": [
					{ "time": 1.2333, "color": "ff00ef00" },
					{ "time": 1.3333, "color": "c356ffff" },
					{ "time": 1.4333, "color": "eb4fff00" }
				],
				"attachment": [
					{ "time": 1.2333, "name": "light" }
				]
			}
		},
		"bones": {
			"dice": {
				"translate": [
					{ "time": 0, "x": 0, "y": 0 },
					{ "time": 0.2333, "x": -2.06, "y": 311.98 },
					{ "time": 0.5, "x": -1.53, "y": 363.86 },
					{ "time": 0.7, "x": -1.13, "y": 416.27 },
					{ "time": 1.0333, "x": -0.74, "y": 436.77 }
				],
				"scale": [
					{ "time": 0, "x": 0.891, "y": 0.891 },
					{ "time": 0.2333, "x": 2.225, "y": 2.225 },
					{ "time": 0.4333, "x": 1.217, "y": 1.217 },
					{ "time": 0.7, "x": 1.566, "y": 1.566 },
					{ "time": 0.9, "x": 1.361, "y": 1.361 },
					{ "time": 1.0333, "x": 1.275, "y": 1.275 }
				]
			},
			"light": {
				"scale": [
					{ "time": 1.2333, "x": 0.376, "y": 0.376 },
					{ "time": 1.4333, "x": 1.393, "y": 1.393 }
				]
			},
			"dice2": {
				"translate": [
					{ "time": 0, "x": 0, "y": 0 },
					{ "time": 0.2333, "x": -2.06, "y": 243.78 },
					{ "time": 0.5, "x": -1.53, "y": 363.86 },
					{ "time": 0.7, "x": -1.13, "y": 376.62 },
					{ "time": 1.0333, "x": -0.74, "y": 451.04 },
					{ "time": 1.0667, "x": -0.74, "y": 465.32 }
				],
				"scale": [
					{ "time": 0, "x": 0.891, "y": 0.891, "curve": "stepped" },
					{ "time": 0.2333, "x": 0.891, "y": 0.891 },
					{ "time": 0.5, "x": 1.07, "y": 1.07 },
					{ "time": 0.7, "x": 0.971, "y": 0.971 },
					{ "time": 1.0333, "x": 1.141, "y": 1.141 },
					{ "time": 1.0667, "x": 1.215, "y": 1.215 }
				]
			}
		}
	},
	"dice4": {
		"slots": {
			"dice": {
				"color": [
					{ "time": 1.3, "color": "ffffffff" },
					{ "time": 1.4667, "color": "0084ffff", "curve": "stepped" },
					{ "time": 1.8333, "color": "0084ffff" },
					{ "time": 2, "color": "0083ff00" }
				],
				"attachment": [
					{ "time": 0, "name": null },
					{ "time": 1.0667, "name": "dice4" }
				]
			},
			"dicet": {
				"attachment": [
					{ "time": 0.0667, "name": "dicet2" },
					{ "time": 0.1333, "name": "dicet3" },
					{ "time": 0.2, "name": "dicet4" },
					{ "time": 0.3333, "name": "dicet1" },
					{ "time": 0.4, "name": "dicet2" },
					{ "time": 0.4667, "name": "dicet3" },
					{ "time": 0.5333, "name": "dicet4" },
					{ "time": 0.6, "name": "dicet1" },
					{ "time": 0.6667, "name": "dicet2" },
					{ "time": 0.7333, "name": "dicet3" },
					{ "time": 0.8, "name": "dicet4" },
					{ "time": 0.8667, "name": "dicet1" },
					{ "time": 0.9333, "name": "dicet2" },
					{ "time": 1, "name": "dicet3" },
					{ "time": 1.0667, "name": null }
				]
			},
			"dicet2": {
				"color": [
					{ "time": 1.8333, "color": "00000084" },
					{ "time": 2, "color": "00000000" }
				],
				"attachment": [
					{ "time": 0.0667, "name": "dicet2" },
					{ "time": 0.1333, "name": "dicet3" },
					{ "time": 0.2, "name": "dicet4" },
					{ "time": 0.3333, "name": "dicet1" },
					{ "time": 0.4, "name": "dicet2" },
					{ "time": 0.4667, "name": "dicet3" },
					{ "time": 0.5333, "name": "dicet4" },
					{ "time": 0.6, "name": "dicet1" },
					{ "time": 0.6667, "name": "dicet2" },
					{ "time": 0.7333, "name": "dicet3" },
					{ "time": 0.8, "name": "dicet4" },
					{ "time": 0.8667, "name": "dicet1" },
					{ "time": 0.9333, "name": "dicet2" },
					{ "time": 1, "name": "dicet3" },
					{ "time": 1.0667, "name": "dice1" }
				]
			},
			"light": {
				"color": [
					{ "time": 1.2333, "color": "0070ff00" },
					{ "time": 1.3333, "color": "1368ffff" },
					{ "time": 1.4333, "color": "00c1ff00" }
				],
				"attachment": [
					{ "time": 1.2333, "name": "light" }
				]
			}
		},
		"bones": {
			"dice": {
				"translate": [
					{ "time": 0, "x": 0, "y": 0 },
					{ "time": 0.2333, "x": -2.06, "y": 311.98 },
					{ "time": 0.5, "x": -1.53, "y": 363.86 },
					{ "time": 0.7, "x": -1.13, "y": 416.27 },
					{ "time": 1.0333, "x": -0.74, "y": 436.77 }
				],
				"scale": [
					{ "time": 0, "x": 0.891, "y": 0.891 },
					{ "time": 0.2333, "x": 2.225, "y": 2.225 },
					{ "time": 0.4333, "x": 1.217, "y": 1.217 },
					{ "time": 0.7, "x": 1.566, "y": 1.566 },
					{ "time": 0.9, "x": 1.361, "y": 1.361 },
					{ "time": 1.0333, "x": 1.275, "y": 1.275 }
				]
			},
			"light": {
				"scale": [
					{ "time": 1.2333, "x": 0.376, "y": 0.376 },
					{ "time": 1.4333, "x": 1.393, "y": 1.393 }
				]
			},
			"dice2": {
				"translate": [
					{ "time": 0, "x": 0, "y": 0 },
					{ "time": 0.2333, "x": -2.06, "y": 243.78 },
					{ "time": 0.5, "x": -1.53, "y": 363.86 },
					{ "time": 0.7, "x": -1.13, "y": 376.62 },
					{ "time": 1.0333, "x": -0.74, "y": 451.04 },
					{ "time": 1.0667, "x": -0.74, "y": 465.32 }
				],
				"scale": [
					{ "time": 0, "x": 0.891, "y": 0.891, "curve": "stepped" },
					{ "time": 0.2333, "x": 0.891, "y": 0.891 },
					{ "time": 0.5, "x": 1.07, "y": 1.07 },
					{ "time": 0.7, "x": 0.971, "y": 0.971 },
					{ "time": 1.0333, "x": 1.141, "y": 1.141 },
					{ "time": 1.0667, "x": 1.215, "y": 1.215 }
				]
			}
		}
	},
	"dice5": {
		"slots": {
			"dice": {
				"color": [
					{ "time": 1.3, "color": "ffffffff" },
					{ "time": 1.4667, "color": "00fff1ff", "curve": "stepped" },
					{ "time": 1.8333, "color": "00fff1ff" },
					{ "time": 2, "color": "00fff000" }
				],
				"attachment": [
					{ "time": 0, "name": null },
					{ "time": 1.0667, "name": "dice5" }
				]
			},
			"dicet": {
				"attachment": [
					{ "time": 0.0667, "name": "dicet2" },
					{ "time": 0.1333, "name": "dicet3" },
					{ "time": 0.2, "name": "dicet4" },
					{ "time": 0.3333, "name": "dicet1" },
					{ "time": 0.4, "name": "dicet2" },
					{ "time": 0.4667, "name": "dicet3" },
					{ "time": 0.5333, "name": "dicet4" },
					{ "time": 0.6, "name": "dicet1" },
					{ "time": 0.6667, "name": "dicet2" },
					{ "time": 0.7333, "name": "dicet3" },
					{ "time": 0.8, "name": "dicet4" },
					{ "time": 0.8667, "name": "dicet1" },
					{ "time": 0.9333, "name": "dicet2" },
					{ "time": 1, "name": "dicet3" },
					{ "time": 1.0667, "name": null }
				]
			},
			"dicet2": {
				"color": [
					{ "time": 1.8333, "color": "00000084" },
					{ "time": 2, "color": "00000000" }
				],
				"attachment": [
					{ "time": 0.0667, "name": "dicet2" },
					{ "time": 0.1333, "name": "dicet3" },
					{ "time": 0.2, "name": "dicet4" },
					{ "time": 0.3333, "name": "dicet1" },
					{ "time": 0.4, "name": "dicet2" },
					{ "time": 0.4667, "name": "dicet3" },
					{ "time": 0.5333, "name": "dicet4" },
					{ "time": 0.6, "name": "dicet1" },
					{ "time": 0.6667, "name": "dicet2" },
					{ "time": 0.7333, "name": "dicet3" },
					{ "time": 0.8, "name": "dicet4" },
					{ "time": 0.8667, "name": "dicet1" },
					{ "time": 0.9333, "name": "dicet2" },
					{ "time": 1, "name": "dicet3" },
					{ "time": 1.0667, "name": "dice1" }
				]
			},
			"light": {
				"color": [
					{ "time": 1.2333, "color": "00fffb00" },
					{ "time": 1.3333, "color": "00fffbff" },
					{ "time": 1.4333, "color": "00fffb00" }
				],
				"attachment": [
					{ "time": 1.2333, "name": "light" }
				]
			}
		},
		"bones": {
			"dice": {
				"translate": [
					{ "time": 0, "x": 0, "y": 0 },
					{ "time": 0.2333, "x": -2.06, "y": 311.98 },
					{ "time": 0.5, "x": -1.53, "y": 363.86 },
					{ "time": 0.7, "x": -1.13, "y": 416.27 },
					{ "time": 1.0333, "x": -0.74, "y": 436.77 }
				],
				"scale": [
					{ "time": 0, "x": 0.891, "y": 0.891 },
					{ "time": 0.2333, "x": 2.225, "y": 2.225 },
					{ "time": 0.4333, "x": 1.217, "y": 1.217 },
					{ "time": 0.7, "x": 1.566, "y": 1.566 },
					{ "time": 0.9, "x": 1.361, "y": 1.361 },
					{ "time": 1.0333, "x": 1.275, "y": 1.275 }
				]
			},
			"light": {
				"scale": [
					{ "time": 1.2333, "x": 0.376, "y": 0.376 },
					{ "time": 1.4333, "x": 1.393, "y": 1.393 }
				]
			},
			"dice2": {
				"translate": [
					{ "time": 0, "x": 0, "y": 0 },
					{ "time": 0.2333, "x": -2.06, "y": 243.78 },
					{ "time": 0.5, "x": -1.53, "y": 363.86 },
					{ "time": 0.7, "x": -1.13, "y": 376.62 },
					{ "time": 1.0333, "x": -0.74, "y": 451.04 },
					{ "time": 1.0667, "x": -0.74, "y": 465.32 }
				],
				"scale": [
					{ "time": 0, "x": 0.891, "y": 0.891, "curve": "stepped" },
					{ "time": 0.2333, "x": 0.891, "y": 0.891 },
					{ "time": 0.5, "x": 1.07, "y": 1.07 },
					{ "time": 0.7, "x": 0.971, "y": 0.971 },
					{ "time": 1.0333, "x": 1.141, "y": 1.141 },
					{ "time": 1.0667, "x": 1.215, "y": 1.215 }
				]
			}
		}
	},
	"dice6": {
		"slots": {
			"dice": {
				"color": [
					{ "time": 1.3, "color": "ffffffff" },
					{ "time": 1.4667, "color": "13ff00ff", "curve": "stepped" },
					{ "time": 1.8333, "color": "13ff00ff" },
					{ "time": 2, "color": "13ff0000" }
				],
				"attachment": [
					{ "time": 0, "name": null },
					{ "time": 1.0667, "name": "dice6" }
				]
			},
			"dicet": {
				"attachment": [
					{ "time": 0.0667, "name": "dicet2" },
					{ "time": 0.1333, "name": "dicet3" },
					{ "time": 0.2, "name": "dicet4" },
					{ "time": 0.3333, "name": "dicet1" },
					{ "time": 0.4, "name": "dicet2" },
					{ "time": 0.4667, "name": "dicet3" },
					{ "time": 0.5333, "name": "dicet4" },
					{ "time": 0.6, "name": "dicet1" },
					{ "time": 0.6667, "name": "dicet2" },
					{ "time": 0.7333, "name": "dicet3" },
					{ "time": 0.8, "name": "dicet4" },
					{ "time": 0.8667, "name": "dicet1" },
					{ "time": 0.9333, "name": "dicet2" },
					{ "time": 1, "name": "dicet3" },
					{ "time": 1.0667, "name": null }
				]
			},
			"dicet2": {
				"color": [
					{ "time": 1.8333, "color": "00000084" },
					{ "time": 2, "color": "00000000" }
				],
				"attachment": [
					{ "time": 0.0667, "name": "dicet2" },
					{ "time": 0.1333, "name": "dicet3" },
					{ "time": 0.2, "name": "dicet4" },
					{ "time": 0.3333, "name": "dicet1" },
					{ "time": 0.4, "name": "dicet2" },
					{ "time": 0.4667, "name": "dicet3" },
					{ "time": 0.5333, "name": "dicet4" },
					{ "time": 0.6, "name": "dicet1" },
					{ "time": 0.6667, "name": "dicet2" },
					{ "time": 0.7333, "name": "dicet3" },
					{ "time": 0.8, "name": "dicet4" },
					{ "time": 0.8667, "name": "dicet1" },
					{ "time": 0.9333, "name": "dicet2" },
					{ "time": 1, "name": "dicet3" },
					{ "time": 1.0667, "name": "dice1" }
				]
			},
			"light": {
				"color": [
					{ "time": 1.2333, "color": "0dff0000" },
					{ "time": 1.3333, "color": "0dff00ff" },
					{ "time": 1.4333, "color": "0dff0000" }
				],
				"attachment": [
					{ "time": 1.2333, "name": "light" }
				]
			}
		},
		"bones": {
			"dice": {
				"translate": [
					{ "time": 0, "x": 0, "y": 0 },
					{ "time": 0.2333, "x": -2.06, "y": 311.98 },
					{ "time": 0.5, "x": -1.53, "y": 363.86 },
					{ "time": 0.7, "x": -1.13, "y": 416.27 },
					{ "time": 1.0333, "x": -0.74, "y": 436.77 }
				],
				"scale": [
					{ "time": 0, "x": 0.891, "y": 0.891 },
					{ "time": 0.2333, "x": 2.225, "y": 2.225 },
					{ "time": 0.4333, "x": 1.217, "y": 1.217 },
					{ "time": 0.7, "x": 1.566, "y": 1.566 },
					{ "time": 0.9, "x": 1.361, "y": 1.361 },
					{ "time": 1.0333, "x": 1.275, "y": 1.275 }
				]
			},
			"light": {
				"scale": [
					{ "time": 1.2333, "x": 0.376, "y": 0.376 },
					{ "time": 1.4333, "x": 1.393, "y": 1.393 }
				]
			},
			"dice2": {
				"translate": [
					{ "time": 0, "x": 0, "y": 0 },
					{ "time": 0.2333, "x": -2.06, "y": 243.78 },
					{ "time": 0.5, "x": -1.53, "y": 363.86 },
					{ "time": 0.7, "x": -1.13, "y": 376.62 },
					{ "time": 1.0333, "x": -0.74, "y": 451.04 },
					{ "time": 1.0667, "x": -0.74, "y": 465.32 }
				],
				"scale": [
					{ "time": 0, "x": 0.891, "y": 0.891, "curve": "stepped" },
					{ "time": 0.2333, "x": 0.891, "y": 0.891 },
					{ "time": 0.5, "x": 1.07, "y": 1.07 },
					{ "time": 0.7, "x": 0.971, "y": 0.971 },
					{ "time": 1.0333, "x": 1.141, "y": 1.141 },
					{ "time": 1.0667, "x": 1.215, "y": 1.215 }
				]
			}
		}
	}
}
}