{
"skeleton": { "hash": "nzfN6i/drDeZWs7BiDjYY2dBzRU", "spine": "3.7.94", "width": 0, "height": 0, "images": "./images/", "audio": "D:/work/04_瘋狂捕魚/彩金魚骰寶魚/骰盅/賭桌製作檔" },
"bones": [
	{ "name": "root" },
	{ "name": "dummy", "parent": "root" },
	{ "name": "table", "parent": "dummy" },
	{ "name": "light", "parent": "dummy" },
	{ "name": "light_a", "parent": "dummy", "x": -0.13 }
],
"slots": [
	{ "name": "bg", "bone": "table" },
	{ "name": "bg2", "bone": "table" },
	{ "name": "red", "bone": "table" },
	{ "name": "purple", "bone": "table" },
	{ "name": "purple2", "bone": "table" },
	{ "name": "green", "bone": "table" },
	{ "name": "green1", "bone": "table" },
	{ "name": "green2", "bone": "table" },
	{ "name": "green3", "bone": "table" },
	{ "name": "green4", "bone": "table" },
	{ "name": "green5", "bone": "table" },
	{ "name": "green6", "bone": "table" },
	{ "name": "green7", "bone": "table" },
	{ "name": "line1", "bone": "table" },
	{ "name": "line2", "bone": "table" },
	{ "name": "line3", "bone": "table" },
	{ "name": "line4", "bone": "table" },
	{ "name": "line5", "bone": "table" },
	{ "name": "line6", "bone": "table" },
	{ "name": "line7", "bone": "table" },
	{ "name": "line8", "bone": "table" },
	{ "name": "line9", "bone": "table" },
	{ "name": "line10", "bone": "table" },
	{ "name": "line11", "bone": "table" },
	{ "name": "dice1", "bone": "table" },
	{ "name": "dice1_1", "bone": "table" },
	{ "name": "dice5", "bone": "table" },
	{ "name": "dice6", "bone": "table" },
	{ "name": "dice6_1", "bone": "table" },
	{ "name": "dice6_2", "bone": "table" },
	{ "name": "b_9", "bone": "table" },
	{ "name": "b_8", "bone": "table" },
	{ "name": "b_7", "bone": "table" },
	{ "name": "b_6", "bone": "table" },
	{ "name": "b_5", "bone": "table" },
	{ "name": "b_4", "bone": "table" },
	{ "name": "b_3", "bone": "table" },
	{ "name": "b_2", "bone": "table" },
	{ "name": "b_21", "bone": "table" },
	{ "name": "b_1", "bone": "table" },
	{ "name": "b_11", "bone": "table" },
	{ "name": "b_12", "bone": "table" },
	{ "name": "b_13", "bone": "table" },
	{ "name": "b_0", "bone": "table" },
	{ "name": "6", "bone": "table" },
	{ "name": "4", "bone": "table" },
	{ "name": "3", "bone": "table" },
	{ "name": "2", "bone": "table" },
	{ "name": "2_1", "bone": "table" },
	{ "name": "1", "bone": "table" },
	{ "name": "1_1", "bone": "table" },
	{ "name": "8", "bone": "table" },
	{ "name": "5", "bone": "table" },
	{ "name": "5_1", "bone": "table" },
	{ "name": "5_2", "bone": "table" },
	{ "name": "5_3", "bone": "table" },
	{ "name": "5_4", "bone": "table" },
	{ "name": "5_5", "bone": "table" },
	{ "name": "0", "bone": "table" },
	{ "name": "0_1", "bone": "table" },
	{ "name": "0_2", "bone": "table" },
	{ "name": "0_3", "bone": "table" },
	{ "name": "0_4", "bone": "table" },
	{ "name": "0_5", "bone": "table" },
	{ "name": "0_6", "bone": "table" },
	{ "name": "0_7", "bone": "table" },
	{ "name": "0_8", "bone": "table" },
	{ "name": "0_9", "bone": "table" },
	{ "name": "0_10", "bone": "table" },
	{ "name": "0_11", "bone": "table" },
	{ "name": "0_12", "bone": "table" },
	{ "name": "0_13", "bone": "table" },
	{ "name": "0_14", "bone": "table" },
	{ "name": "0_15", "bone": "table" },
	{ "name": "0_16", "bone": "table" },
	{ "name": "x", "bone": "table" },
	{ "name": "x_1", "bone": "table" },
	{ "name": "x_2", "bone": "table" },
	{ "name": "x_3", "bone": "table" },
	{ "name": "x_4", "bone": "table" },
	{ "name": "x_5", "bone": "table" },
	{ "name": "x_6", "bone": "table" },
	{ "name": "x_7", "bone": "table" },
	{ "name": "x_8", "bone": "table" },
	{ "name": "x_9", "bone": "table" },
	{ "name": "x_10", "bone": "table" },
	{ "name": "light_a", "bone": "light_a", "blend": "additive" },
	{ "name": "light", "bone": "light", "blend": "additive" }
],
"skins": {
	"default": {
		"0": {
			"0": { "x": -369.5, "y": -119, "width": 14, "height": 20 }
		},
		"0_1": {
			"0": { "x": -298.5, "y": -119, "width": 14, "height": 20 }
		},
		"0_10": {
			"0": { "x": 175.5, "y": -119, "width": 14, "height": 20 }
		},
		"0_11": {
			"0": { "x": 241.5, "y": -119, "width": 14, "height": 20 }
		},
		"0_12": {
			"0": { "x": 256.5, "y": -119, "width": 14, "height": 20 }
		},
		"0_13": {
			"0": { "x": 318.5, "y": -119, "width": 14, "height": 20 }
		},
		"0_14": {
			"0": { "x": 333.5, "y": -119, "width": 14, "height": 20 }
		},
		"0_15": {
			"0": { "x": 399.5, "y": -119, "width": 14, "height": 20 }
		},
		"0_16": {
			"0": { "x": 414.5, "y": -119, "width": 14, "height": 20 }
		},
		"0_2": {
			"0": { "x": -219.5, "y": -119, "width": 14, "height": 20 }
		},
		"0_3": {
			"0": { "x": -148.5, "y": -119, "width": 14, "height": 20 }
		},
		"0_4": {
			"0": { "x": -133.5, "y": -119, "width": 14, "height": 20 }
		},
		"0_5": {
			"0": { "x": -56.5, "y": -119, "width": 14, "height": 20 }
		},
		"0_6": {
			"0": { "x": 6.5, "y": -119, "width": 14, "height": 20 }
		},
		"0_7": {
			"0": { "x": 21.5, "y": -119, "width": 14, "height": 20 }
		},
		"0_8": {
			"0": { "x": 98.5, "y": -119, "width": 14, "height": 20 }
		},
		"0_9": {
			"0": { "x": 161.5, "y": -119, "width": 14, "height": 20 }
		},
		"1": {
			"1": { "x": -163, "y": -119, "width": 13, "height": 20 }
		},
		"1_1": {
			"1": { "x": -86, "y": -119, "width": 13, "height": 20 }
		},
		"2": {
			"2": { "x": -7.5, "y": -119, "width": 14, "height": 20 }
		},
		"2_1": {
			"2": { "x": 69.5, "y": -119, "width": 14, "height": 20 }
		},
		"3": {
			"3": { "x": 146.5, "y": -119, "width": 14, "height": 20 }
		},
		"4": {
			"4": { "x": 227, "y": -119, "width": 15, "height": 20 }
		},
		"5": {
			"5": { "x": -399.5, "y": -119, "width": 14, "height": 20 }
		},
		"5_1": {
			"5": { "x": -384.5, "y": -119, "width": 14, "height": 20 }
		},
		"5_2": {
			"5": { "x": -313.5, "y": -119, "width": 14, "height": 20 }
		},
		"5_3": {
			"5": { "x": -71.5, "y": -119, "width": 14, "height": 20 }
		},
		"5_4": {
			"5": { "x": 83.5, "y": -119, "width": 14, "height": 20 }
		},
		"5_5": {
			"5": { "x": 303.5, "y": -119, "width": 14, "height": 20 }
		},
		"6": {
			"6": { "x": 384.5, "y": -119, "width": 14, "height": 20 }
		},
		"8": {
			"8": { "x": -234.5, "y": -119, "width": 14, "height": 20 }
		},
		"b_0": {
			"b_0": { "x": 249, "y": -80, "width": 31, "height": 46 }
		},
		"b_1": {
			"b_1": { "x": 215.5, "y": -80.5, "width": 28, "height": 45 }
		},
		"b_11": {
			"b_1": { "x": 296.5, "y": -80.5, "width": 28, "height": 45 }
		},
		"b_12": {
			"b_1": { "x": 330.5, "y": -80.5, "width": 28, "height": 45 }
		},
		"b_13": {
			"b_1": { "x": 373.5, "y": -80.5, "width": 28, "height": 45 }
		},
		"b_2": {
			"b_2": { "x": -391, "y": -80.5, "width": 31, "height": 45 }
		},
		"b_21": {
			"b_2": { "x": 406, "y": -80.5, "width": 31, "height": 45 }
		},
		"b_3": {
			"b_3": { "x": -312.5, "y": -80.5, "width": 32, "height": 45 }
		},
		"b_4": {
			"b_4": { "x": -233.5, "y": -80, "width": 34, "height": 44 }
		},
		"b_5": {
			"b_5": { "x": -154, "y": -80.5, "width": 31, "height": 45 }
		},
		"b_6": {
			"b_6": { "x": -79, "y": -80.5, "width": 31, "height": 45 }
		},
		"b_7": {
			"b_7": { "x": 1.5, "y": -80.5, "width": 30, "height": 45 }
		},
		"b_8": {
			"b_8": { "x": 79, "y": -80, "width": 31, "height": 46 }
		},
		"b_9": {
			"b_9": { "x": 156, "y": -80, "width": 31, "height": 46 }
		},
		"bg": {
			"bg": { "x": -280, "y": -31, "width": 563, "height": 558 }
		},
		"bg2": {
			"bg": { "x": 282, "y": -31, "scaleX": -1, "width": 563, "height": 558 }
		},
		"dice1": {
			"dice1": { "x": -409.5, "y": -34.5, "width": 34, "height": 33 }
		},
		"dice1_1": {
			"dice1": { "x": -371.5, "y": -34.5, "width": 34, "height": 33 }
		},
		"dice5": {
			"dice5": { "x": 294.5, "y": -34.5, "width": 34, "height": 33 }
		},
		"dice6": {
			"dice6": { "x": 330, "y": -34.5, "width": 33, "height": 33 }
		},
		"dice6_1": {
			"dice6": { "x": 374, "y": -34.5, "width": 33, "height": 33 }
		},
		"dice6_2": {
			"dice6": { "x": 410, "y": -34.5, "width": 33, "height": 33 }
		},
		"green": {
			"green": { "x": -313, "y": -74, "scaleX": 2, "scaleY": 2, "width": 40, "height": 62 }
		},
		"green1": {
			"green": { "x": -234, "y": -74, "scaleX": 2, "scaleY": 2, "width": 40, "height": 62 }
		},
		"green2": {
			"green": { "x": -155, "y": -74, "scaleX": 2, "scaleY": 2, "width": 40, "height": 62 }
		},
		"green3": {
			"green": { "x": -77, "y": -74, "scaleX": 2, "scaleY": 2, "width": 40, "height": 62 }
		},
		"green4": {
			"green": { "x": 1, "y": -74, "scaleX": 2, "scaleY": 2, "width": 40, "height": 62 }
		},
		"green5": {
			"green": { "x": 79, "y": -74, "scaleX": 2, "scaleY": 2, "width": 40, "height": 62 }
		},
		"green6": {
			"green": { "x": 157, "y": -74, "scaleX": 2, "scaleY": 2, "width": 40, "height": 62 }
		},
		"green7": {
			"green": { "x": 235, "y": -74, "scaleX": 2, "scaleY": 2, "width": 40, "height": 62 }
		},
		"light": {
			"light": { "x": 0.5, "y": 0.5, "scaleX": 2, "scaleY": 2, "width": 60, "height": 82 }
		},
		"light_a": {
			"light_a": { "x": 0.63, "scaleY": 2.6, "width": 26, "height": 20 }
		},
		"line1": {
			"line1": { "x": -390, "y": -74, "width": 81, "height": 126 }
		},
		"line10": {
			"line1": { "x": 312, "y": -74, "width": 81, "height": 126 }
		},
		"line11": {
			"line1": { "x": 390, "y": -74, "width": 81, "height": 126 }
		},
		"line2": {
			"line1": { "x": -312, "y": -74, "width": 81, "height": 126 }
		},
		"line3": {
			"line1": { "x": -234, "y": -74, "width": 81, "height": 126 }
		},
		"line4": {
			"line1": { "x": -156, "y": -74, "width": 81, "height": 126 }
		},
		"line5": {
			"line1": { "x": -78, "y": -74, "width": 81, "height": 126 }
		},
		"line6": {
			"line1": { "y": -74, "width": 81, "height": 126 }
		},
		"line7": {
			"line1": { "x": 78, "y": -74, "width": 81, "height": 126 }
		},
		"line8": {
			"line1": { "x": 156, "y": -74, "width": 81, "height": 126 }
		},
		"line9": {
			"line1": { "x": 234, "y": -74, "width": 81, "height": 126 }
		},
		"purple": {
			"purple": { "x": 311, "y": -74, "scaleX": 2, "scaleY": 2, "width": 40, "height": 62 }
		},
		"purple2": {
			"purple": { "x": -390, "y": -74, "scaleX": 2, "scaleY": 2, "width": 40, "height": 62 }
		},
		"red": {
			"red": { "x": 392, "y": -74, "scaleX": 2, "scaleY": 2, "width": 40, "height": 62 }
		},
		"x": {
			"x": { "x": -413, "y": -121, "width": 15, "height": 16 }
		},
		"x_1": {
			"x": { "x": -327, "y": -121, "width": 15, "height": 16 }
		},
		"x_10": {
			"x": { "x": 370, "y": -121, "width": 15, "height": 16 }
		},
		"x_2": {
			"x": { "x": -248, "y": -121, "width": 15, "height": 16 }
		},
		"x_3": {
			"x": { "x": -177, "y": -121, "width": 15, "height": 16 }
		},
		"x_4": {
			"x": { "x": -100, "y": -121, "width": 15, "height": 16 }
		},
		"x_5": {
			"x": { "x": -22, "y": -121, "width": 15, "height": 16 }
		},
		"x_6": {
			"x": { "x": 55, "y": -121, "width": 15, "height": 16 }
		},
		"x_7": {
			"x": { "x": 132, "y": -121, "width": 15, "height": 16 }
		},
		"x_8": {
			"x": { "x": 213, "y": -121, "width": 15, "height": 16 }
		},
		"x_9": {
			"x": { "x": 290, "y": -121, "width": 15, "height": 16 }
		}
	}
},
"animations": {
	"effects_01": {
		"slots": {
			"light": {
				"color": [
					{ "time": 0, "color": "ff6422d4" },
					{ "time": 0.5, "color": "ffffffff" },
					{ "time": 1, "color": "ff6422d4" }
				],
				"attachment": [
					{ "time": 0, "name": "light" }
				]
			},
			"light_a": {
				"color": [
					{ "time": 0, "color": "ffffff55" },
					{ "time": 0.5, "color": "ffffffb5" },
					{ "time": 1, "color": "ffffff2f" }
				],
				"attachment": [
					{ "time": 0, "name": "light_a" }
				]
			}
		},
		"bones": {
			"light_a": {
				"rotate": [
					{ "time": 0, "angle": 33.33 }
				],
				"translate": [
					{ "time": 0, "x": 34.02, "y": -55.11 },
					{ "time": 0.2667, "x": 0.38, "y": -36.48 },
					{ "time": 0.5, "x": -3.61, "y": -3.44 },
					{ "time": 0.7333, "x": -5.98, "y": 30.67 },
					{ "time": 1, "x": -32.05, "y": 54.29 }
				],
				"scale": [
					{ "time": 0, "x": 2, "y": 1 },
					{ "time": 0.1333, "x": 3, "y": 1.267 },
					{ "time": 0.2667, "x": 6, "y": 1.533 },
					{ "time": 0.5, "x": 6, "y": 2 },
					{ "time": 0.7333, "x": 6, "y": 1.533 },
					{ "time": 1, "x": 2, "y": 1 }
				]
			}
		}
	},
	"effects_02": {
		"slots": {
			"light": {
				"color": [
					{ "time": 0, "color": "ff6422d4" },
					{ "time": 0.5, "color": "ffffffff" },
					{ "time": 1, "color": "ff6422d4" }
				],
				"attachment": [
					{ "time": 0, "name": "light" }
				]
			}
		}
	},
	"table": {
		"slots": {
			"0": {
				"attachment": [
					{ "time": 0, "name": "0" }
				]
			},
			"0_1": {
				"attachment": [
					{ "time": 0, "name": "0" }
				]
			},
			"0_2": {
				"attachment": [
					{ "time": 0, "name": "0" }
				]
			},
			"0_3": {
				"attachment": [
					{ "time": 0, "name": "0" }
				]
			},
			"0_4": {
				"attachment": [
					{ "time": 0, "name": "0" }
				]
			},
			"0_5": {
				"attachment": [
					{ "time": 0, "name": "0" }
				]
			},
			"0_6": {
				"attachment": [
					{ "time": 0, "name": "0" }
				]
			},
			"0_7": {
				"attachment": [
					{ "time": 0, "name": "0" }
				]
			},
			"0_8": {
				"attachment": [
					{ "time": 0, "name": "0" }
				]
			},
			"0_9": {
				"attachment": [
					{ "time": 0, "name": "0" }
				]
			},
			"0_10": {
				"attachment": [
					{ "time": 0, "name": "0" }
				]
			},
			"0_11": {
				"attachment": [
					{ "time": 0, "name": "0" }
				]
			},
			"0_12": {
				"attachment": [
					{ "time": 0, "name": "0" }
				]
			},
			"0_13": {
				"attachment": [
					{ "time": 0, "name": "0" }
				]
			},
			"0_14": {
				"attachment": [
					{ "time": 0, "name": "0" }
				]
			},
			"0_15": {
				"attachment": [
					{ "time": 0, "name": "0" }
				]
			},
			"0_16": {
				"attachment": [
					{ "time": 0, "name": "0" }
				]
			},
			"1": {
				"attachment": [
					{ "time": 0, "name": "1" }
				]
			},
			"1_1": {
				"attachment": [
					{ "time": 0, "name": "1" }
				]
			},
			"2": {
				"attachment": [
					{ "time": 0, "name": "2" }
				]
			},
			"2_1": {
				"attachment": [
					{ "time": 0, "name": "2" }
				]
			},
			"3": {
				"attachment": [
					{ "time": 0, "name": "3" }
				]
			},
			"4": {
				"attachment": [
					{ "time": 0, "name": "4" }
				]
			},
			"5": {
				"attachment": [
					{ "time": 0, "name": "5" }
				]
			},
			"5_1": {
				"attachment": [
					{ "time": 0, "name": "5" }
				]
			},
			"5_2": {
				"attachment": [
					{ "time": 0, "name": "5" }
				]
			},
			"5_3": {
				"attachment": [
					{ "time": 0, "name": "5" }
				]
			},
			"5_4": {
				"attachment": [
					{ "time": 0, "name": "5" }
				]
			},
			"5_5": {
				"attachment": [
					{ "time": 0, "name": "5" }
				]
			},
			"6": {
				"attachment": [
					{ "time": 0, "name": "6" }
				]
			},
			"8": {
				"attachment": [
					{ "time": 0, "name": "8" }
				]
			},
			"b_0": {
				"attachment": [
					{ "time": 0, "name": "b_0" }
				]
			},
			"b_1": {
				"attachment": [
					{ "time": 0, "name": "b_1" }
				]
			},
			"b_2": {
				"attachment": [
					{ "time": 0, "name": "b_2" }
				]
			},
			"b_3": {
				"attachment": [
					{ "time": 0, "name": "b_3" }
				]
			},
			"b_4": {
				"attachment": [
					{ "time": 0, "name": "b_4" }
				]
			},
			"b_5": {
				"attachment": [
					{ "time": 0, "name": "b_5" }
				]
			},
			"b_6": {
				"attachment": [
					{ "time": 0, "name": "b_6" }
				]
			},
			"b_7": {
				"attachment": [
					{ "time": 0, "name": "b_7" }
				]
			},
			"b_8": {
				"attachment": [
					{ "time": 0, "name": "b_8" }
				]
			},
			"b_9": {
				"attachment": [
					{ "time": 0, "name": "b_9" }
				]
			},
			"b_11": {
				"attachment": [
					{ "time": 0, "name": "b_1" }
				]
			},
			"b_12": {
				"attachment": [
					{ "time": 0, "name": "b_1" }
				]
			},
			"b_13": {
				"attachment": [
					{ "time": 0, "name": "b_1" }
				]
			},
			"b_21": {
				"attachment": [
					{ "time": 0, "name": "b_2" }
				]
			},
			"bg": {
				"attachment": [
					{ "time": 0, "name": "bg" }
				]
			},
			"bg2": {
				"attachment": [
					{ "time": 0, "name": "bg" }
				]
			},
			"dice1": {
				"attachment": [
					{ "time": 0, "name": "dice1" }
				]
			},
			"dice5": {
				"attachment": [
					{ "time": 0, "name": "dice5" }
				]
			},
			"dice6": {
				"attachment": [
					{ "time": 0, "name": "dice6" }
				]
			},
			"dice1_1": {
				"attachment": [
					{ "time": 0, "name": "dice1" }
				]
			},
			"dice6_1": {
				"attachment": [
					{ "time": 0, "name": "dice6" }
				]
			},
			"dice6_2": {
				"attachment": [
					{ "time": 0, "name": "dice6" }
				]
			},
			"green": {
				"attachment": [
					{ "time": 0, "name": "green" }
				]
			},
			"green1": {
				"attachment": [
					{ "time": 0, "name": "green" }
				]
			},
			"green2": {
				"attachment": [
					{ "time": 0, "name": "green" }
				]
			},
			"green3": {
				"attachment": [
					{ "time": 0, "name": "green" }
				]
			},
			"green4": {
				"attachment": [
					{ "time": 0, "name": "green" }
				]
			},
			"green5": {
				"attachment": [
					{ "time": 0, "name": "green" }
				]
			},
			"green6": {
				"attachment": [
					{ "time": 0, "name": "green" }
				]
			},
			"green7": {
				"attachment": [
					{ "time": 0, "name": "green" }
				]
			},
			"line1": {
				"attachment": [
					{ "time": 0, "name": "line1" }
				]
			},
			"line2": {
				"attachment": [
					{ "time": 0, "name": "line1" }
				]
			},
			"line3": {
				"attachment": [
					{ "time": 0, "name": "line1" }
				]
			},
			"line4": {
				"attachment": [
					{ "time": 0, "name": "line1" }
				]
			},
			"line5": {
				"attachment": [
					{ "time": 0, "name": "line1" }
				]
			},
			"line6": {
				"attachment": [
					{ "time": 0, "name": "line1" }
				]
			},
			"line7": {
				"attachment": [
					{ "time": 0, "name": "line1" }
				]
			},
			"line8": {
				"attachment": [
					{ "time": 0, "name": "line1" }
				]
			},
			"line9": {
				"attachment": [
					{ "time": 0, "name": "line1" }
				]
			},
			"line10": {
				"attachment": [
					{ "time": 0, "name": "line1" }
				]
			},
			"line11": {
				"attachment": [
					{ "time": 0, "name": "line1" }
				]
			},
			"purple": {
				"attachment": [
					{ "time": 0, "name": "purple" }
				]
			},
			"purple2": {
				"attachment": [
					{ "time": 0, "name": "purple" }
				]
			},
			"red": {
				"attachment": [
					{ "time": 0, "name": "red" }
				]
			},
			"x": {
				"attachment": [
					{ "time": 0, "name": "x" }
				]
			},
			"x_1": {
				"attachment": [
					{ "time": 0, "name": "x" }
				]
			},
			"x_2": {
				"attachment": [
					{ "time": 0, "name": "x" }
				]
			},
			"x_3": {
				"attachment": [
					{ "time": 0, "name": "x" }
				]
			},
			"x_4": {
				"attachment": [
					{ "time": 0, "name": "x" }
				]
			},
			"x_5": {
				"attachment": [
					{ "time": 0, "name": "x" }
				]
			},
			"x_6": {
				"attachment": [
					{ "time": 0, "name": "x" }
				]
			},
			"x_7": {
				"attachment": [
					{ "time": 0, "name": "x" }
				]
			},
			"x_8": {
				"attachment": [
					{ "time": 0, "name": "x" }
				]
			},
			"x_9": {
				"attachment": [
					{ "time": 0, "name": "x" }
				]
			},
			"x_10": {
				"attachment": [
					{ "time": 0, "name": "x" }
				]
			}
		}
	}
}
}