{
"skeleton": { "hash": "Rxz/0oef6n7epUVi9400fXX7lnQ", "spine": "3.7.94", "width": 459, "height": 411.1, "images": "./images/", "audio": "D:/work/04_瘋狂捕魚/彩金魚骰寶魚/結算看板/製作檔" },
"bones": [
	{ "name": "root" },
	{ "name": "dummy", "parent": "root" },
	{ "name": "panel", "parent": "dummy" },
	{
		"name": "logo",
		"parent": "dummy",
		"rotation": -52,
		"x": 86.59,
		"y": 172.64,
		"scaleX": 0.8,
		"scaleY": 0.8
	},
	{ "name": "body", "parent": "dummy", "x": -51.35 },
	{ "name": "hand_l", "parent": "body", "x": -29.48, "y": 51.24 },
	{ "name": "hand_r", "parent": "body", "x": 35.39, "y": 58.06 },
	{ "name": "head", "parent": "body", "x": -4.09, "y": 69.72 },
	{ "name": "headwear_l", "parent": "head", "x": -14.69, "y": 47.04 },
	{ "name": "headwear_r", "parent": "head", "x": 16.55, "y": 48.16 },
	{ "name": "light", "parent": "dummy", "x": 73.41, "y": 106.31 },
	{ "name": "word", "parent": "dummy" },
	{ "name": "logo2", "parent": "dummy", "x": 44.55, "y": 104.56 },
	{ "name": "roulette_o", "parent": "logo2" }
],
"slots": [
	{ "name": "fish", "bone": "body", "attachment": "fish" },
	{ "name": "light", "bone": "light", "attachment": "light", "blend": "additive" },
	{ "name": "light1", "bone": "light", "attachment": "light", "blend": "additive" },
	{ "name": "light 2", "bone": "light", "attachment": "light", "blend": "additive" },
	{ "name": "light13", "bone": "light", "attachment": "light", "blend": "additive" },
	{ "name": "light 4", "bone": "light", "attachment": "light", "blend": "additive" },
	{ "name": "light15", "bone": "light", "attachment": "light", "blend": "additive" },
	{ "name": "light 6", "bone": "light", "attachment": "light", "blend": "additive" },
	{ "name": "light7", "bone": "light", "attachment": "light", "blend": "additive" },
	{ "name": "hand_l", "bone": "hand_l", "attachment": "hand_l" },
	{ "name": "hand_r", "bone": "hand_r", "attachment": "hand_r" },
	{ "name": "body", "bone": "body", "attachment": "body" },
	{ "name": "headwear_r", "bone": "headwear_r", "attachment": "headwear_r" },
	{ "name": "headwear_l", "bone": "headwear_l", "attachment": "headwear_l" },
	{ "name": "head", "bone": "head", "attachment": "head" },
	{ "name": "shadow", "bone": "panel", "attachment": "shadow" },
	{ "name": "bg_a", "bone": "panel", "attachment": "bg_a" },
	{ "name": "bg02", "bone": "panel", "attachment": "bg00" },
	{ "name": "bg00", "bone": "panel", "attachment": "bg00" },
	{ "name": "panel_a03", "bone": "panel", "attachment": "panel_a03" },
	{ "name": "panel_a02", "bone": "panel", "attachment": "panel_a02" },
	{ "name": "panel_a01", "bone": "panel", "attachment": "panel_a01" },
	{ "name": "panel_b03", "bone": "panel", "attachment": "panel_a03" },
	{ "name": "panel_b02", "bone": "panel", "attachment": "panel_a02" },
	{ "name": "panel_b01", "bone": "panel", "attachment": "panel_a01" },
	{ "name": "roulette_o", "bone": "roulette_o" },
	{ "name": "roulette_o2", "bone": "roulette_o", "blend": "additive" },
	{ "name": "logo", "bone": "logo" },
	{ "name": "logo3", "bone": "logo2" },
	{ "name": "logo2", "bone": "logo", "blend": "additive" },
	{ "name": "logo4", "bone": "logo2", "blend": "additive" },
	{ "name": "word", "bone": "word", "attachment": "word" }
],
"skins": {
	"default": {
		"bg00": {
			"bg00": { "x": -121.5, "y": -120, "width": 47, "height": 80 }
		},
		"bg02": {
			"bg00": { "x": 123.5, "y": -120, "scaleX": -1, "width": 47, "height": 80 }
		},
		"bg_a": {
			"bg_a": { "x": 8, "y": -120, "scaleX": 9, "width": 26, "height": 80 }
		},
		"body": {
			"body": { "x": 4.85, "y": 50.5, "width": 71, "height": 45 }
		},
		"fish": {
			"fish": { "x": 53.85, "y": -61.5, "scaleX": 1.4, "scaleY": 1.4, "width": 200, "height": 29 }
		},
		"hand_l": {
			"hand_l": { "x": -30.14, "y": -4.81, "width": 80, "height": 63 }
		},
		"hand_r": {
			"hand_r": { "x": 33.96, "y": -2.98, "width": 84, "height": 53 }
		},
		"head": {
			"head": { "x": 0.44, "y": 49.78, "width": 114, "height": 169 }
		},
		"headwear_l": {
			"headwear_l": { "x": -68.37, "y": -4.76, "width": 65, "height": 56 }
		},
		"headwear_r": {
			"headwear_r": { "x": 69.89, "y": -1.88, "width": 68, "height": 56 }
		},
		"light": {
			"light": { "x": -0.82, "y": 58.28, "width": 31, "height": 117 }
		},
		"light 2": {
			"light": { "x": 58.63, "y": 0.65, "rotation": -90, "width": 31, "height": 117 }
		},
		"light 4": {
			"light": { "x": 41.08, "y": 41.96, "rotation": -45, "width": 31, "height": 117 }
		},
		"light 6": {
			"light": { "x": 42.3, "y": -41.47, "rotation": -135, "width": 31, "height": 117 }
		},
		"light1": {
			"light": { "x": -0.82, "y": -58.91, "scaleY": -1, "width": 31, "height": 117 }
		},
		"light13": {
			"light": { "x": -41.95, "y": 40.44, "rotation": 45, "width": 31, "height": 117 }
		},
		"light15": {
			"light": { "x": -41.24, "y": -42.48, "rotation": 135, "width": 31, "height": 117 }
		},
		"light7": {
			"light": { "x": -58.3, "y": -0.81, "rotation": 90, "width": 31, "height": 117 }
		},
		"logo": {
			"dice": { "x": 0.5, "rotation": 127, "width": 100, "height": 96 },
			"larbar": { "x": 0.5, "width": 169, "height": 114 },
			"roulette": { "x": -0.34, "y": 11.76, "width": 121, "height": 140 }
		},
		"logo2": {
			"dice_light": { "y": 0.5, "scaleX": 2, "scaleY": 2, "rotation": 127, "width": 64, "height": 62 },
			"larbar_light": {
				"x": -0.11,
				"y": 0.88,
				"scaleX": 2,
				"scaleY": 2,
				"rotation": -0.47,
				"width": 97,
				"height": 70
			},
			"roulette": { "x": -0.34, "y": 11.76, "width": 121, "height": 140 }
		},
		"logo3": {
			"dice": { "x": 0.5, "width": 100, "height": 96 },
			"larbar": { "x": 0.5, "width": 169, "height": 114 },
			"roulette": { "x": -0.34, "y": 11.76, "width": 121, "height": 140 }
		},
		"logo4": {
			"dice_light": { "y": 0.5, "scaleX": 2, "scaleY": 2, "width": 64, "height": 62 },
			"larbar_light": { "x": 0.5, "scaleX": 2, "scaleY": 2, "width": 97, "height": 70 },
			"roulette_light": { "x": -0.34, "y": 11.76, "scaleX": 2, "scaleY": 2, "width": 75, "height": 84 }
		},
		"panel_a01": {
			"panel_a01": { "x": 152, "y": -111, "width": 92, "height": 124 }
		},
		"panel_a02": {
			"panel_a02": { "x": 50.5, "y": -80, "width": 113, "height": 10 }
		},
		"panel_a03": {
			"panel_a03": { "x": 50.5, "y": -159.5, "width": 113, "height": 9 }
		},
		"panel_b01": {
			"panel_a01": { "x": -151, "y": -111, "scaleX": -1, "width": 92, "height": 124 }
		},
		"panel_b02": {
			"panel_a02": { "x": -49.5, "y": -80, "scaleX": -1, "width": 113, "height": 10 }
		},
		"panel_b03": {
			"panel_a03": { "x": -49.5, "y": -159.5, "scaleX": -1, "width": 113, "height": 9 }
		},
		"roulette_o": {
			"roulette_o": { "x": 0.5, "y": 0.5, "width": 103, "height": 103 }
		},
		"roulette_o2": {
			"roulette_o": { "x": 0.5, "y": 0.5, "width": 103, "height": 103 }
		},
		"shadow": {
			"shadow": { "x": -0.5, "y": -116, "scaleX": 2, "scaleY": 2, "width": 209, "height": 72 }
		},
		"word": {
			"word": { "x": 2.5, "y": -14.5, "width": 459, "height": 129 }
		}
	}
},
"animations": {
	"dice": {
		"slots": {
			"bg00": {
				"color": [
					{ "time": 3.1667, "color": "ffffffff" },
					{ "time": 3.3333, "color": "ffffff00" }
				]
			},
			"bg02": {
				"color": [
					{ "time": 3.1667, "color": "ffffffff" },
					{ "time": 3.3333, "color": "ffffff00" }
				]
			},
			"bg_a": {
				"color": [
					{ "time": 3.1667, "color": "ffffffff" },
					{ "time": 3.3333, "color": "ffffff00" }
				]
			},
			"body": {
				"color": [
					{ "time": 3.1667, "color": "ffffffff" },
					{ "time": 3.3333, "color": "ffffff00" }
				]
			},
			"fish": {
				"color": [
					{ "time": 3.3333, "color": "ffffff00" }
				]
			},
			"hand_l": {
				"color": [
					{ "time": 3.1667, "color": "ffffffff" },
					{ "time": 3.3333, "color": "ffffff00" }
				]
			},
			"hand_r": {
				"color": [
					{ "time": 3.1667, "color": "ffffffff" },
					{ "time": 3.3333, "color": "ffffff00" }
				]
			},
			"head": {
				"color": [
					{ "time": 3.1667, "color": "ffffffff" },
					{ "time": 3.3333, "color": "ffffff00" }
				]
			},
			"headwear_l": {
				"color": [
					{ "time": 3.1667, "color": "ffffffff" },
					{ "time": 3.3333, "color": "ffffff00" }
				]
			},
			"headwear_r": {
				"color": [
					{ "time": 3.1667, "color": "ffffffff" },
					{ "time": 3.3333, "color": "ffffff00" }
				]
			},
			"light": {
				"color": [
					{ "time": 3.1667, "color": "ffffffff" },
					{ "time": 3.3333, "color": "ffffff00" }
				]
			},
			"light1": {
				"color": [
					{ "time": 3.1667, "color": "ffffffff" },
					{ "time": 3.3333, "color": "ffffff00" }
				]
			},
			"light7": {
				"color": [
					{ "time": 3.1667, "color": "ffffffff" },
					{ "time": 3.3333, "color": "ffffff00" }
				]
			},
			"light13": {
				"color": [
					{ "time": 3.1667, "color": "ffffffff" },
					{ "time": 3.3333, "color": "ffffff00" }
				]
			},
			"light15": {
				"color": [
					{ "time": 3.1667, "color": "ffffffff" },
					{ "time": 3.3333, "color": "ffffff00" }
				]
			},
			"light 2": {
				"color": [
					{ "time": 3.1667, "color": "ffffffff" },
					{ "time": 3.3333, "color": "ffffff00" }
				]
			},
			"light 4": {
				"color": [
					{ "time": 3.1667, "color": "ffffffff" },
					{ "time": 3.3333, "color": "ffffff00" }
				]
			},
			"light 6": {
				"color": [
					{ "time": 3.1667, "color": "ffffffff" },
					{ "time": 3.3333, "color": "ffffff00" }
				]
			},
			"logo": {
				"color": [
					{ "time": 3.1667, "color": "ffffffff" },
					{ "time": 3.3333, "color": "ffffff00" }
				],
				"attachment": [
					{ "time": 0, "name": "dice" }
				]
			},
			"logo2": {
				"color": [
					{ "time": 0, "color": "ffffff00" },
					{ "time": 0.8333, "color": "ffffff93" },
					{ "time": 1.6667, "color": "ffffff4d" },
					{ "time": 2.5, "color": "ffffffc3" },
					{ "time": 3.1667, "color": "ffffff63" },
					{ "time": 3.3333, "color": "ffffff00" }
				],
				"attachment": [
					{ "time": 0, "name": "dice_light" }
				]
			},
			"logo3": {
				"color": [
					{ "time": 3.1667, "color": "ffffffff" },
					{ "time": 3.3333, "color": "ffffff00" }
				],
				"attachment": [
					{ "time": 0, "name": "dice" }
				]
			},
			"logo4": {
				"color": [
					{ "time": 0, "color": "ffffff00" },
					{ "time": 0.8333, "color": "ffffff93" },
					{ "time": 1.6667, "color": "ffffff4d" },
					{ "time": 2.5, "color": "ffffffc3" },
					{ "time": 3.1667, "color": "ffffff63" },
					{ "time": 3.3333, "color": "ffffff00" }
				],
				"attachment": [
					{ "time": 0, "name": "dice_light" }
				]
			},
			"panel_a01": {
				"color": [
					{ "time": 3.1667, "color": "ffffffff" },
					{ "time": 3.3333, "color": "ffffff00" }
				]
			},
			"panel_a02": {
				"color": [
					{ "time": 3.1667, "color": "ffffffff" },
					{ "time": 3.3333, "color": "ffffff00" }
				]
			},
			"panel_a03": {
				"color": [
					{ "time": 3.1667, "color": "ffffffff" },
					{ "time": 3.3333, "color": "ffffff00" }
				]
			},
			"panel_b01": {
				"color": [
					{ "time": 3.1667, "color": "ffffffff" },
					{ "time": 3.3333, "color": "ffffff00" }
				]
			},
			"panel_b02": {
				"color": [
					{ "time": 3.1667, "color": "ffffffff" },
					{ "time": 3.3333, "color": "ffffff00" }
				]
			},
			"panel_b03": {
				"color": [
					{ "time": 3.1667, "color": "ffffffff" },
					{ "time": 3.3333, "color": "ffffff00" }
				]
			},
			"shadow": {
				"color": [
					{ "time": 3.1667, "color": "ffffffff" },
					{ "time": 3.3333, "color": "ffffff00" }
				]
			},
			"word": {
				"color": [
					{ "time": 3.1667, "color": "ffffffff" },
					{ "time": 3.3333, "color": "ffffff00" }
				]
			}
		},
		"bones": {
			"logo": {
				"rotate": [
					{ "time": 0, "angle": 0 },
					{ "time": 0.6667, "angle": -12.23 },
					{ "time": 1.1, "angle": 32.57 },
					{ "time": 1.4667, "angle": 5.13 },
					{ "time": 2, "angle": -11.4 },
					{ "time": 2.4667, "angle": 31.8 },
					{ "time": 3.3333, "angle": 8.37 }
				],
				"translate": [
					{ "time": 0, "x": 0, "y": 0 },
					{ "time": 0.5333, "x": -5.78, "y": -21.64 },
					{ "time": 1.1, "x": 4.85, "y": 18.48 },
					{ "time": 1.6667, "x": 6.18, "y": -5.46 },
					{ "time": 2.2, "x": -4.46, "y": 6.75 },
					{ "time": 2.7667, "x": 0.92, "y": -13.2 },
					{ "time": 3.3333, "x": 0, "y": -4.19 }
				],
				"scale": [
					{ "time": 1.0667, "x": 1, "y": 1 },
					{ "time": 1.6667, "x": 1.2, "y": 1.2 },
					{ "time": 2.3333, "x": 1, "y": 1 },
					{ "time": 2.7, "x": 1.125, "y": 1.125 },
					{ "time": 3.3333, "x": 1, "y": 1 }
				]
			},
			"dummy": {
				"scale": [
					{ "time": 0, "x": 0.3, "y": 0.3 },
					{ "time": 0.1333, "x": 1.2, "y": 1.2 },
					{ "time": 0.2, "x": 0.9, "y": 0.9 },
					{ "time": 0.2667, "x": 1, "y": 1, "curve": "stepped" },
					{ "time": 3.1667, "x": 1, "y": 1 },
					{ "time": 3.3333, "x": 1.1, "y": 1.1 }
				]
			},
			"light": {
				"rotate": [
					{ "time": 0, "angle": 0 },
					{ "time": 0.4333, "angle": 90 },
					{ "time": 0.8333, "angle": 180 },
					{ "time": 1.2667, "angle": -90 },
					{ "time": 1.6667, "angle": 0 },
					{ "time": 2.0667, "angle": 90 },
					{ "time": 2.5, "angle": 180 },
					{ "time": 2.9, "angle": -90 },
					{ "time": 3.3333, "angle": 0 }
				],
				"scale": [
					{ "time": 0, "x": 1.5, "y": 1.5 },
					{ "time": 1.6667, "x": 3, "y": 3 },
					{ "time": 3.3333, "x": 2, "y": 2 }
				]
			},
			"word": {
				"translate": [
					{ "time": 0, "x": 0, "y": 0 },
					{ "time": 0.8333, "x": 0, "y": -5 },
					{ "time": 1.6667, "x": 0, "y": -0.83 },
					{ "time": 2.5, "x": 0, "y": -5.41 },
					{ "time": 3.3333, "x": 0, "y": 0 }
				]
			},
			"hand_l": {
				"rotate": [
					{ "time": 0, "angle": 0 },
					{ "time": 0.6667, "angle": 24.39 },
					{ "time": 1.3333, "angle": 5.43 },
					{ "time": 2, "angle": 17.36 },
					{ "time": 2.6667, "angle": 1.16 },
					{ "time": 3.3333, "angle": 13.96 }
				]
			},
			"hand_r": {
				"rotate": [
					{ "time": 0, "angle": 0 },
					{ "time": 0.6667, "angle": -9.47 },
					{ "time": 1.3333, "angle": -1.18 },
					{ "time": 2, "angle": -15.54 },
					{ "time": 2.8333, "angle": -3.97 },
					{ "time": 3.3333, "angle": -6.77 }
				]
			},
			"body": {
				"rotate": [
					{ "time": 0, "angle": 0 },
					{ "time": 1, "angle": 1.25 },
					{ "time": 2, "angle": -1.37 },
					{ "time": 2.8333, "angle": 0.6 },
					{ "time": 3.3333, "angle": -1.58 }
				],
				"translate": [
					{ "time": 0, "x": 0, "y": 0 },
					{ "time": 1, "x": 0, "y": 4.59 },
					{ "time": 2, "x": 0, "y": -1.97 },
					{ "time": 3, "x": 0, "y": 5.01 },
					{ "time": 3.3333, "x": 0, "y": 0 }
				]
			},
			"headwear_r": {
				"rotate": [
					{ "time": 0, "angle": -0.19 },
					{ "time": 0.5, "angle": 3.4 },
					{ "time": 1, "angle": -0.38 },
					{ "time": 1.5, "angle": 9.11 },
					{ "time": 2, "angle": -2 },
					{ "time": 2.5, "angle": 7 },
					{ "time": 3.0333, "angle": 1.18 },
					{ "time": 3.3333, "angle": 4.15 }
				],
				"translate": [
					{ "time": 0, "x": 0, "y": 0 },
					{ "time": 0.2667, "x": -0.01, "y": -2.48 },
					{ "time": 0.6333, "x": 0.01, "y": 1.95 },
					{ "time": 1.2667, "x": -0.01, "y": -4.37 },
					{ "time": 1.8333, "x": 0.01, "y": 1.77 },
					{ "time": 2.3, "x": -0.01, "y": -1.61 },
					{ "time": 2.8333, "x": 0.01, "y": 2.96 },
					{ "time": 3.3333, "x": -0.01, "y": -3.13 }
				]
			},
			"head": {
				"rotate": [
					{ "time": 0, "angle": 0 },
					{ "time": 0.6, "angle": -11.73 },
					{ "time": 1.2333, "angle": 10.06 },
					{ "time": 1.9, "angle": -4.9 },
					{ "time": 2.4, "angle": 9.01 },
					{ "time": 2.8667, "angle": -5.79 },
					{ "time": 3.3333, "angle": 9.05 }
				]
			},
			"headwear_l": {
				"rotate": [
					{ "time": 0, "angle": 0 },
					{ "time": 0.4667, "angle": -3.74 },
					{ "time": 1, "angle": 0.41 },
					{ "time": 1.5, "angle": -4.07 },
					{ "time": 2.0333, "angle": 0.85 },
					{ "time": 2.5, "angle": -2.38 },
					{ "time": 3, "angle": 2.95 },
					{ "time": 3.3333, "angle": 0.28 }
				],
				"translate": [
					{ "time": 0, "x": 0, "y": 0 },
					{ "time": 0.2667, "x": 0, "y": -2.48 },
					{ "time": 0.6333, "x": 0, "y": 1.95 },
					{ "time": 1.2667, "x": 0, "y": -4.37 },
					{ "time": 1.8333, "x": 0, "y": 1.77 },
					{ "time": 2.3, "x": 0, "y": -1.61 },
					{ "time": 2.8333, "x": 0, "y": 2.96 },
					{ "time": 3.3333, "x": 0, "y": -3.13 }
				]
			},
			"logo2": {
				"rotate": [
					{ "time": 0, "angle": 0 },
					{ "time": 0.6667, "angle": -12.23 },
					{ "time": 1.4667, "angle": 9.21 },
					{ "time": 2.3333, "angle": -11.4 },
					{ "time": 3.3333, "angle": 8.37 }
				],
				"translate": [
					{ "time": 0.6667, "x": 0, "y": 0 },
					{ "time": 1.2, "x": 10.75, "y": -9.92 },
					{ "time": 1.5667, "x": 17.6, "y": -1.62 },
					{ "time": 2.3333, "x": 6.28, "y": -5.47 },
					{ "time": 2.9667, "x": 1.51, "y": -2.5 },
					{ "time": 3.3333, "x": 1.41, "y": 2.47 }
				],
				"scale": [
					{ "time": 0, "x": 1, "y": 1 },
					{ "time": 1.0667, "x": 1.2, "y": 1.2 },
					{ "time": 1.6667, "x": 1, "y": 1 },
					{ "time": 2.3333, "x": 1.2, "y": 1.2 },
					{ "time": 2.7, "x": 1, "y": 1 }
				]
			}
		}
	},
	"larbar": {
		"slots": {
			"bg00": {
				"color": [
					{ "time": 3.1667, "color": "ffffffff" },
					{ "time": 3.3333, "color": "ffffff00" }
				]
			},
			"bg02": {
				"color": [
					{ "time": 3.1667, "color": "ffffffff" },
					{ "time": 3.3333, "color": "ffffff00" }
				]
			},
			"bg_a": {
				"color": [
					{ "time": 3.1667, "color": "ffffffff" },
					{ "time": 3.3333, "color": "ffffff00" }
				]
			},
			"body": {
				"color": [
					{ "time": 3.1667, "color": "ffffffff" },
					{ "time": 3.3333, "color": "ffffff00" }
				]
			},
			"fish": {
				"color": [
					{ "time": 3.3333, "color": "ffffff00" }
				]
			},
			"hand_l": {
				"color": [
					{ "time": 3.1667, "color": "ffffffff" },
					{ "time": 3.3333, "color": "ffffff00" }
				]
			},
			"hand_r": {
				"color": [
					{ "time": 3.1667, "color": "ffffffff" },
					{ "time": 3.3333, "color": "ffffff00" }
				]
			},
			"head": {
				"color": [
					{ "time": 3.1667, "color": "ffffffff" },
					{ "time": 3.3333, "color": "ffffff00" }
				]
			},
			"headwear_l": {
				"color": [
					{ "time": 3.1667, "color": "ffffffff" },
					{ "time": 3.3333, "color": "ffffff00" }
				]
			},
			"headwear_r": {
				"color": [
					{ "time": 3.1667, "color": "ffffffff" },
					{ "time": 3.3333, "color": "ffffff00" }
				]
			},
			"light": {
				"color": [
					{ "time": 3.1667, "color": "ffffffff" },
					{ "time": 3.3333, "color": "ffffff00" }
				]
			},
			"light1": {
				"color": [
					{ "time": 3.1667, "color": "ffffffff" },
					{ "time": 3.3333, "color": "ffffff00" }
				]
			},
			"light7": {
				"color": [
					{ "time": 3.1667, "color": "ffffffff" },
					{ "time": 3.3333, "color": "ffffff00" }
				]
			},
			"light13": {
				"color": [
					{ "time": 3.1667, "color": "ffffffff" },
					{ "time": 3.3333, "color": "ffffff00" }
				]
			},
			"light15": {
				"color": [
					{ "time": 3.1667, "color": "ffffffff" },
					{ "time": 3.3333, "color": "ffffff00" }
				]
			},
			"light 2": {
				"color": [
					{ "time": 3.1667, "color": "ffffffff" },
					{ "time": 3.3333, "color": "ffffff00" }
				]
			},
			"light 4": {
				"color": [
					{ "time": 3.1667, "color": "ffffffff" },
					{ "time": 3.3333, "color": "ffffff00" }
				]
			},
			"light 6": {
				"color": [
					{ "time": 3.1667, "color": "ffffffff" },
					{ "time": 3.3333, "color": "ffffff00" }
				]
			},
			"logo": {
				"color": [
					{ "time": 3.1667, "color": "ffffffff" },
					{ "time": 3.3333, "color": "ffffff00" }
				]
			},
			"logo2": {
				"color": [
					{ "time": 0, "color": "ffffff00" },
					{ "time": 0.8333, "color": "ffffff93" },
					{ "time": 1.6667, "color": "ffffff4d" },
					{ "time": 2.5, "color": "ffffffc3" },
					{ "time": 3.1667, "color": "ffffff63" },
					{ "time": 3.3333, "color": "ffffff00" }
				]
			},
			"logo3": {
				"color": [
					{ "time": 3.1667, "color": "ffffffff" },
					{ "time": 3.3333, "color": "ffffff00" }
				],
				"attachment": [
					{ "time": 0, "name": "larbar" }
				]
			},
			"logo4": {
				"color": [
					{ "time": 0, "color": "ffffff00" },
					{ "time": 0.8333, "color": "ffffff93" },
					{ "time": 1.6667, "color": "ffffff4d" },
					{ "time": 2.5, "color": "ffffffc3" },
					{ "time": 3.1667, "color": "ffffff63" },
					{ "time": 3.3333, "color": "ffffff00" }
				],
				"attachment": [
					{ "time": 0, "name": "larbar_light" }
				]
			},
			"panel_a01": {
				"color": [
					{ "time": 3.1667, "color": "ffffffff" },
					{ "time": 3.3333, "color": "ffffff00" }
				]
			},
			"panel_a02": {
				"color": [
					{ "time": 3.1667, "color": "ffffffff" },
					{ "time": 3.3333, "color": "ffffff00" }
				]
			},
			"panel_a03": {
				"color": [
					{ "time": 3.1667, "color": "ffffffff" },
					{ "time": 3.3333, "color": "ffffff00" }
				]
			},
			"panel_b01": {
				"color": [
					{ "time": 3.1667, "color": "ffffffff" },
					{ "time": 3.3333, "color": "ffffff00" }
				]
			},
			"panel_b02": {
				"color": [
					{ "time": 3.1667, "color": "ffffffff" },
					{ "time": 3.3333, "color": "ffffff00" }
				]
			},
			"panel_b03": {
				"color": [
					{ "time": 3.1667, "color": "ffffffff" },
					{ "time": 3.3333, "color": "ffffff00" }
				]
			},
			"shadow": {
				"color": [
					{ "time": 3.1667, "color": "ffffffff" },
					{ "time": 3.3333, "color": "ffffff00" }
				]
			},
			"word": {
				"color": [
					{ "time": 3.1667, "color": "ffffffff" },
					{ "time": 3.3333, "color": "ffffff00" }
				]
			}
		},
		"bones": {
			"logo": {
				"rotate": [
					{ "time": 0, "angle": 0 },
					{ "time": 0.6667, "angle": -12.23 },
					{ "time": 1.1, "angle": 32.57 },
					{ "time": 1.4667, "angle": 5.13 },
					{ "time": 2, "angle": -11.4 },
					{ "time": 2.4667, "angle": 31.8 },
					{ "time": 3.3333, "angle": 8.37 }
				],
				"translate": [
					{ "time": 0, "x": 0, "y": 0 },
					{ "time": 0.5333, "x": -5.78, "y": -21.64 },
					{ "time": 1.1, "x": 4.85, "y": 18.48 },
					{ "time": 1.6667, "x": 6.18, "y": -5.46 },
					{ "time": 2.2, "x": -4.46, "y": 6.75 },
					{ "time": 2.7667, "x": 0.92, "y": -13.2 },
					{ "time": 3.3333, "x": 0, "y": -4.19 }
				],
				"scale": [
					{ "time": 1.0667, "x": 1, "y": 1 },
					{ "time": 1.6667, "x": 1.2, "y": 1.2 },
					{ "time": 2.3333, "x": 1, "y": 1 },
					{ "time": 2.7, "x": 1.125, "y": 1.125 },
					{ "time": 3.3333, "x": 1, "y": 1 }
				]
			},
			"dummy": {
				"scale": [
					{ "time": 0, "x": 0.3, "y": 0.3 },
					{ "time": 0.1333, "x": 1.2, "y": 1.2 },
					{ "time": 0.2, "x": 0.9, "y": 0.9 },
					{ "time": 0.2667, "x": 1, "y": 1, "curve": "stepped" },
					{ "time": 3.1667, "x": 1, "y": 1 },
					{ "time": 3.3333, "x": 1.1, "y": 1.1 }
				]
			},
			"light": {
				"rotate": [
					{ "time": 0, "angle": 0 },
					{ "time": 0.4333, "angle": 90 },
					{ "time": 0.8333, "angle": 180 },
					{ "time": 1.2667, "angle": -90 },
					{ "time": 1.6667, "angle": 0 },
					{ "time": 2.0667, "angle": 90 },
					{ "time": 2.5, "angle": 180 },
					{ "time": 2.9, "angle": -90 },
					{ "time": 3.3333, "angle": 0 }
				],
				"scale": [
					{ "time": 0, "x": 1.5, "y": 1.5 },
					{ "time": 1.6667, "x": 3, "y": 3 },
					{ "time": 3.3333, "x": 2, "y": 2 }
				]
			},
			"word": {
				"translate": [
					{ "time": 0, "x": 0, "y": 0 },
					{ "time": 0.8333, "x": 0, "y": -5 },
					{ "time": 1.6667, "x": 0, "y": -0.83 },
					{ "time": 2.5, "x": 0, "y": -5.41 },
					{ "time": 3.3333, "x": 0, "y": 0 }
				]
			},
			"hand_l": {
				"rotate": [
					{ "time": 0, "angle": 0 },
					{ "time": 0.6667, "angle": 24.39 },
					{ "time": 1.3333, "angle": 5.43 },
					{ "time": 2, "angle": 17.36 },
					{ "time": 2.6667, "angle": 1.16 },
					{ "time": 3.3333, "angle": 13.96 }
				]
			},
			"hand_r": {
				"rotate": [
					{ "time": 0, "angle": 0 },
					{ "time": 0.6667, "angle": -9.47 },
					{ "time": 1.3333, "angle": -1.18 },
					{ "time": 2, "angle": -15.54 },
					{ "time": 2.8333, "angle": -3.97 },
					{ "time": 3.3333, "angle": -6.77 }
				]
			},
			"body": {
				"rotate": [
					{ "time": 0, "angle": 0 },
					{ "time": 1, "angle": 1.25 },
					{ "time": 2, "angle": -1.37 },
					{ "time": 2.8333, "angle": 0.6 },
					{ "time": 3.3333, "angle": -1.58 }
				],
				"translate": [
					{ "time": 0, "x": 0, "y": 0 },
					{ "time": 1, "x": 0, "y": 4.59 },
					{ "time": 2, "x": 0, "y": -1.97 },
					{ "time": 3, "x": 0, "y": 5.01 },
					{ "time": 3.3333, "x": 0, "y": 0 }
				]
			},
			"headwear_r": {
				"rotate": [
					{ "time": 0, "angle": -0.19 },
					{ "time": 0.5, "angle": 3.4 },
					{ "time": 1, "angle": -0.38 },
					{ "time": 1.5, "angle": 9.11 },
					{ "time": 2, "angle": -2 },
					{ "time": 2.5, "angle": 7 },
					{ "time": 3.0333, "angle": 1.18 },
					{ "time": 3.3333, "angle": 4.15 }
				],
				"translate": [
					{ "time": 0, "x": 0, "y": 0 },
					{ "time": 0.2667, "x": -0.01, "y": -2.48 },
					{ "time": 0.6333, "x": 0.01, "y": 1.95 },
					{ "time": 1.2667, "x": -0.01, "y": -4.37 },
					{ "time": 1.8333, "x": 0.01, "y": 1.77 },
					{ "time": 2.3, "x": -0.01, "y": -1.61 },
					{ "time": 2.8333, "x": 0.01, "y": 2.96 },
					{ "time": 3.3333, "x": -0.01, "y": -3.13 }
				]
			},
			"head": {
				"rotate": [
					{ "time": 0, "angle": 0 },
					{ "time": 0.6, "angle": -11.73 },
					{ "time": 1.2333, "angle": 10.06 },
					{ "time": 1.9, "angle": -4.9 },
					{ "time": 2.4, "angle": 9.01 },
					{ "time": 2.8667, "angle": -5.79 },
					{ "time": 3.3333, "angle": 9.05 }
				]
			},
			"headwear_l": {
				"rotate": [
					{ "time": 0, "angle": 0 },
					{ "time": 0.4667, "angle": -3.74 },
					{ "time": 1, "angle": 0.41 },
					{ "time": 1.5, "angle": -4.07 },
					{ "time": 2.0333, "angle": 0.85 },
					{ "time": 2.5, "angle": -2.38 },
					{ "time": 3, "angle": 2.95 },
					{ "time": 3.3333, "angle": 0.28 }
				],
				"translate": [
					{ "time": 0, "x": 0, "y": 0 },
					{ "time": 0.2667, "x": 0, "y": -2.48 },
					{ "time": 0.6333, "x": 0, "y": 1.95 },
					{ "time": 1.2667, "x": 0, "y": -4.37 },
					{ "time": 1.8333, "x": 0, "y": 1.77 },
					{ "time": 2.3, "x": 0, "y": -1.61 },
					{ "time": 2.8333, "x": 0, "y": 2.96 },
					{ "time": 3.3333, "x": 0, "y": -3.13 }
				]
			},
			"logo2": {
				"rotate": [
					{ "time": 0, "angle": 1.46 },
					{ "time": 0.6667, "angle": -12.23 },
					{ "time": 1.4667, "angle": 9.21 },
					{ "time": 2.1667, "angle": -6.38 },
					{ "time": 3.3, "angle": 9.84 },
					{ "time": 3.3333, "angle": 8.37 }
				],
				"translate": [
					{ "time": 0, "x": 32.31, "y": -10.7 }
				],
				"scale": [
					{ "time": 0, "x": 1, "y": 1 },
					{ "time": 1.0667, "x": 1.2, "y": 1.2 },
					{ "time": 1.6667, "x": 1, "y": 1 },
					{ "time": 2.3333, "x": 1.15, "y": 1.15 },
					{ "time": 3.3333, "x": 1, "y": 1 }
				]
			}
		}
	},
	"roulette": {
		"slots": {
			"bg00": {
				"color": [
					{ "time": 3.1667, "color": "ffffffff" },
					{ "time": 3.3333, "color": "ffffff00" }
				]
			},
			"bg02": {
				"color": [
					{ "time": 3.1667, "color": "ffffffff" },
					{ "time": 3.3333, "color": "ffffff00" }
				]
			},
			"bg_a": {
				"color": [
					{ "time": 3.1667, "color": "ffffffff" },
					{ "time": 3.3333, "color": "ffffff00" }
				]
			},
			"body": {
				"color": [
					{ "time": 3.1667, "color": "ffffffff" },
					{ "time": 3.3333, "color": "ffffff00" }
				]
			},
			"fish": {
				"color": [
					{ "time": 3.3333, "color": "ffffff00" }
				]
			},
			"hand_l": {
				"color": [
					{ "time": 3.1667, "color": "ffffffff" },
					{ "time": 3.3333, "color": "ffffff00" }
				]
			},
			"hand_r": {
				"color": [
					{ "time": 3.1667, "color": "ffffffff" },
					{ "time": 3.3333, "color": "ffffff00" }
				]
			},
			"head": {
				"color": [
					{ "time": 3.1667, "color": "ffffffff" },
					{ "time": 3.3333, "color": "ffffff00" }
				]
			},
			"headwear_l": {
				"color": [
					{ "time": 3.1667, "color": "ffffffff" },
					{ "time": 3.3333, "color": "ffffff00" }
				]
			},
			"headwear_r": {
				"color": [
					{ "time": 3.1667, "color": "ffffffff" },
					{ "time": 3.3333, "color": "ffffff00" }
				]
			},
			"light": {
				"color": [
					{ "time": 3.1667, "color": "ffffffff" },
					{ "time": 3.3333, "color": "ffffff00" }
				]
			},
			"light1": {
				"color": [
					{ "time": 3.1667, "color": "ffffffff" },
					{ "time": 3.3333, "color": "ffffff00" }
				]
			},
			"light7": {
				"color": [
					{ "time": 3.1667, "color": "ffffffff" },
					{ "time": 3.3333, "color": "ffffff00" }
				]
			},
			"light13": {
				"color": [
					{ "time": 3.1667, "color": "ffffffff" },
					{ "time": 3.3333, "color": "ffffff00" }
				]
			},
			"light15": {
				"color": [
					{ "time": 3.1667, "color": "ffffffff" },
					{ "time": 3.3333, "color": "ffffff00" }
				]
			},
			"light 2": {
				"color": [
					{ "time": 3.1667, "color": "ffffffff" },
					{ "time": 3.3333, "color": "ffffff00" }
				]
			},
			"light 4": {
				"color": [
					{ "time": 3.1667, "color": "ffffffff" },
					{ "time": 3.3333, "color": "ffffff00" }
				]
			},
			"light 6": {
				"color": [
					{ "time": 3.1667, "color": "ffffffff" },
					{ "time": 3.3333, "color": "ffffff00" }
				]
			},
			"logo": {
				"color": [
					{ "time": 3.1667, "color": "ffffffff" },
					{ "time": 3.3333, "color": "ffffff00" }
				]
			},
			"logo2": {
				"color": [
					{ "time": 0, "color": "ffffff00" },
					{ "time": 0.8333, "color": "ffffff93" },
					{ "time": 1.6667, "color": "ffffff4d" },
					{ "time": 2.5, "color": "ffffffc3" },
					{ "time": 3.1667, "color": "ffffff63" },
					{ "time": 3.3333, "color": "ffffff00" }
				]
			},
			"logo3": {
				"color": [
					{ "time": 3.1667, "color": "ffffffff" },
					{ "time": 3.3333, "color": "ffffff00" }
				],
				"attachment": [
					{ "time": 0, "name": "roulette" }
				]
			},
			"logo4": {
				"color": [
					{ "time": 0, "color": "ffffff00" },
					{ "time": 0.8333, "color": "ffffff93" },
					{ "time": 1.6667, "color": "ffffff4d" },
					{ "time": 2.5, "color": "ffffffc3" },
					{ "time": 3.1667, "color": "ffffff63" },
					{ "time": 3.3333, "color": "ffffff00" }
				],
				"attachment": [
					{ "time": 0, "name": "roulette_light" }
				]
			},
			"panel_a01": {
				"color": [
					{ "time": 3.1667, "color": "ffffffff" },
					{ "time": 3.3333, "color": "ffffff00" }
				]
			},
			"panel_a02": {
				"color": [
					{ "time": 3.1667, "color": "ffffffff" },
					{ "time": 3.3333, "color": "ffffff00" }
				]
			},
			"panel_a03": {
				"color": [
					{ "time": 3.1667, "color": "ffffffff" },
					{ "time": 3.3333, "color": "ffffff00" }
				]
			},
			"panel_b01": {
				"color": [
					{ "time": 3.1667, "color": "ffffffff" },
					{ "time": 3.3333, "color": "ffffff00" }
				]
			},
			"panel_b02": {
				"color": [
					{ "time": 3.1667, "color": "ffffffff" },
					{ "time": 3.3333, "color": "ffffff00" }
				]
			},
			"panel_b03": {
				"color": [
					{ "time": 3.1667, "color": "ffffffff" },
					{ "time": 3.3333, "color": "ffffff00" }
				]
			},
			"roulette_o": {
				"color": [
					{ "time": 3.1667, "color": "ffffffff" },
					{ "time": 3.3333, "color": "ffffff00" }
				],
				"attachment": [
					{ "time": 0, "name": "roulette_o" }
				]
			},
			"roulette_o2": {
				"color": [
					{ "time": 0, "color": "ffffff00" },
					{ "time": 1, "color": "fffffffc" },
					{ "time": 2, "color": "ffffff1f" },
					{ "time": 3, "color": "ffffffde" },
					{ "time": 3.1667, "color": "ffffffff" },
					{ "time": 3.3333, "color": "ffffff00" }
				],
				"attachment": [
					{ "time": 0, "name": "roulette_o" }
				]
			},
			"shadow": {
				"color": [
					{ "time": 3.1667, "color": "ffffffff" },
					{ "time": 3.3333, "color": "ffffff00" }
				]
			},
			"word": {
				"color": [
					{ "time": 3.1667, "color": "ffffffff" },
					{ "time": 3.3333, "color": "ffffff00" }
				]
			}
		},
		"bones": {
			"logo": {
				"rotate": [
					{ "time": 0, "angle": 0 },
					{ "time": 0.6667, "angle": -12.23 },
					{ "time": 1.1, "angle": 32.57 },
					{ "time": 1.4667, "angle": 5.13 },
					{ "time": 2, "angle": -11.4 },
					{ "time": 2.4667, "angle": 31.8 },
					{ "time": 3.3333, "angle": 8.37 }
				],
				"translate": [
					{ "time": 0, "x": 0, "y": 0 },
					{ "time": 0.5333, "x": -5.78, "y": -21.64 },
					{ "time": 1.1, "x": 4.85, "y": 18.48 },
					{ "time": 1.6667, "x": 6.18, "y": -5.46 },
					{ "time": 2.2, "x": -4.46, "y": 6.75 },
					{ "time": 2.7667, "x": 0.92, "y": -13.2 },
					{ "time": 3.3333, "x": 0, "y": -4.19 }
				],
				"scale": [
					{ "time": 1.0667, "x": 1, "y": 1 },
					{ "time": 1.6667, "x": 1.2, "y": 1.2 },
					{ "time": 2.3333, "x": 1, "y": 1 },
					{ "time": 2.7, "x": 1.125, "y": 1.125 },
					{ "time": 3.3333, "x": 1, "y": 1 }
				]
			},
			"dummy": {
				"scale": [
					{ "time": 0, "x": 0.3, "y": 0.3 },
					{ "time": 0.1333, "x": 1.2, "y": 1.2 },
					{ "time": 0.2, "x": 0.9, "y": 0.9 },
					{ "time": 0.2667, "x": 1, "y": 1, "curve": "stepped" },
					{ "time": 3.1667, "x": 1, "y": 1 },
					{ "time": 3.3333, "x": 1.1, "y": 1.1 }
				]
			},
			"light": {
				"rotate": [
					{ "time": 0, "angle": 0 },
					{ "time": 0.4333, "angle": 90 },
					{ "time": 0.8333, "angle": 180 },
					{ "time": 1.2667, "angle": -90 },
					{ "time": 1.6667, "angle": 0 },
					{ "time": 2.0667, "angle": 90 },
					{ "time": 2.5, "angle": 180 },
					{ "time": 2.9, "angle": -90 },
					{ "time": 3.3333, "angle": 0 }
				],
				"scale": [
					{ "time": 0, "x": 1.5, "y": 1.5 },
					{ "time": 1.6667, "x": 3, "y": 3 },
					{ "time": 3.3333, "x": 2, "y": 2 }
				]
			},
			"word": {
				"translate": [
					{ "time": 0, "x": 0, "y": 0 },
					{ "time": 0.8333, "x": 0, "y": -5 },
					{ "time": 1.6667, "x": 0, "y": -0.83 },
					{ "time": 2.5, "x": 0, "y": -5.41 },
					{ "time": 3.3333, "x": 0, "y": 0 }
				]
			},
			"hand_l": {
				"rotate": [
					{ "time": 0, "angle": 0 },
					{ "time": 0.6667, "angle": 24.39 },
					{ "time": 1.3333, "angle": 5.43 },
					{ "time": 2, "angle": 17.36 },
					{ "time": 2.6667, "angle": 1.16 },
					{ "time": 3.3333, "angle": 13.96 }
				]
			},
			"hand_r": {
				"rotate": [
					{ "time": 0, "angle": 0 },
					{ "time": 0.6667, "angle": -9.47 },
					{ "time": 1.3333, "angle": -1.18 },
					{ "time": 2, "angle": -15.54 },
					{ "time": 2.8333, "angle": -3.97 },
					{ "time": 3.3333, "angle": -6.77 }
				]
			},
			"body": {
				"rotate": [
					{ "time": 0, "angle": 0 },
					{ "time": 1, "angle": 1.25 },
					{ "time": 2, "angle": -1.37 },
					{ "time": 2.8333, "angle": 0.6 },
					{ "time": 3.3333, "angle": -1.58 }
				],
				"translate": [
					{ "time": 0, "x": 0, "y": 0 },
					{ "time": 1, "x": 0, "y": 4.59 },
					{ "time": 2, "x": 0, "y": -1.97 },
					{ "time": 3, "x": 0, "y": 5.01 },
					{ "time": 3.3333, "x": 0, "y": 0 }
				]
			},
			"headwear_r": {
				"rotate": [
					{ "time": 0, "angle": -0.19 },
					{ "time": 0.5, "angle": 3.4 },
					{ "time": 1, "angle": -0.38 },
					{ "time": 1.5, "angle": 9.11 },
					{ "time": 2, "angle": -2 },
					{ "time": 2.5, "angle": 7 },
					{ "time": 3.0333, "angle": 1.18 },
					{ "time": 3.3333, "angle": 4.15 }
				],
				"translate": [
					{ "time": 0, "x": 0, "y": 0 },
					{ "time": 0.2667, "x": -0.01, "y": -2.48 },
					{ "time": 0.6333, "x": 0.01, "y": 1.95 },
					{ "time": 1.2667, "x": -0.01, "y": -4.37 },
					{ "time": 1.8333, "x": 0.01, "y": 1.77 },
					{ "time": 2.3, "x": -0.01, "y": -1.61 },
					{ "time": 2.8333, "x": 0.01, "y": 2.96 },
					{ "time": 3.3333, "x": -0.01, "y": -3.13 }
				]
			},
			"head": {
				"rotate": [
					{ "time": 0, "angle": 0 },
					{ "time": 0.6, "angle": -11.73 },
					{ "time": 1.2333, "angle": 10.06 },
					{ "time": 1.9, "angle": -4.9 },
					{ "time": 2.4, "angle": 9.01 },
					{ "time": 2.8667, "angle": -5.79 },
					{ "time": 3.3333, "angle": 9.05 }
				]
			},
			"headwear_l": {
				"rotate": [
					{ "time": 0, "angle": 0 },
					{ "time": 0.4667, "angle": -3.74 },
					{ "time": 1, "angle": 0.41 },
					{ "time": 1.5, "angle": -4.07 },
					{ "time": 2.0333, "angle": 0.85 },
					{ "time": 2.5, "angle": -2.38 },
					{ "time": 3, "angle": 2.95 },
					{ "time": 3.3333, "angle": 0.28 }
				],
				"translate": [
					{ "time": 0, "x": 0, "y": 0 },
					{ "time": 0.2667, "x": 0, "y": -2.48 },
					{ "time": 0.6333, "x": 0, "y": 1.95 },
					{ "time": 1.2667, "x": 0, "y": -4.37 },
					{ "time": 1.8333, "x": 0, "y": 1.77 },
					{ "time": 2.3, "x": 0, "y": -1.61 },
					{ "time": 2.8333, "x": 0, "y": 2.96 },
					{ "time": 3.3333, "x": 0, "y": -3.13 }
				]
			},
			"logo2": {
				"rotate": [
					{ "time": 0, "angle": -11.96 },
					{ "time": 1, "angle": -25.45 },
					{ "time": 1.8333, "angle": -10.16 },
					{ "time": 2.5, "angle": -19.46 },
					{ "time": 3.3333, "angle": -8.44 }
				],
				"translate": [
					{ "time": 0, "x": 21.75, "y": -10.96 }
				],
				"scale": [
					{ "time": 0, "x": 1, "y": 1 },
					{ "time": 1.0667, "x": 1.15, "y": 1.2 },
					{ "time": 1.6667, "x": 1, "y": 1 },
					{ "time": 2.3333, "x": 1.15, "y": 1.15 },
					{ "time": 3.3333, "x": 1, "y": 1 }
				]
			},
			"roulette_o": {
				"rotate": [
					{ "time": 0, "angle": 0 },
					{ "time": 1, "angle": -90 },
					{ "time": 2, "angle": 180 },
					{ "time": 3, "angle": 90 },
					{ "time": 3.3333, "angle": 60 }
				]
			}
		}
	}
}
}