{
"skeleton": { "hash": "k5F8TEWJSwDWEa+knOAo3HBAJvA", "spine": "3.7.94", "width": 1591.52, "height": 1207.31 },
"bones": [
	{ "name": "root", "y": 38.86 },
	{ "name": "gate", "parent": "root", "y": -205.79 },
	{ "name": "door", "parent": "gate", "x": -75.81, "y": 105.21 },
	{ "name": "side", "parent": "gate", "x": -7, "y": 105.21 },
	{ "name": "door2", "parent": "gate", "x": 75.56, "y": 105.21, "scaleX": -1 },
	{ "name": "mask", "parent": "root" },
	{ "name": "gatelight", "parent": "gate", "y": 130.78 },
	{ "name": "side2", "parent": "gate", "x": -7, "y": 105.21 },
	{ "name": "light", "parent": "gate", "y": 109.09, "scaleX": 0.576, "scaleY": 1.165 },
	{ "name": "hit2", "parent": "root", "y": -227.99 },
	{ "name": "hit1", "parent": "root", "y": 174.47 }
],
"slots": [
	{ "name": "mask", "bone": "mask", "color": "ffffff75", "attachment": "mask" },
	{ "name": "dark", "bone": "gate", "attachment": "mask" },
	{ "name": "gate", "bone": "gate", "attachment": "gate" },
	{ "name": "doorside", "bone": "side", "attachment": "doorside" },
	{ "name": "doorside2", "bone": "side2", "attachment": "doorside" },
	{ "name": "door", "bone": "door", "attachment": "door" },
	{ "name": "door2", "bone": "door2", "attachment": "door" },
	{ "name": "gatelight", "bone": "gatelight", "blend": "additive" },
	{ "name": "light", "bone": "light", "blend": "additive" },
	{ "name": "hit1", "bone": "hit2" },
	{ "name": "hit2", "bone": "hit1" }
],
"skins": {
	"default": {
		"dark": {
			"mask": { "x": -6.33, "y": 110.74, "scaleX": 16.389, "scaleY": 16.389, "width": 10, "height": 10 }
		},
		"door": {
			"door": { "x": 37.44, "y": 0.5, "width": 77, "height": 145 },
			"doorback": { "x": 37.44, "y": 0.5, "width": 77, "height": 145 }
		},
		"door2": {
			"door": { "x": 37.44, "y": 0.5, "width": 77, "height": 145 },
			"doorback": { "x": 37.44, "y": 0.5, "width": 77, "height": 145 }
		},
		"doorside": {
			"doorside": { "width": 8, "height": 144 }
		},
		"doorside2": {
			"doorside": { "width": 8, "height": 144 }
		},
		"gate": {
			"gate": { "x": 0.5, "y": 169.82, "width": 607, "height": 378 }
		},
		"gatelight": {
			"gatelight": { "y": 38.53, "scaleX": 2, "scaleY": 2, "width": 298, "height": 191 }
		},
		"hit1": {
			"hit1": { "y": 0.5, "width": 545, "height": 110 },
			"hit3": { "x": 0.5, "y": 0.5, "width": 389, "height": 121 }
		},
		"hit2": {
			"hit2": { "y": 0.5, "width": 684, "height": 180 }
		},
		"light": {
			"light": { "x": 0.5, "y": 0.5, "width": 117, "height": 113 }
		},
		"mask": {
			"mask": { "scaleX": 159.152, "scaleY": 120.731, "width": 10, "height": 10 }
		}
	}
},
"animations": {
	"jp1": {
		"slots": {
			"dark": {
				"color": [
					{ "time": 0, "color": "ffffff00", "curve": "stepped" },
					{ "time": 0.1667, "color": "ffffff00" },
					{ "time": 0.8333, "color": "ffffffff" }
				]
			},
			"door": {
				"color": [
					{ "time": 0, "color": "ffffff00" },
					{ "time": 0.6667, "color": "ffffffff" }
				]
			},
			"door2": {
				"color": [
					{ "time": 0, "color": "ffffff00" },
					{ "time": 0.6667, "color": "ffffffff" }
				]
			},
			"doorside": {
				"color": [
					{ "time": 0, "color": "ffffff00" },
					{ "time": 0.6667, "color": "ffffffff" }
				]
			},
			"doorside2": {
				"color": [
					{ "time": 0, "color": "ffffff00" },
					{ "time": 0.6667, "color": "ffffffff" }
				]
			},
			"gate": {
				"color": [
					{ "time": 0, "color": "ffffff00", "curve": "stepped" },
					{ "time": 0.1667, "color": "ffffff00" },
					{ "time": 0.8333, "color": "ffffffff" }
				]
			},
			"gatelight": {
				"color": [
					{ "time": 0, "color": "ffffff00" },
					{ "time": 0.6667, "color": "ffffffff" }
				]
			},
			"hit1": {
				"color": [
					{ "time": 0, "color": "ffffff00" },
					{ "time": 0.1667, "color": "ffffffff", "curve": "stepped" },
					{ "time": 0.6667, "color": "ffffffff" },
					{ "time": 0.8333, "color": "ffffff00" }
				],
				"attachment": [
					{ "time": 0, "name": "hit3" }
				]
			},
			"hit2": {
				"color": [
					{ "time": 0.6667, "color": "ffffff00" },
					{ "time": 0.8333, "color": "ffffff51" }
				],
				"attachment": [
					{ "time": 0.6667, "name": "hit2" }
				]
			},
			"mask": {
				"attachment": [
					{ "time": 0, "name": null }
				]
			}
		},
		"bones": {
			"gate": {
				"translate": [
					{ "time": 0, "x": 0, "y": 52.82, "curve": "stepped" },
					{ "time": 0.1667, "x": 0, "y": 52.82 },
					{ "time": 0.8333, "x": 0, "y": 0 }
				],
				"scale": [
					{ "time": 0, "x": 0.71, "y": 0.71, "curve": "stepped" },
					{ "time": 0.1667, "x": 0.71, "y": 0.71 },
					{ "time": 0.8333, "x": 1, "y": 1 }
				]
			},
			"hit2": {
				"translate": [
					{ "time": 0, "x": 0, "y": 370.07 }
				]
			},
			"hit1": {
				"translate": [
					{ "time": 0.6667, "x": 0, "y": -89.37 },
					{ "time": 0.8333, "x": 0, "y": -77.9 }
				]
			}
		}
	},
	"jp2": {
		"slots": {
			"gatelight": {
				"color": [
					{ "time": 0, "color": "ffffff00", "curve": "stepped" },
					{ "time": 0.2333, "color": "ffffff00" },
					{ "time": 0.3667, "color": "ffffffa3" },
					{ "time": 0.6667, "color": "ffffff00" },
					{ "time": 1, "color": "ffffff9c" },
					{ "time": 1.3333, "color": "ffffff00" },
					{ "time": 2.5, "color": "ffffffe8" }
				],
				"attachment": [
					{ "time": 0, "name": "gatelight" }
				]
			},
			"hit1": {
				"color": [
					{ "time": 0, "color": "ffffff00", "curve": "stepped" },
					{ "time": 0.3333, "color": "ffffff00" },
					{ "time": 0.8333, "color": "ffffffff", "curve": "stepped" },
					{ "time": 2, "color": "ffffffff" },
					{ "time": 2.5, "color": "ffffff00" }
				],
				"attachment": [
					{ "time": 0.3333, "name": "hit1" }
				]
			},
			"hit2": {
				"color": [
					{ "time": 0, "color": "ffffff51" },
					{ "time": 0.3333, "color": "ffffffff", "curve": "stepped" },
					{ "time": 2, "color": "ffffffff" },
					{ "time": 2.5, "color": "ffffff00" }
				],
				"attachment": [
					{ "time": 0, "name": "hit2" }
				]
			},
			"light": {
				"color": [
					{ "time": 0.4667, "color": "ffffff00" },
					{ "time": 0.7333, "color": "ffffffea" },
					{ "time": 1, "color": "ffffff00" },
					{ "time": 1.3333, "color": "ffffffea" },
					{ "time": 1.6667, "color": "ffffff00" }
				],
				"attachment": [
					{ "time": 0.4667, "name": "light" }
				]
			},
			"mask": {
				"color": [
					{ "time": 0, "color": "ffffff00" },
					{ "time": 0.3333, "color": "ffffff74" }
				]
			}
		},
		"bones": {
			"gate": {
				"rotate": [
					{ "time": 1.3333, "angle": 0 },
					{ "time": 1.5, "angle": -0.84 },
					{ "time": 1.6, "angle": 1.37 },
					{ "time": 1.7, "angle": -0.66 },
					{ "time": 1.8, "angle": 1.64 },
					{ "time": 1.9, "angle": 0.78 },
					{ "time": 2, "angle": 1.53 },
					{ "time": 2.1, "angle": -1.78 },
					{ "time": 2.2, "angle": -0.84 },
					{ "time": 2.3, "angle": 1.37 },
					{ "time": 2.4, "angle": -0.66 },
					{ "time": 2.5, "angle": 1.64 }
				],
				"scale": [
					{ "time": 0, "x": 1, "y": 1 },
					{ "time": 0.5, "x": 1, "y": 0.939 },
					{ "time": 0.8, "x": 1, "y": 1.031 },
					{ "time": 1.0333, "x": 1, "y": 0.931 },
					{ "time": 1.3333, "x": 1.009, "y": 1.039 },
					{ "time": 1.9, "x": 0.959, "y": 0.909 },
					{ "time": 2.3333, "x": 0.988, "y": 0.891 }
				]
			},
			"side": {
				"translate": [
					{ "time": 0.3333, "x": 0, "y": 0 },
					{ "time": 0.6667, "x": 2.63, "y": 0 },
					{ "time": 1.3333, "x": 2.85, "y": 0 }
				]
			},
			"door": {
				"scale": [
					{ "time": 0, "x": 1, "y": 1.02 },
					{ "time": 0.3333, "x": 1.034, "y": 1 },
					{ "time": 0.6667, "x": 0.988, "y": 1 },
					{ "time": 1, "x": 1.03, "y": 1 },
					{ "time": 1.3333, "x": 0.954, "y": 1 },
					{ "time": 1.6667, "x": 1.015, "y": 1 },
					{ "time": 2.5, "x": 1.047, "y": 1 }
				]
			},
			"door2": {
				"scale": [
					{ "time": 0, "x": 1, "y": 1.02 },
					{ "time": 0.3333, "x": 1.034, "y": 1 },
					{ "time": 0.6667, "x": 0.988, "y": 1 },
					{ "time": 1, "x": 1.03, "y": 1 },
					{ "time": 1.3333, "x": 0.954, "y": 1 },
					{ "time": 1.6667, "x": 1.015, "y": 1 },
					{ "time": 2.5, "x": 1.047, "y": 1 }
				]
			},
			"side2": {
				"translate": [
					{ "time": 0.3333, "x": 0, "y": 0 },
					{ "time": 0.6667, "x": 2.63, "y": 0 },
					{ "time": 1.3333, "x": 2.85, "y": 0 }
				]
			},
			"hit1": {
				"translate": [
					{ "time": 0, "x": 0, "y": -77.9 },
					{ "time": 0.3333, "x": 0, "y": -46.02 }
				]
			},
			"hit2": {
				"translate": [
					{ "time": 0.3333, "x": 0, "y": -60.8 },
					{ "time": 0.8333, "x": 0, "y": -32 }
				]
			}
		}
	},
	"jp3": {
		"slots": {
			"door": {
				"color": [
					{ "time": 0.2333, "color": "ffffffff" },
					{ "time": 0.5, "color": "737373ff" }
				],
				"attachment": [
					{ "time": 0.1667, "name": "doorback" }
				]
			},
			"door2": {
				"color": [
					{ "time": 0.2333, "color": "ffffffff" },
					{ "time": 0.5, "color": "737373ff" }
				],
				"attachment": [
					{ "time": 0.1667, "name": "doorback" }
				]
			},
			"doorside": {
				"color": [
					{ "time": 0.2333, "color": "ffffffff" },
					{ "time": 0.5, "color": "737373ff" }
				]
			},
			"doorside2": {
				"color": [
					{ "time": 0.2333, "color": "ffffffff" },
					{ "time": 0.5, "color": "737373ff" }
				]
			},
			"gate": {
				"color": [
					{ "time": 0.2333, "color": "ffffffff" },
					{ "time": 0.5, "color": "737373ff" }
				]
			},
			"gatelight": {
				"color": [
					{ "time": 0, "color": "ffffffe8" },
					{ "time": 0.2333, "color": "ffffff00" }
				],
				"attachment": [
					{ "time": 0, "name": "gatelight" }
				]
			},
			"light": {
				"attachment": [
					{ "time": 0, "name": "light" }
				]
			}
		},
		"bones": {
			"gate": {
				"rotate": [
					{ "time": 0, "angle": 1.64 },
					{ "time": 0.0333, "angle": 0 }
				],
				"translate": [
					{ "time": 0.3333, "x": 0, "y": 0 },
					{ "time": 0.5, "x": 0, "y": 46.69 }
				],
				"scale": [
					{ "time": 0, "x": 0.957, "y": 0.882 },
					{ "time": 0.1, "x": 1.1, "y": 1.1 },
					{ "time": 0.1667, "x": 1, "y": 1 }
				]
			},
			"side": {
				"translate": [
					{ "time": 0, "x": 0, "y": 0 },
					{ "time": 0.0333, "x": -11.58, "y": 0 },
					{ "time": 0.1, "x": -46.13, "y": 0 },
					{ "time": 0.1333, "x": -72.96, "y": 0 },
					{ "time": 0.1667, "x": -75.16, "y": 0 },
					{ "time": 0.2, "x": -146.75, "y": 0 },
					{ "time": 0.2333, "x": -144.9, "y": 0 }
				],
				"scale": [
					{ "time": 0, "x": 1, "y": 1 },
					{ "time": 0.1333, "x": 1.109, "y": 1 }
				]
			},
			"door": {
				"scale": [
					{ "time": 0, "x": 1, "y": 1 },
					{ "time": 0.1333, "x": 0.046, "y": 1 },
					{ "time": 0.1667, "x": -0.008, "y": 1 },
					{ "time": 0.2, "x": -1.035, "y": 1 },
					{ "time": 0.2333, "x": -0.959, "y": 1 }
				]
			},
			"door2": {
				"scale": [
					{ "time": 0, "x": 1, "y": 1 },
					{ "time": 0.1333, "x": 0.046, "y": 1 },
					{ "time": 0.1667, "x": -0.008, "y": 1 },
					{ "time": 0.2, "x": -1.035, "y": 1 },
					{ "time": 0.2333, "x": -0.959, "y": 1 }
				]
			},
			"gatelight": {
				"scale": [
					{ "time": 0.0667, "x": 1, "y": 1 },
					{ "time": 0.1667, "x": 1.102, "y": 1.102 }
				]
			},
			"side2": {
				"translate": [
					{ "time": 0, "x": 0, "y": 0 },
					{ "time": 0.0333, "x": 25.83, "y": 0 },
					{ "time": 0.1, "x": 59.54, "y": 0 },
					{ "time": 0.1333, "x": 85.93, "y": 0 },
					{ "time": 0.1667, "x": 87.66, "y": 0 },
					{ "time": 0.2, "x": 163.45, "y": 0 },
					{ "time": 0.2333, "x": 158.2, "y": 0 }
				],
				"scale": [
					{ "time": 0, "x": 1, "y": 1 },
					{ "time": 0.1333, "x": 1.109, "y": 1 }
				]
			},
			"light": {
				"rotate": [
					{ "time": 0, "angle": -51.36 },
					{ "time": 0.4667, "angle": -90 },
					{ "time": 2.6667, "angle": 103.57 },
					{ "time": 5, "angle": -55.78 }
				],
				"scale": [
					{ "time": 0, "x": 0, "y": 0 },
					{ "time": 0.1, "x": 0.287, "y": 0.142 },
					{ "time": 0.2, "x": 9.915, "y": 4.898 }
				]
			}
		}
	},
	"jp5": {
		"slots": {
			"dark": {
				"color": [
					{ "time": 2.1667, "color": "ffffffff" },
					{ "time": 2.3333, "color": "ffffff00" }
				]
			},
			"door": {
				"color": [
					{ "time": 0.2333, "color": "ffffffff" },
					{ "time": 0.5, "color": "737373ff", "curve": "stepped" },
					{ "time": 2.1667, "color": "737373ff" },
					{ "time": 2.3333, "color": "73737300" }
				],
				"attachment": [
					{ "time": 0.1667, "name": "doorback" }
				]
			},
			"door2": {
				"color": [
					{ "time": 0.2333, "color": "ffffffff" },
					{ "time": 0.5, "color": "737373ff", "curve": "stepped" },
					{ "time": 2.1667, "color": "737373ff" },
					{ "time": 2.3333, "color": "73737300" }
				],
				"attachment": [
					{ "time": 0.1667, "name": "doorback" }
				]
			},
			"doorside": {
				"color": [
					{ "time": 0.2333, "color": "ffffffff" },
					{ "time": 0.5, "color": "737373ff", "curve": "stepped" },
					{ "time": 2.1667, "color": "737373ff" },
					{ "time": 2.3333, "color": "73737300" }
				]
			},
			"doorside2": {
				"color": [
					{ "time": 0.2333, "color": "ffffffff" },
					{ "time": 0.5, "color": "737373ff", "curve": "stepped" },
					{ "time": 2.1667, "color": "737373ff" },
					{ "time": 2.3333, "color": "73737300" }
				]
			},
			"gate": {
				"color": [
					{ "time": 0.2333, "color": "ffffffff" },
					{ "time": 0.5, "color": "737373ff", "curve": "stepped" },
					{ "time": 2.1667, "color": "737373ff" },
					{ "time": 2.3333, "color": "73737300" }
				]
			},
			"gatelight": {
				"color": [
					{ "time": 0, "color": "ffffffe8" },
					{ "time": 0.2333, "color": "ffffff00", "curve": "stepped" },
					{ "time": 2.1667, "color": "ffffff00" },
					{ "time": 2.3333, "color": "ffffff00" }
				],
				"attachment": [
					{ "time": 0, "name": "gatelight" }
				]
			},
			"light": {
				"color": [
					{ "time": 2.1667, "color": "ffffffff" },
					{ "time": 2.3333, "color": "ffffff00" }
				],
				"attachment": [
					{ "time": 0, "name": "light" }
				]
			},
			"mask": {
				"color": [
					{ "time": 2.1667, "color": "ffffff75" },
					{ "time": 2.3333, "color": "ffffff00" }
				]
			}
		},
		"bones": {
			"gate": {
				"rotate": [
					{ "time": 0, "angle": 1.64 },
					{ "time": 0.0333, "angle": 0 }
				],
				"translate": [
					{ "time": 0.3333, "x": 0, "y": 0 },
					{ "time": 0.5, "x": 0, "y": 46.69 }
				],
				"scale": [
					{ "time": 0, "x": 0.957, "y": 0.882 },
					{ "time": 0.1, "x": 1.1, "y": 1.1 },
					{ "time": 0.1667, "x": 1, "y": 1 }
				]
			},
			"side": {
				"translate": [
					{ "time": 0, "x": 0, "y": 0 },
					{ "time": 0.0333, "x": -11.58, "y": 0 },
					{ "time": 0.1, "x": -46.13, "y": 0 },
					{ "time": 0.1333, "x": -72.96, "y": 0 },
					{ "time": 0.1667, "x": -75.16, "y": 0 },
					{ "time": 0.2, "x": -146.75, "y": 0 },
					{ "time": 0.2333, "x": -144.9, "y": 0 }
				],
				"scale": [
					{ "time": 0, "x": 1, "y": 1 },
					{ "time": 0.1333, "x": 1.109, "y": 1 }
				]
			},
			"door": {
				"scale": [
					{ "time": 0, "x": 1, "y": 1 },
					{ "time": 0.1333, "x": 0.046, "y": 1 },
					{ "time": 0.1667, "x": -0.008, "y": 1 },
					{ "time": 0.2, "x": -1.035, "y": 1 },
					{ "time": 0.2333, "x": -0.959, "y": 1 }
				]
			},
			"door2": {
				"scale": [
					{ "time": 0, "x": 1, "y": 1 },
					{ "time": 0.1333, "x": 0.046, "y": 1 },
					{ "time": 0.1667, "x": -0.008, "y": 1 },
					{ "time": 0.2, "x": -1.035, "y": 1 },
					{ "time": 0.2333, "x": -0.959, "y": 1 }
				]
			},
			"gatelight": {
				"scale": [
					{ "time": 0.0667, "x": 1, "y": 1 },
					{ "time": 0.1667, "x": 1.102, "y": 1.102 }
				]
			},
			"side2": {
				"translate": [
					{ "time": 0, "x": 0, "y": 0 },
					{ "time": 0.0333, "x": 25.83, "y": 0 },
					{ "time": 0.1, "x": 59.54, "y": 0 },
					{ "time": 0.1333, "x": 85.93, "y": 0 },
					{ "time": 0.1667, "x": 87.66, "y": 0 },
					{ "time": 0.2, "x": 163.45, "y": 0 },
					{ "time": 0.2333, "x": 158.2, "y": 0 }
				],
				"scale": [
					{ "time": 0, "x": 1, "y": 1 },
					{ "time": 0.1333, "x": 1.109, "y": 1 }
				]
			},
			"light": {
				"rotate": [
					{ "time": 0, "angle": -51.36 },
					{ "time": 0.4667, "angle": -90 },
					{ "time": 2.3333, "angle": 103.57 }
				],
				"scale": [
					{ "time": 0, "x": 0, "y": 0 },
					{ "time": 0.1, "x": 0.287, "y": 0.142 },
					{ "time": 0.2, "x": 9.915, "y": 4.898 }
				]
			}
		}
	}
}
}