{
"skeleton": { "hash": "+vNJBCBf3asuX+VlhBk8H40LR08", "spine": "3.7.94", "width": 383, "height": 73 },
"bones": [
	{ "name": "root" },
	{ "name": "bar", "parent": "root" }
],
"slots": [
	{ "name": "jpbar", "bone": "bar", "attachment": "jpbar", "blend": "additive" }
],
"skins": {
	"default": {
		"jpbar": {
			"jpbar": { "x": 0.5, "y": 0.5, "width": 383, "height": 73 }
		}
	}
},
"animations": {
	"jp1": {
		"slots": {
			"jpbar": {
				"color": [
					{ "time": 0, "color": "ffffff00" },
					{ "time": 0.1667, "color": "ffffffff", "curve": "stepped" },
					{ "time": 0.5, "color": "ffffffff" },
					{ "time": 0.8333, "color": "ffffff00" }
				]
			}
		},
		"bones": {
			"bar": {
				"scale": [
					{ "time": 0, "x": 1, "y": 1 },
					{ "time": 0.8333, "x": 1.089, "y": 1.13 }
				]
			}
		}
	}
}
}