{
"skeleton": { "hash": "dYO93eF7MSmmAy6zuL2mO4zgXf8", "spine": "3.7.94", "width": 876.74, "height": 1014.67 },
"bones": [
	{ "name": "root" },
	{ "name": "reward", "parent": "root" },
	{ "name": "light", "parent": "reward" },
	{ "name": "t", "parent": "root", "x": -7.74, "y": 26.71 },
	{ "name": "2t", "parent": "t", "rotation": 3.48, "y": -87.99 },
	{ "name": "1t", "parent": "t", "y": 45.02 },
	{ "name": "tbg", "parent": "t", "y": -6.91 },
	{ "name": "tlight", "parent": "t", "rotation": -68.4, "x": 2, "y": 14.72 },
	{
		"name": "raibowl",
		"parent": "tlight",
		"rotation": 105.83,
		"x": -116.33,
		"y": -136.46,
		"scaleX": 2.762,
		"scaleY": 2.762
	},
	{ "name": "effects", "parent": "t", "x": 173.16, "y": 115.58 },
	{
		"name": "raibowl2",
		"parent": "tlight",
		"rotation": -54.92,
		"x": 164.5,
		"y": 120.62,
		"scaleX": 2.762,
		"scaleY": 2.762
	},
	{ "name": "2tl", "parent": "2t", "rotation": 1.08 }
],
"slots": [
	{ "name": "tbg", "bone": "tbg", "attachment": "light_000" },
	{ "name": "reward", "bone": "reward" },
	{ "name": "light", "bone": "light", "blend": "additive" },
	{ "name": "t", "bone": "1t", "attachment": "t" },
	{ "name": "2t", "bone": "2t" },
	{ "name": "2tl", "bone": "2tl", "blend": "additive" },
	{ "name": "Effects_Textures_838-1", "bone": "effects", "attachment": "Effects_Textures_838-1", "blend": "additive" },
	{ "name": "light_001", "bone": "tlight", "attachment": "light_001", "blend": "additive" },
	{ "name": "light_002", "bone": "raibowl", "attachment": "light_002", "blend": "additive" },
	{ "name": "light_2", "bone": "raibowl2", "attachment": "light_002", "blend": "additive" },
	{ "name": "star1", "bone": "root", "attachment": "star1" }
],
"skins": {
	"default": {
		"2t": {
			"2t": { "width": 414, "height": 142 },
			"2t2": { "path": "3t", "width": 381, "height": 128 },
			"2t3": { "path": "4t", "width": 357, "height": 134 },
			"2t4": { "path": "5t", "width": 439, "height": 140 },
			"2t5": { "path": "1t", "width": 392, "height": 142 }
		},
		"2tl": {
			"2t": { "width": 414, "height": 142 },
			"2t2": { "path": "3t", "width": 381, "height": 128 },
			"2t3": { "path": "4t", "width": 357, "height": 134 },
			"2t4": { "path": "5t", "width": 439, "height": 140 },
			"2t5": { "path": "1t", "width": 392, "height": 142 }
		},
		"Effects_Textures_838-1": {
			"Effects_Textures_838-1": { "rotation": 0.13, "width": 111, "height": 111 }
		},
		"light": {
			"1l": { "y": 0.5, "scaleX": 2, "scaleY": 2, "width": 119, "height": 95 },
			"2l": { "x": 0.5, "y": 0.5, "width": 159, "height": 191 },
			"3l": { "y": 0.5, "width": 170, "height": 188 },
			"4l": { "scaleX": 2, "scaleY": 2, "width": 48, "height": 150 },
			"5l": { "x": 0.5, "y": 0.5, "scaleX": 2, "scaleY": 2, "width": 79, "height": 123 }
		},
		"light_001": {
			"light_001": { "rotation": 0.13, "width": 501, "height": 456 }
		},
		"light_002": {
			"light_002": { "rotation": 0.13, "width": 128, "height": 128 }
		},
		"light_2": {
			"light_002": { "rotation": 0.13, "width": 128, "height": 128 }
		},
		"reward": {
			"1": { "width": 473, "height": 378 },
			"2": { "y": 0.5, "width": 260, "height": 325 },
			"3": { "x": 0.5, "y": 0.5, "width": 338, "height": 375 },
			"4": { "y": 0.5, "width": 140, "height": 553 },
			"5": { "width": 266, "height": 440 }
		},
		"star1": {
			"star1": { "x": 425.38, "y": -628.07, "rotation": 0.13, "width": 56, "height": 56 }
		},
		"t": {
			"t": { "x": 0.5, "y": 0.5, "width": 355, "height": 189 }
		},
		"tbg": {
			"light_000": { "rotation": 0.13, "width": 489, "height": 307 }
		}
	}
},
"animations": {
	"1": {
		"slots": {
			"2t": {
				"color": [
					{ "time": 0, "color": "ffffff00", "curve": "stepped" },
					{ "time": 0.1667, "color": "ffffff00" },
					{ "time": 0.5, "color": "ffffffff" }
				],
				"attachment": [
					{ "time": 0, "name": "2t5" }
				]
			},
			"2tl": {
				"color": [
					{ "time": 1.4333, "color": "ff3b0000" },
					{ "time": 1.8333, "color": "ffcb85ff" },
					{ "time": 2.3333, "color": "ff3b0000" }
				],
				"attachment": [
					{ "time": 1.4333, "name": "2t5" }
				]
			},
			"Effects_Textures_838-1": {
				"color": [
					{ "time": 0, "color": "ffffff00", "curve": "stepped" },
					{ "time": 0.6667, "color": "ffffff00" },
					{ "time": 0.9, "color": "ffffffff" },
					{ "time": 1.1667, "color": "ffffff00" }
				]
			},
			"light": {
				"color": [
					{ "time": 1.3333, "color": "ffffff00" },
					{ "time": 1.6667, "color": "ffffffff" },
					{ "time": 2.3333, "color": "ffffff00" }
				],
				"attachment": [
					{ "time": 1.3333, "name": "1l" }
				]
			},
			"light_001": {
				"color": [
					{ "time": 0, "color": "ffffff00", "curve": "stepped" },
					{ "time": 0.1667, "color": "ffffff00" },
					{ "time": 0.3333, "color": "ffffffdb" },
					{ "time": 0.6667, "color": "ffffff00" }
				]
			},
			"light_002": {
				"color": [
					{ "time": 0, "color": "ffffff00", "curve": "stepped" },
					{ "time": 0.1667, "color": "ffffff00" },
					{ "time": 0.3333, "color": "ffffffcd" },
					{ "time": 0.5, "color": "ffffff62" },
					{ "time": 0.6667, "color": "ffffff00" }
				]
			},
			"light_2": {
				"color": [
					{ "time": 0, "color": "ffffff00", "curve": "stepped" },
					{ "time": 0.1667, "color": "ffffff00" },
					{ "time": 0.3333, "color": "ffffffa0" },
					{ "time": 0.5, "color": "ffffff62" },
					{ "time": 0.6667, "color": "ffffff00" }
				]
			},
			"reward": {
				"attachment": [
					{ "time": 1.1667, "name": "1" }
				]
			},
			"t": {
				"color": [
					{ "time": 0, "color": "ffffff00", "curve": "stepped" },
					{ "time": 0.1667, "color": "ffffff00" },
					{ "time": 0.3333, "color": "ffffffff", "curve": "stepped" },
					{ "time": 1.1667, "color": "ffffffff" },
					{ "time": 1.5, "color": "ffffff00" }
				]
			},
			"tbg": {
				"color": [
					{ "time": 0, "color": "ffffff00", "curve": "stepped" },
					{ "time": 0.1667, "color": "ffffff00" },
					{ "time": 0.3333, "color": "ffffffff", "curve": "stepped" },
					{ "time": 0.6667, "color": "ffffffff" },
					{ "time": 1, "color": "ffffff00" }
				]
			}
		},
		"bones": {
			"reward": {
				"translate": [
					{ "time": 1.1667, "x": -17.84, "y": -28.92 },
					{ "time": 1.6333, "x": -17.84, "y": 1.15 }
				],
				"scale": [
					{ "time": 1.1667, "x": 0.682, "y": 0.682 },
					{ "time": 1.3, "x": 1, "y": 1 }
				]
			},
			"light": {
				"scale": [
					{ "time": 1.3333, "x": 2, "y": 2 }
				]
			},
			"t": {
				"rotate": [
					{ "time": 0.1667, "angle": 38.19 },
					{ "time": 0.4333, "angle": -19.4 },
					{ "time": 0.6667, "angle": 11.55 },
					{ "time": 0.8333, "angle": -8.15 },
					{ "time": 1, "angle": -2.42 }
				],
				"translate": [
					{ "time": 0.1667, "x": -12.66, "y": -37.98 },
					{ "time": 0.4333, "x": -2.53, "y": -10.13 },
					{ "time": 0.6667, "x": -2.53, "y": -20.26 }
				],
				"scale": [
					{ "time": 0.1667, "x": 0.261, "y": 0.261 },
					{ "time": 0.4333, "x": 1.865, "y": 1.865 },
					{ "time": 0.6667, "x": 1.38, "y": 1.38 }
				]
			},
			"tbg": {
				"rotate": [
					{ "time": 0.1667, "angle": 55.17 },
					{ "time": 0.3333, "angle": -41.47 },
					{ "time": 0.6667, "angle": -119.77 },
					{ "time": 1.3333, "angle": 167.72 }
				]
			},
			"raibowl": {
				"rotate": [
					{ "time": 0.3333, "angle": 40.15 },
					{ "time": 0.6667, "angle": 27.28 }
				],
				"translate": [
					{ "time": 0.3333, "x": -13.1, "y": -153.37 },
					{ "time": 0.6667, "x": -1.24, "y": -16.23 }
				]
			},
			"2t": {
				"translate": [
					{ "time": 1.1667, "x": 0, "y": 0 },
					{ "time": 1.6, "x": -10.4, "y": 246.08 },
					{ "time": 1.8333, "x": -10.59, "y": 250.43 }
				],
				"scale": [
					{ "time": 0.1667, "x": 1, "y": 1 },
					{ "time": 0.5, "x": 1.213, "y": 1.213 },
					{ "time": 0.8333, "x": 0.726, "y": 0.726 },
					{ "time": 1, "x": 0.825, "y": 0.825 }
				]
			},
			"1t": {
				"scale": [
					{ "time": 0.1667, "x": 1.338, "y": 1.338 },
					{ "time": 0.3333, "x": 1.567, "y": 1.567 },
					{ "time": 0.5, "x": 1.153, "y": 1.153 },
					{ "time": 0.6667, "x": 0.814, "y": 0.814 },
					{ "time": 0.8333, "x": 0.94, "y": 0.94 }
				]
			},
			"effects": {
				"rotate": [
					{ "time": 0.6667, "angle": 0 },
					{ "time": 1.1667, "angle": -71.39 }
				],
				"translate": [
					{ "time": 0.6667, "x": -40.3, "y": -10.09 },
					{ "time": 0.9, "x": -12.47, "y": -1.51 }
				]
			},
			"tlight": {
				"rotate": [
					{ "time": 0.1667, "angle": 7.03 },
					{ "time": 0.6667, "angle": -75.14 }
				]
			},
			"raibowl2": {
				"rotate": [
					{ "time": 0.3333, "angle": 19.87 },
					{ "time": 0.6667, "angle": 27.28 }
				],
				"translate": [
					{ "time": 0.3333, "x": -33.29, "y": 68.9 },
					{ "time": 0.6667, "x": -1.24, "y": -16.23 }
				]
			},
			"2tl": {
				"scale": [
					{ "time": 1.4333, "x": 0.885, "y": 0.885 },
					{ "time": 1.8333, "x": 1.017, "y": 1.017 },
					{ "time": 2.3333, "x": 1.053, "y": 1.053 }
				]
			}
		},
		"drawOrder": [
			{
				"time": 0.3333,
				"offsets": [
					{ "slot": "t", "offset": 1 }
				]
			},
			{ "time": 0.5 }
		]
	},
	"2": {
		"slots": {
			"2t": {
				"color": [
					{ "time": 0, "color": "ffffff00", "curve": "stepped" },
					{ "time": 0.1667, "color": "ffffff00" },
					{ "time": 0.5, "color": "ffffffff" }
				],
				"attachment": [
					{ "time": 0, "name": "2t" }
				]
			},
			"2tl": {
				"color": [
					{ "time": 1.4333, "color": "ff3b0000" },
					{ "time": 1.8333, "color": "ffcb85ff" },
					{ "time": 2.3333, "color": "ff3b0000" }
				],
				"attachment": [
					{ "time": 1.4333, "name": "2t" }
				]
			},
			"Effects_Textures_838-1": {
				"color": [
					{ "time": 0, "color": "ffffff00", "curve": "stepped" },
					{ "time": 0.6667, "color": "ffffff00" },
					{ "time": 0.9, "color": "ffffffff" },
					{ "time": 1.1667, "color": "ffffff00" }
				]
			},
			"light": {
				"color": [
					{ "time": 1.3333, "color": "ffffff00" },
					{ "time": 1.6667, "color": "ffffffff" },
					{ "time": 2.3333, "color": "ffffff00" }
				],
				"attachment": [
					{ "time": 1.3333, "name": "2l" }
				]
			},
			"light_001": {
				"color": [
					{ "time": 0, "color": "ffffff00", "curve": "stepped" },
					{ "time": 0.1667, "color": "ffffff00" },
					{ "time": 0.3333, "color": "ffffffdb" },
					{ "time": 0.6667, "color": "ffffff00" }
				]
			},
			"light_002": {
				"color": [
					{ "time": 0, "color": "ffffff00", "curve": "stepped" },
					{ "time": 0.1667, "color": "ffffff00" },
					{ "time": 0.3333, "color": "ffffffcd" },
					{ "time": 0.5, "color": "ffffff62" },
					{ "time": 0.6667, "color": "ffffff00" }
				]
			},
			"light_2": {
				"color": [
					{ "time": 0, "color": "ffffff00", "curve": "stepped" },
					{ "time": 0.1667, "color": "ffffff00" },
					{ "time": 0.3333, "color": "ffffffa0" },
					{ "time": 0.5, "color": "ffffff62" },
					{ "time": 0.6667, "color": "ffffff00" }
				]
			},
			"reward": {
				"attachment": [
					{ "time": 1.1667, "name": "2" }
				]
			},
			"t": {
				"color": [
					{ "time": 0, "color": "ffffff00", "curve": "stepped" },
					{ "time": 0.1667, "color": "ffffff00" },
					{ "time": 0.3333, "color": "ffffffff", "curve": "stepped" },
					{ "time": 1.1667, "color": "ffffffff" },
					{ "time": 1.5, "color": "ffffff00" }
				]
			},
			"tbg": {
				"color": [
					{ "time": 0, "color": "ffffff00", "curve": "stepped" },
					{ "time": 0.1667, "color": "ffffff00" },
					{ "time": 0.3333, "color": "ffffffff", "curve": "stepped" },
					{ "time": 0.6667, "color": "ffffffff" },
					{ "time": 1, "color": "ffffff00" }
				]
			}
		},
		"bones": {
			"reward": {
				"translate": [
					{ "time": 1.1667, "x": -17.84, "y": -28.92 },
					{ "time": 1.6333, "x": -17.84, "y": 1.15 }
				],
				"scale": [
					{ "time": 1.1667, "x": 0.682, "y": 0.682 },
					{ "time": 1.3, "x": 1, "y": 1 }
				]
			},
			"light": {
				"scale": [
					{ "time": 1.3333, "x": 2, "y": 2 }
				]
			},
			"t": {
				"rotate": [
					{ "time": 0.1667, "angle": 38.19 },
					{ "time": 0.4333, "angle": -19.4 },
					{ "time": 0.6667, "angle": 11.55 },
					{ "time": 0.8333, "angle": -8.15 },
					{ "time": 1, "angle": -2.42 }
				],
				"translate": [
					{ "time": 0.1667, "x": -12.66, "y": -37.98 },
					{ "time": 0.4333, "x": -2.53, "y": -10.13 },
					{ "time": 0.6667, "x": -2.53, "y": -20.26 }
				],
				"scale": [
					{ "time": 0.1667, "x": 0.261, "y": 0.261 },
					{ "time": 0.4333, "x": 1.865, "y": 1.865 },
					{ "time": 0.6667, "x": 1.38, "y": 1.38 }
				]
			},
			"tbg": {
				"rotate": [
					{ "time": 0.1667, "angle": 55.17 },
					{ "time": 0.3333, "angle": -41.47 },
					{ "time": 0.6667, "angle": -119.77 },
					{ "time": 1.3333, "angle": 167.72 }
				]
			},
			"raibowl": {
				"rotate": [
					{ "time": 0.3333, "angle": 40.15 },
					{ "time": 0.6667, "angle": 27.28 }
				],
				"translate": [
					{ "time": 0.3333, "x": -13.1, "y": -153.37 },
					{ "time": 0.6667, "x": -1.24, "y": -16.23 }
				]
			},
			"2t": {
				"translate": [
					{ "time": 1.1667, "x": 0, "y": 0 },
					{ "time": 1.6, "x": -10.4, "y": 246.08 },
					{ "time": 1.8333, "x": -10.59, "y": 250.43 }
				],
				"scale": [
					{ "time": 0.1667, "x": 1, "y": 1 },
					{ "time": 0.5, "x": 1.213, "y": 1.213 },
					{ "time": 0.8333, "x": 0.726, "y": 0.726 },
					{ "time": 1, "x": 0.825, "y": 0.825 }
				]
			},
			"1t": {
				"scale": [
					{ "time": 0.1667, "x": 1.338, "y": 1.338 },
					{ "time": 0.3333, "x": 1.567, "y": 1.567 },
					{ "time": 0.5, "x": 1.153, "y": 1.153 },
					{ "time": 0.6667, "x": 0.814, "y": 0.814 },
					{ "time": 0.8333, "x": 0.94, "y": 0.94 }
				]
			},
			"effects": {
				"rotate": [
					{ "time": 0.6667, "angle": 0 },
					{ "time": 1.1667, "angle": -71.39 }
				],
				"translate": [
					{ "time": 0.6667, "x": -40.3, "y": -10.09 },
					{ "time": 0.9, "x": -12.47, "y": -1.51 }
				]
			},
			"tlight": {
				"rotate": [
					{ "time": 0.1667, "angle": 7.03 },
					{ "time": 0.6667, "angle": -75.14 }
				]
			},
			"raibowl2": {
				"rotate": [
					{ "time": 0.3333, "angle": 19.87 },
					{ "time": 0.6667, "angle": 27.28 }
				],
				"translate": [
					{ "time": 0.3333, "x": -33.29, "y": 68.9 },
					{ "time": 0.6667, "x": -1.24, "y": -16.23 }
				]
			},
			"2tl": {
				"scale": [
					{ "time": 1.4333, "x": 0.885, "y": 0.885 },
					{ "time": 1.8333, "x": 1.017, "y": 1.017 },
					{ "time": 2.3333, "x": 1.053, "y": 1.053 }
				]
			}
		},
		"drawOrder": [
			{
				"time": 0.3333,
				"offsets": [
					{ "slot": "t", "offset": 1 }
				]
			},
			{ "time": 0.5 }
		]
	},
	"3": {
		"slots": {
			"2t": {
				"color": [
					{ "time": 0, "color": "ffffff00", "curve": "stepped" },
					{ "time": 0.1667, "color": "ffffff00" },
					{ "time": 0.5, "color": "ffffffff" }
				],
				"attachment": [
					{ "time": 0, "name": "2t2" }
				]
			},
			"2tl": {
				"color": [
					{ "time": 1.4333, "color": "ff3b0000" },
					{ "time": 1.8333, "color": "ffcb85ff" },
					{ "time": 2.3333, "color": "ff3b0000" }
				],
				"attachment": [
					{ "time": 1.4333, "name": "2t2" }
				]
			},
			"Effects_Textures_838-1": {
				"color": [
					{ "time": 0, "color": "ffffff00", "curve": "stepped" },
					{ "time": 0.6667, "color": "ffffff00" },
					{ "time": 0.9, "color": "ffffffff" },
					{ "time": 1.1667, "color": "ffffff00" }
				]
			},
			"light": {
				"color": [
					{ "time": 1.3333, "color": "ffffff00" },
					{ "time": 1.6667, "color": "ffffffff" },
					{ "time": 2.3333, "color": "ffffff00" }
				],
				"attachment": [
					{ "time": 1.3333, "name": "3l" }
				]
			},
			"light_001": {
				"color": [
					{ "time": 0, "color": "ffffff00", "curve": "stepped" },
					{ "time": 0.1667, "color": "ffffff00" },
					{ "time": 0.3333, "color": "ffffffdb" },
					{ "time": 0.6667, "color": "ffffff00" }
				]
			},
			"light_002": {
				"color": [
					{ "time": 0, "color": "ffffff00", "curve": "stepped" },
					{ "time": 0.1667, "color": "ffffff00" },
					{ "time": 0.3333, "color": "ffffffcd" },
					{ "time": 0.5, "color": "ffffff62" },
					{ "time": 0.6667, "color": "ffffff00" }
				]
			},
			"light_2": {
				"color": [
					{ "time": 0, "color": "ffffff00", "curve": "stepped" },
					{ "time": 0.1667, "color": "ffffff00" },
					{ "time": 0.3333, "color": "ffffffa0" },
					{ "time": 0.5, "color": "ffffff62" },
					{ "time": 0.6667, "color": "ffffff00" }
				]
			},
			"reward": {
				"attachment": [
					{ "time": 1.1667, "name": "3" }
				]
			},
			"t": {
				"color": [
					{ "time": 0, "color": "ffffff00", "curve": "stepped" },
					{ "time": 0.1667, "color": "ffffff00" },
					{ "time": 0.3333, "color": "ffffffff", "curve": "stepped" },
					{ "time": 1.1667, "color": "ffffffff" },
					{ "time": 1.5, "color": "ffffff00" }
				]
			},
			"tbg": {
				"color": [
					{ "time": 0, "color": "ffffff00", "curve": "stepped" },
					{ "time": 0.1667, "color": "ffffff00" },
					{ "time": 0.3333, "color": "ffffffff", "curve": "stepped" },
					{ "time": 0.6667, "color": "ffffffff" },
					{ "time": 1, "color": "ffffff00" }
				]
			}
		},
		"bones": {
			"reward": {
				"translate": [
					{ "time": 1.1667, "x": -17.84, "y": -28.92 },
					{ "time": 1.6333, "x": -17.84, "y": 1.15 }
				],
				"scale": [
					{ "time": 1.1667, "x": 0.682, "y": 0.682 },
					{ "time": 1.3, "x": 1, "y": 1 }
				]
			},
			"light": {
				"scale": [
					{ "time": 1.3333, "x": 2, "y": 2 }
				]
			},
			"t": {
				"rotate": [
					{ "time": 0.1667, "angle": 38.19 },
					{ "time": 0.4333, "angle": -19.4 },
					{ "time": 0.6667, "angle": 11.55 },
					{ "time": 0.8333, "angle": -8.15 },
					{ "time": 1, "angle": -2.42 }
				],
				"translate": [
					{ "time": 0.1667, "x": -12.66, "y": -37.98 },
					{ "time": 0.4333, "x": -2.53, "y": -10.13 },
					{ "time": 0.6667, "x": -2.53, "y": -20.26 }
				],
				"scale": [
					{ "time": 0.1667, "x": 0.261, "y": 0.261 },
					{ "time": 0.4333, "x": 1.865, "y": 1.865 },
					{ "time": 0.6667, "x": 1.38, "y": 1.38 }
				]
			},
			"tbg": {
				"rotate": [
					{ "time": 0.1667, "angle": 55.17 },
					{ "time": 0.3333, "angle": -41.47 },
					{ "time": 0.6667, "angle": -119.77 },
					{ "time": 1.3333, "angle": 167.72 }
				]
			},
			"raibowl": {
				"rotate": [
					{ "time": 0.3333, "angle": 40.15 },
					{ "time": 0.6667, "angle": 27.28 }
				],
				"translate": [
					{ "time": 0.3333, "x": -13.1, "y": -153.37 },
					{ "time": 0.6667, "x": -1.24, "y": -16.23 }
				]
			},
			"2t": {
				"translate": [
					{ "time": 1.1667, "x": 0, "y": 0 },
					{ "time": 1.6, "x": -10.4, "y": 246.08 },
					{ "time": 1.8333, "x": -10.59, "y": 250.43 }
				],
				"scale": [
					{ "time": 0.1667, "x": 1, "y": 1 },
					{ "time": 0.5, "x": 1.213, "y": 1.213 },
					{ "time": 0.8333, "x": 0.726, "y": 0.726 },
					{ "time": 1, "x": 0.825, "y": 0.825 }
				]
			},
			"1t": {
				"scale": [
					{ "time": 0.1667, "x": 1.338, "y": 1.338 },
					{ "time": 0.3333, "x": 1.567, "y": 1.567 },
					{ "time": 0.5, "x": 1.153, "y": 1.153 },
					{ "time": 0.6667, "x": 0.814, "y": 0.814 },
					{ "time": 0.8333, "x": 0.94, "y": 0.94 }
				]
			},
			"effects": {
				"rotate": [
					{ "time": 0.6667, "angle": 0 },
					{ "time": 1.1667, "angle": -71.39 }
				],
				"translate": [
					{ "time": 0.6667, "x": -40.3, "y": -10.09 },
					{ "time": 0.9, "x": -12.47, "y": -1.51 }
				]
			},
			"tlight": {
				"rotate": [
					{ "time": 0.1667, "angle": 7.03 },
					{ "time": 0.6667, "angle": -75.14 }
				]
			},
			"raibowl2": {
				"rotate": [
					{ "time": 0.3333, "angle": 19.87 },
					{ "time": 0.6667, "angle": 27.28 }
				],
				"translate": [
					{ "time": 0.3333, "x": -33.29, "y": 68.9 },
					{ "time": 0.6667, "x": -1.24, "y": -16.23 }
				]
			},
			"2tl": {
				"rotate": [
					{ "time": 0, "angle": 2.73 }
				],
				"scale": [
					{ "time": 1.4333, "x": 0.885, "y": 0.885 },
					{ "time": 1.8333, "x": 1.017, "y": 1.017 },
					{ "time": 2.3333, "x": 1.053, "y": 1.053 }
				]
			}
		},
		"drawOrder": [
			{
				"time": 0.3333,
				"offsets": [
					{ "slot": "t", "offset": 1 }
				]
			},
			{ "time": 0.5 }
		]
	},
	"4": {
		"slots": {
			"2t": {
				"color": [
					{ "time": 0, "color": "ffffff00", "curve": "stepped" },
					{ "time": 0.1667, "color": "ffffff00" },
					{ "time": 0.5, "color": "ffffffff" }
				],
				"attachment": [
					{ "time": 0, "name": "2t3" }
				]
			},
			"2tl": {
				"color": [
					{ "time": 1.4333, "color": "ff3b0000" },
					{ "time": 1.8333, "color": "ffcb85ff" },
					{ "time": 2.3333, "color": "ff3b0000" }
				],
				"attachment": [
					{ "time": 1.4333, "name": "2t3" }
				]
			},
			"Effects_Textures_838-1": {
				"color": [
					{ "time": 0, "color": "ffffff00", "curve": "stepped" },
					{ "time": 0.6667, "color": "ffffff00" },
					{ "time": 0.9, "color": "ffffffff" },
					{ "time": 1.1667, "color": "ffffff00" }
				]
			},
			"light": {
				"color": [
					{ "time": 1.3333, "color": "ffffff00" },
					{ "time": 1.6667, "color": "ffffffff" },
					{ "time": 2.3333, "color": "ffffff00" }
				],
				"attachment": [
					{ "time": 1.3333, "name": "4l" }
				]
			},
			"light_001": {
				"color": [
					{ "time": 0, "color": "ffffff00", "curve": "stepped" },
					{ "time": 0.1667, "color": "ffffff00" },
					{ "time": 0.3333, "color": "ffffffdb" },
					{ "time": 0.6667, "color": "ffffff00" }
				]
			},
			"light_002": {
				"color": [
					{ "time": 0, "color": "ffffff00", "curve": "stepped" },
					{ "time": 0.1667, "color": "ffffff00" },
					{ "time": 0.3333, "color": "ffffffcd" },
					{ "time": 0.5, "color": "ffffff62" },
					{ "time": 0.6667, "color": "ffffff00" }
				]
			},
			"light_2": {
				"color": [
					{ "time": 0, "color": "ffffff00", "curve": "stepped" },
					{ "time": 0.1667, "color": "ffffff00" },
					{ "time": 0.3333, "color": "ffffffa0" },
					{ "time": 0.5, "color": "ffffff62" },
					{ "time": 0.6667, "color": "ffffff00" }
				]
			},
			"reward": {
				"attachment": [
					{ "time": 1.1667, "name": "4" }
				]
			},
			"t": {
				"color": [
					{ "time": 0, "color": "ffffff00", "curve": "stepped" },
					{ "time": 0.1667, "color": "ffffff00" },
					{ "time": 0.3333, "color": "ffffffff", "curve": "stepped" },
					{ "time": 1.1667, "color": "ffffffff" },
					{ "time": 1.5, "color": "ffffff00" }
				]
			},
			"tbg": {
				"color": [
					{ "time": 0, "color": "ffffff00", "curve": "stepped" },
					{ "time": 0.1667, "color": "ffffff00" },
					{ "time": 0.3333, "color": "ffffffff", "curve": "stepped" },
					{ "time": 0.6667, "color": "ffffffff" },
					{ "time": 1, "color": "ffffff00" }
				]
			}
		},
		"bones": {
			"reward": {
				"rotate": [
					{ "time": 1.1667, "angle": -47.05 },
					{ "time": 1.6667, "angle": -56.26 }
				],
				"translate": [
					{ "time": 1.1667, "x": -17.84, "y": -28.92 },
					{ "time": 1.6667, "x": -17.84, "y": 1.15 }
				],
				"scale": [
					{ "time": 1.1667, "x": 0.682, "y": 0.682 },
					{ "time": 1.3, "x": 1, "y": 1 }
				]
			},
			"light": {
				"scale": [
					{ "time": 1.3333, "x": 2, "y": 2 }
				]
			},
			"t": {
				"rotate": [
					{ "time": 0.1667, "angle": 38.19 },
					{ "time": 0.4333, "angle": -19.4 },
					{ "time": 0.6667, "angle": 11.55 },
					{ "time": 0.8333, "angle": -8.15 },
					{ "time": 1, "angle": -2.42 }
				],
				"translate": [
					{ "time": 0.1667, "x": -12.66, "y": -37.98 },
					{ "time": 0.4333, "x": -2.53, "y": -10.13 },
					{ "time": 0.6667, "x": -2.53, "y": -20.26 }
				],
				"scale": [
					{ "time": 0.1667, "x": 0.261, "y": 0.261 },
					{ "time": 0.4333, "x": 1.865, "y": 1.865 },
					{ "time": 0.6667, "x": 1.38, "y": 1.38 }
				]
			},
			"tbg": {
				"rotate": [
					{ "time": 0.1667, "angle": 55.17 },
					{ "time": 0.3333, "angle": -41.47 },
					{ "time": 0.6667, "angle": -119.77 },
					{ "time": 1.3333, "angle": 167.72 }
				]
			},
			"raibowl": {
				"rotate": [
					{ "time": 0.3333, "angle": 40.15 },
					{ "time": 0.6667, "angle": 27.28 }
				],
				"translate": [
					{ "time": 0.3333, "x": -13.1, "y": -153.37 },
					{ "time": 0.6667, "x": -1.24, "y": -16.23 }
				]
			},
			"2t": {
				"translate": [
					{ "time": 1.1667, "x": 0, "y": 0 },
					{ "time": 1.6, "x": -10.4, "y": 246.08 },
					{ "time": 1.8333, "x": -10.59, "y": 250.43 }
				],
				"scale": [
					{ "time": 0.1667, "x": 1, "y": 1 },
					{ "time": 0.5, "x": 1.213, "y": 1.213 },
					{ "time": 0.8333, "x": 0.726, "y": 0.726 },
					{ "time": 1, "x": 0.825, "y": 0.825 }
				]
			},
			"1t": {
				"scale": [
					{ "time": 0.1667, "x": 1.338, "y": 1.338 },
					{ "time": 0.3333, "x": 1.567, "y": 1.567 },
					{ "time": 0.5, "x": 1.153, "y": 1.153 },
					{ "time": 0.6667, "x": 0.814, "y": 0.814 },
					{ "time": 0.8333, "x": 0.94, "y": 0.94 }
				]
			},
			"effects": {
				"rotate": [
					{ "time": 0.6667, "angle": 0 },
					{ "time": 1.1667, "angle": -71.39 }
				],
				"translate": [
					{ "time": 0.6667, "x": -40.3, "y": -10.09 },
					{ "time": 0.9, "x": -12.47, "y": -1.51 }
				]
			},
			"tlight": {
				"rotate": [
					{ "time": 0.1667, "angle": 7.03 },
					{ "time": 0.6667, "angle": -75.14 }
				]
			},
			"raibowl2": {
				"rotate": [
					{ "time": 0.3333, "angle": 19.87 },
					{ "time": 0.6667, "angle": 27.28 }
				],
				"translate": [
					{ "time": 0.3333, "x": -33.29, "y": 68.9 },
					{ "time": 0.6667, "x": -1.24, "y": -16.23 }
				]
			},
			"2tl": {
				"scale": [
					{ "time": 1.4333, "x": 0.885, "y": 0.885 },
					{ "time": 1.8333, "x": 1.017, "y": 1.017 },
					{ "time": 2.3333, "x": 1.053, "y": 1.053 }
				]
			}
		},
		"drawOrder": [
			{
				"time": 0.3333,
				"offsets": [
					{ "slot": "t", "offset": 1 }
				]
			},
			{ "time": 0.5 }
		]
	},
	"5": {
		"slots": {
			"2t": {
				"color": [
					{ "time": 0, "color": "ffffff00", "curve": "stepped" },
					{ "time": 0.1667, "color": "ffffff00" },
					{ "time": 0.5, "color": "ffffffff" }
				],
				"attachment": [
					{ "time": 0, "name": "2t4" }
				]
			},
			"2tl": {
				"color": [
					{ "time": 1.4333, "color": "ff3b0000" },
					{ "time": 1.8333, "color": "ffcb85ff" },
					{ "time": 2.3333, "color": "ff3b0000" }
				],
				"attachment": [
					{ "time": 1.4333, "name": "2t4" }
				]
			},
			"Effects_Textures_838-1": {
				"color": [
					{ "time": 0, "color": "ffffff00", "curve": "stepped" },
					{ "time": 0.6667, "color": "ffffff00" },
					{ "time": 0.9, "color": "ffffffff" },
					{ "time": 1.1667, "color": "ffffff00" }
				]
			},
			"light": {
				"color": [
					{ "time": 1.3333, "color": "ffffff00" },
					{ "time": 1.6667, "color": "ffffffff" },
					{ "time": 2.3333, "color": "ffffff00" }
				],
				"attachment": [
					{ "time": 1.3333, "name": "5l" }
				]
			},
			"light_001": {
				"color": [
					{ "time": 0, "color": "ffffff00", "curve": "stepped" },
					{ "time": 0.1667, "color": "ffffff00" },
					{ "time": 0.3333, "color": "ffffffdb" },
					{ "time": 0.6667, "color": "ffffff00" }
				]
			},
			"light_002": {
				"color": [
					{ "time": 0, "color": "ffffff00", "curve": "stepped" },
					{ "time": 0.1667, "color": "ffffff00" },
					{ "time": 0.3333, "color": "ffffffcd" },
					{ "time": 0.5, "color": "ffffff62" },
					{ "time": 0.6667, "color": "ffffff00" }
				]
			},
			"light_2": {
				"color": [
					{ "time": 0, "color": "ffffff00", "curve": "stepped" },
					{ "time": 0.1667, "color": "ffffff00" },
					{ "time": 0.3333, "color": "ffffffa0" },
					{ "time": 0.5, "color": "ffffff62" },
					{ "time": 0.6667, "color": "ffffff00" }
				]
			},
			"reward": {
				"attachment": [
					{ "time": 1.1667, "name": "5" }
				]
			},
			"t": {
				"color": [
					{ "time": 0, "color": "ffffff00", "curve": "stepped" },
					{ "time": 0.1667, "color": "ffffff00" },
					{ "time": 0.3333, "color": "ffffffff", "curve": "stepped" },
					{ "time": 1.1667, "color": "ffffffff" },
					{ "time": 1.5, "color": "ffffff00" }
				]
			},
			"tbg": {
				"color": [
					{ "time": 0, "color": "ffffff00", "curve": "stepped" },
					{ "time": 0.1667, "color": "ffffff00" },
					{ "time": 0.3333, "color": "ffffffff", "curve": "stepped" },
					{ "time": 0.6667, "color": "ffffffff" },
					{ "time": 1, "color": "ffffff00" }
				]
			}
		},
		"bones": {
			"reward": {
				"translate": [
					{ "time": 1.1667, "x": -17.84, "y": -28.92 },
					{ "time": 1.6667, "x": -17.84, "y": 1.15 }
				],
				"scale": [
					{ "time": 1.1667, "x": 0.682, "y": 0.682 },
					{ "time": 1.3, "x": 1, "y": 1 }
				]
			},
			"light": {
				"scale": [
					{ "time": 1.3333, "x": 2, "y": 2 }
				]
			},
			"t": {
				"rotate": [
					{ "time": 0.1667, "angle": 38.19 },
					{ "time": 0.4333, "angle": -19.4 },
					{ "time": 0.6667, "angle": 11.55 },
					{ "time": 0.8333, "angle": -8.15 },
					{ "time": 1, "angle": -2.42 }
				],
				"translate": [
					{ "time": 0.1667, "x": -12.66, "y": -37.98 },
					{ "time": 0.4333, "x": -2.53, "y": -10.13 },
					{ "time": 0.6667, "x": -2.53, "y": -20.26 }
				],
				"scale": [
					{ "time": 0.1667, "x": 0.261, "y": 0.261 },
					{ "time": 0.4333, "x": 1.865, "y": 1.865 },
					{ "time": 0.6667, "x": 1.38, "y": 1.38 }
				]
			},
			"tbg": {
				"rotate": [
					{ "time": 0.1667, "angle": 55.17 },
					{ "time": 0.3333, "angle": -41.47 },
					{ "time": 0.6667, "angle": -119.77 },
					{ "time": 1.3333, "angle": 167.72 }
				]
			},
			"raibowl": {
				"rotate": [
					{ "time": 0.3333, "angle": 40.15 },
					{ "time": 0.6667, "angle": 27.28 }
				],
				"translate": [
					{ "time": 0.3333, "x": -13.1, "y": -153.37 },
					{ "time": 0.6667, "x": -1.24, "y": -16.23 }
				]
			},
			"2t": {
				"translate": [
					{ "time": 1.1667, "x": 0, "y": 0 },
					{ "time": 1.6, "x": -10.4, "y": 246.08 },
					{ "time": 1.8333, "x": -10.59, "y": 250.43 }
				],
				"scale": [
					{ "time": 0.1667, "x": 1, "y": 1 },
					{ "time": 0.5, "x": 1.213, "y": 1.213 },
					{ "time": 0.8333, "x": 0.726, "y": 0.726 },
					{ "time": 1, "x": 0.825, "y": 0.825 }
				]
			},
			"1t": {
				"scale": [
					{ "time": 0.1667, "x": 1.338, "y": 1.338 },
					{ "time": 0.3333, "x": 1.567, "y": 1.567 },
					{ "time": 0.5, "x": 1.153, "y": 1.153 },
					{ "time": 0.6667, "x": 0.814, "y": 0.814 },
					{ "time": 0.8333, "x": 0.94, "y": 0.94 }
				]
			},
			"effects": {
				"rotate": [
					{ "time": 0.6667, "angle": 0 },
					{ "time": 1.1667, "angle": -71.39 }
				],
				"translate": [
					{ "time": 0.6667, "x": -40.3, "y": -10.09 },
					{ "time": 0.9, "x": -12.47, "y": -1.51 }
				]
			},
			"tlight": {
				"rotate": [
					{ "time": 0.1667, "angle": 7.03 },
					{ "time": 0.6667, "angle": -75.14 }
				]
			},
			"raibowl2": {
				"rotate": [
					{ "time": 0.3333, "angle": 19.87 },
					{ "time": 0.6667, "angle": 27.28 }
				],
				"translate": [
					{ "time": 0.3333, "x": -33.29, "y": 68.9 },
					{ "time": 0.6667, "x": -1.24, "y": -16.23 }
				]
			},
			"2tl": {
				"scale": [
					{ "time": 1.4333, "x": 0.885, "y": 0.885 },
					{ "time": 1.8333, "x": 1.017, "y": 1.017 },
					{ "time": 2.3333, "x": 1.053, "y": 1.053 }
				]
			}
		},
		"drawOrder": [
			{
				"time": 0.3333,
				"offsets": [
					{ "slot": "t", "offset": 1 }
				]
			},
			{ "time": 0.5 }
		]
	}
}
}