{
"skeleton": { "hash": "vK7Ff7DYKu1DZaX9CD4jJTiHMCw", "spine": "3.7.94", "width": 906.58, "height": 1065.43 },
"bones": [
	{ "name": "root" },
	{ "name": "character", "parent": "root", "length": 800, "rotation": 88.34, "x": 1347.08, "y": 507.63 },
	{ "name": "Rhand1", "parent": "character", "length": 250, "rotation": -13.82, "x": 531.82, "y": -140.98 },
	{ "name": "Rhand4", "parent": "Rhand1", "length": 100, "x": 257.55, "y": -3.09 },
	{ "name": "Rhand2", "parent": "Rhand1", "length": 226.99, "rotation": 139.02, "x": -13.29, "y": 10.09 },
	{ "name": "Rhand3", "parent": "Rhand2", "length": 152.09, "rotation": 37.86, "x": 226.99 },
	{ "name": "Rcloak", "parent": "character", "length": 199.67, "rotation": -129.05, "x": 418.87, "y": -154.22 },
	{ "name": "Rcloak2", "parent": "Rcloak", "length": 166.79, "rotation": -60.36, "x": 192.58, "y": -2.2 },
	{ "name": "Lcloak", "parent": "character", "length": 159.42, "rotation": 106.01, "x": 520.58, "y": 91.08 },
	{ "name": "Lcloak2", "parent": "Lcloak", "length": 225.64, "rotation": -6.68, "x": 161.82, "y": -0.85 },
	{ "name": "Lhand", "parent": "character", "length": 179.77, "rotation": 172.75, "x": 404.83, "y": 208.95 },
	{ "name": "Lhand2", "parent": "Lhand", "length": 93.84, "rotation": -21.85, "x": 98.74, "y": -22.42 },
	{ "name": "Lhand3", "parent": "Lhand2", "length": 207.86, "rotation": 19.04, "x": 93.84 },
	{ "name": "Rhand5", "parent": "Rhand1", "x": -156.16, "y": -32.96 },
	{ "name": "light", "parent": "Rhand4", "x": 89.87, "y": 300.3 }
],
"slots": [
	{ "name": "Rcloak", "bone": "Rcloak", "attachment": "Rcloak" },
	{ "name": "Lcloak", "bone": "Lcloak", "attachment": "Lcloak" },
	{ "name": "body", "bone": "character", "attachment": "body" },
	{ "name": "Lhand1", "bone": "Lhand", "attachment": "Lhand1" },
	{ "name": "Rhand1", "bone": "Rhand1", "attachment": "Rhand1" },
	{ "name": "Rhand2", "bone": "Rhand4", "attachment": "Rhand2" },
	{ "name": "cloak", "bone": "character", "attachment": "cloak" },
	{ "name": "light", "bone": "light", "blend": "additive" }
],
"skins": {
	"default": {
		"Lcloak": {
			"Lcloak": {
				"type": "mesh",
				"uvs": [ 0.43949, 0.12169, 0.36492, 0.08257, 0.20751, 1.0E-5, 0.2237, 0.35727, 0.13696, 0.59827, 0, 0.72431, 0.21106, 0.8926, 0.32144, 0.99999, 0.51562, 0.95918, 0.62615, 0.93261, 0.74678, 0.71941, 0.86168, 0.68582, 0.98153, 0.65079, 1, 0.42043, 0.73863, 0.17046, 0.55116, 0.18026, 0.66858, 0.50389 ],
				"triangles": [ 7, 0, 8, 15, 16, 0, 10, 8, 16, 7, 4, 3, 0, 16, 8, 1, 0, 7, 5, 4, 6, 6, 4, 7, 11, 16, 14, 16, 15, 14, 7, 3, 1, 3, 2, 1, 10, 9, 8, 10, 16, 11, 12, 11, 13, 14, 13, 11 ],
				"vertices": [ 1, 9, 119.79, -104.15, 1, 1, 9, 154.86, -112.71, 1, 1, 9, 228.87, -130.76, 1, 1, 9, 211.05, -23.37, 1, 2, 8, 409.83, 23.82, 0.00535, 9, 243.45, 53.37, 0.99465, 1, 9, 302.06, 97.54, 1, 2, 8, 377.78, 113.96, 0.0732, 9, 201.12, 139.17, 0.9268, 2, 8, 328, 147.62, 0.17681, 9, 147.77, 166.81, 0.82319, 2, 8, 239.03, 137, 0.46878, 9, 60.64, 145.91, 0.53122, 2, 8, 188.37, 129.95, 0.68516, 9, 11.14, 133.01, 0.31484, 2, 8, 131.94, 66.26, 0.98232, 9, -37.49, 63.18, 0.01768, 1, 8, 79.23, 57.12, 1, 1, 8, 24.26, 47.57, 1, 2, 8, 14.4, -22.27, 0.99837, 9, -143.92, -38.43, 0.00163, 2, 8, 132.29, -100.66, 0.16389, 9, -17.71, -102.56, 0.83611, 1, 9, 67.28, -91.34, 1, 1, 9, 4.39, 1.41, 1 ],
				"hull": 16
			}
		},
		"Lhand1": {
			"Lhand1": {
				"type": "mesh",
				"uvs": [ 0.59324, 0, 0.35817, 0.19197, 0.1251, 0.3823, 0.04756, 0.79115, 0, 0.88942, 0, 1, 0.26009, 1, 0.24573, 0.85784, 0.47836, 0.68762, 0.66738, 0.749, 0.76361, 0.84368, 0.95189, 0.8404, 0.98396, 0.6332, 0.82674, 0.57508, 0.77991, 0.55777, 0.76435, 0.45577, 0.74832, 0.35071, 0.88043, 0, 0.39654, 0.53508, 0.48007, 0.44544, 0.65298, 0.65083, 0.73038, 0.76335, 0.73982, 0.61537 ],
				"triangles": [ 7, 3, 18, 8, 7, 18, 4, 6, 5, 7, 4, 3, 6, 4, 7, 18, 2, 1, 3, 2, 18, 16, 0, 17, 1, 0, 16, 19, 1, 16, 19, 16, 15, 19, 18, 1, 15, 20, 19, 14, 20, 15, 22, 14, 13, 14, 22, 20, 8, 18, 19, 20, 8, 19, 21, 9, 20, 8, 20, 9, 22, 21, 20, 12, 21, 13, 13, 21, 22, 12, 11, 21, 11, 10, 21, 9, 21, 10 ],
				"vertices": [ 1, 10, -109.07, -7.42, 1, 2, 10, -8.78, -60.88, 0.84399, 11, -85.48, -75.72, 0.15601, 2, 10, 90.65, -113.89, 0.02173, 11, 26.54, -87.91, 0.97827, 1, 12, 101.61, -43.79, 1, 1, 12, 149.91, -47.8, 1, 1, 12, 201.13, -37.17, 1, 1, 12, 185.85, 36.42, 1, 2, 10, 307.47, -44.62, 2.3E-4, 12, 120.85, 18.69, 0.99977, 2, 10, 217.52, 9.33, 0.7557, 12, 28.36, 68.16, 0.2443, 2, 10, 237.74, 67.8, 0.99887, 12, 45.69, 127.55, 0.00113, 1, 10, 277.68, 102.21, 1, 1, 10, 267.72, 155.72, 1, 1, 10, 169.46, 149.7, 1, 1, 10, 149.34, 100.56, 1, 1, 10, 143.34, 85.92, 1, 1, 10, 96.38, 74, 1, 1, 10, 48, 61.73, 1, 1, 10, -121.8, 73.76, 1, 2, 10, 149.9, -25.2, 0.3464, 11, 48.51, 16.46, 0.6536, 2, 10, 104.26, -7.83, 0.73146, 11, -0.31, 15.59, 0.26854, 2, 10, 192.51, 56.5, 0.92966, 12, 1.06, 114.04, 0.07034, 2, 10, 241.62, 86.84, 0.99963, 12, 48.63, 146.75, 3.7E-4, 2, 10, 172.05, 78.69, 0.98221, 12, -20.46, 135.2, 0.01779 ],
				"hull": 18
			}
		},
		"Rcloak": {
			"Rcloak": {
				"type": "mesh",
				"uvs": [ 0.2666, 0, 0.24908, 0.04991, 0.16149, 0.2996, 0, 0.75993, 0.14263, 0.75034, 0.04621, 0.80979, 0.3699, 1, 0.58684, 1, 0.74868, 0.8443, 0.73835, 0.70048, 1, 0.59692, 1, 0.25366, 0.4732, 0, 0.23735, 0.67085, 0.85735, 0.48958, 0.85735, 0.29795, 0.51138, 0.59074 ],
				"triangles": [ 13, 3, 2, 1, 0, 12, 16, 2, 1, 9, 14, 10, 14, 11, 10, 14, 16, 15, 15, 16, 1, 14, 15, 11, 15, 1, 12, 15, 12, 11, 7, 6, 8, 5, 4, 6, 6, 4, 8, 4, 13, 8, 13, 16, 8, 16, 9, 8, 13, 4, 3, 13, 2, 16, 9, 16, 14 ],
				"vertices": [ 1, 1, 480.89, -162.96, 1, 1, 1, 460.17, -159.53, 1, 1, 1, 356.51, -142.37, 1, 1, 1, 165.4, -110.74, 1, 2, 7, 140.45, -53.99, 0.98331, 6, 198.99, -152.53, 0.01669, 2, 7, 173.23, -58.42, 0.99964, 6, 207.98, -184.37, 3.6E-4, 1, 7, 196.03, 47.38, 1, 1, 7, 167.85, 88.56, 1, 2, 7, 93.76, 82.97, 0.98405, 6, 306.03, -55.17, 0.01595, 2, 7, 46.08, 47.47, 0.69657, 6, 254.48, -25.57, 0.30343, 2, 7, -23.2, 72.98, 0.264, 6, 250.29, 48.14, 0.736, 1, 6, 130.27, 123.59, 1, 1, 6, -22.91, 76.76, 1, 2, 7, 101.05, -54.54, 0.50933, 6, 182.79, -116.62, 0.49067, 2, 7, -41.26, 20.87, 0.296, 6, 195.3, 43.96, 0.704, 1, 6, 128.29, 86.07, 1, 2, 7, 38.16, -21.21, 0.60513, 6, 188.32, -45.65, 0.39487 ],
				"hull": 13
			}
		},
		"Rhand1": {
			"Rhand1": {
				"type": "mesh",
				"uvs": [ 0.76834, 0, 0.62416, 0.09337, 0.54791, 0.15365, 0.52972, 0.3448, 0.45227, 0.49728, 0.2248, 0.63357, 0.08508, 0.71427, 0, 0.79695, 0, 0.94584, 0.05606, 0.99999, 0.14062, 1, 0.24425, 0.9559, 0.324, 0.86722, 0.41335, 0.82875, 0.57203, 0.80273, 0.75137, 0.6861, 0.86093, 0.59149, 1, 0.372, 0.99999, 0.12239, 1, 0.02857, 0.94509, 0.01487, 0.76237, 0.25682, 0.67271, 0.13434, 0.85622, 0.25, 0.90536, 0.20308, 0.67154, 0.20447, 0.7094, 0.08185, 0.76039, 0.16522, 0.84112, 0.17553, 0.92258, 0.12613 ],
				"triangles": [ 18, 20, 19, 29, 0, 20, 29, 20, 18, 29, 28, 0, 12, 5, 13, 6, 5, 12, 8, 7, 10, 6, 11, 7, 6, 12, 11, 10, 9, 8, 7, 11, 10, 16, 15, 3, 4, 3, 15, 14, 4, 15, 13, 5, 4, 14, 13, 4, 26, 1, 0, 27, 26, 0, 22, 1, 26, 0, 28, 27, 22, 26, 27, 24, 28, 29, 22, 2, 1, 25, 22, 27, 25, 2, 22, 23, 28, 24, 21, 27, 28, 21, 28, 23, 25, 27, 21, 3, 2, 25, 24, 29, 18, 17, 24, 18, 23, 24, 17, 16, 23, 17, 21, 23, 16, 21, 3, 25, 16, 3, 21 ],
				"vertices": [ 2, 2, 266.89, 30.57, 0.04, 3, 33.25, 35.6, 0.96, 1, 2, 198.22, 74.2, 1, 2, 2, 156.48, 96.05, 0.9962, 4, -71.79, -176.22, 0.0038, 2, 2, 50.1, 74.04, 0.64583, 4, -5.91, -89.84, 0.35417, 2, 2, -41.93, 81.97, 0.20344, 4, 68.76, -35.48, 0.79656, 2, 4, 182.96, -22.08, 0.816, 5, -48.32, 9.59, 0.184, 2, 4, 261.23, -18.66, 0.4991, 5, 15.58, -35.75, 0.5009, 2, 4, 329.1, -4.88, 0.056, 5, 77.63, -66.51, 0.944, 1, 5, 159.41, -41.39, 1, 1, 5, 179.71, -5.27, 1, 1, 5, 166.36, 34.4, 1, 2, 4, 278.7, 137.25, 4.0E-5, 5, 125.06, 76.64, 0.99996, 3, 4, 230.64, 109.87, 0.1211, 5, 70.3, 84.51, 0.7889, 13, -103.3, 111.36, 0.09, 3, 4, 186.79, 112.38, 0.32669, 5, 37.22, 113.41, 0.48331, 13, -71.84, 80.7, 0.19, 3, 4, 124.18, 136.49, 0.4389, 5, 2.59, 170.86, 0.1411, 13, -40.39, 21.45, 0.42, 4, 2, -112.38, -66.39, 0.03788, 4, 24.65, 122.72, 0.74033, 5, -84.45, 221.07, 0.00579, 13, 43.78, -33.43, 0.216, 2, 2, -48.21, -96.31, 0.256, 4, -43.42, 103.23, 0.744, 2, 2, 87.55, -118.96, 0.98782, 3, -146.09, -113.93, 0.01218, 2, 2, 227.51, -81, 0.62059, 3, -6.14, -75.96, 0.37941, 2, 2, 286.98, -65.96, 0.25088, 3, 53.33, -60.93, 0.74912, 2, 2, 276.58, -42.8, 1.8E-4, 3, 42.94, -37.77, 0.99982, 2, 2, 124.34, -6.37, 0.99772, 3, -109.31, -1.34, 0.00228, 2, 2, 178.29, 52.17, 0.99999, 4, -117.04, -157.4, 1.0E-5, 2, 2, 138.5, -43.05, 0.929, 3, -95.14, -38.01, 0.071, 2, 2, 169.51, -55.51, 0.76357, 3, -64.13, -50.47, 0.23643, 2, 2, 141.04, 40.41, 0.99669, 4, -96.62, -124.09, 0.00331, 2, 2, 212.29, 43.88, 0.63, 3, -21.36, 48.92, 0.37, 1, 2, 173.26, 9.56, 1, 2, 2, 177.06, -25.01, 0.86403, 3, -56.59, -19.98, 0.13597, 2, 2, 213.5, -50.7, 0.33077, 3, -20.14, -45.66, 0.66923 ],
				"hull": 21
			}
		},
		"Rhand2": {
			"Rhand2": {
				"type": "mesh",
				"uvs": [ 1, 1, 0, 1, 0, 0, 1, 0 ],
				"triangles": [ 1, 2, 3, 1, 3, 0 ],
				"vertices": [ -0.56, -100.71, -172.66, 520.91, 112.61, 599.89, 284.71, -21.73 ],
				"hull": 4
			}
		},
		"body": {
			"body": {
				"type": "mesh",
				"uvs": [ 0.67464, 0, 0.59622, 0, 0.5004, 0.00413, 0.46907, 0.02003, 0.47793, 0.04544, 0.3445, 0.04423, 0.37417, 0.08946, 0.42447, 0.09564, 0.40258, 0.14414, 0.38079, 0.16041, 0.39307, 0.21605, 0.42723, 0.22678, 0.40718, 0.27645, 0.3261, 0.29677, 0.18123, 0.28997, 0.00271, 0.25609, 0.01346, 0.37461, 0.07205, 0.45331, 0.07918, 0.57305, 0.0887, 0.73282, 0, 0.97293, 1, 0.97882, 0.75676, 0.77407, 0.8173, 0.65413, 0.87482, 0.54017, 0.92615, 0.36667, 0.80669, 0.26383, 0.69314, 0.26382, 0.65001, 0.26382, 0.68841, 0.19993, 0.70909, 0.12097, 0.66868, 0.08596, 0.75635, 0.09052, 0.66636, 0.06746, 0.25701, 0.71912, 0.3335, 0.41098, 0.27492, 0.54418, 0.24368, 0.95851, 0.49807, 0.30522, 0.57067, 0.31326, 0.51957, 0.06719, 0.64823, 0.07998, 0.58736, 0.2066, 0.6055, 0.21088, 0.60694, 0.17875, 0.5948, 0.17573, 0.54419, 0.21212, 0.5804, 0.22436, 0.61109, 0.22357, 0.49973, 0.15941, 0.52621, 0.15541, 0.56718, 0.17558, 0.52928, 0.17344, 0.49762, 0.13784, 0.5357, 0.13453, 0.58903, 0.15974, 0.61283, 0.1838, 0.63409, 0.19244, 0.6666, 0.19313, 0.67566, 0.17065, 0.65246, 0.1643, 0.6137, 0.17154, 0.63085, 0.17567, 0.65368, 0.179, 0.62958, 0.16566, 0.6172, 0.21357, 0.55447, 0.16014, 0.23097, 0.44727, 0.20106, 0.35268, 0.32852, 0.33414, 0.7081, 0.52847, 0.60571, 0.12593, 0.50778, 0.10724, 0.46637, 0.13422, 0.43548, 0.25668, 0.67069, 0.12681, 0.57347, 0.24405, 0.53758, 0.31153, 0.52103, 0.2348, 0.54404, 0.2391, 0.61116, 0.25178, 0.53477, 0.2553, 0.56447, 0.26493, 0.59262, 0.26193, 0.57884, 0.2351, 0.54308, 0.23161, 0.5974, 0.24248, 0.4982, 0.18467, 0.64184, 0.2086, 0.59423, 0.07461, 0.48183, 0.23813, 0.5902, 0.24748, 0.6273, 0.25815, 0.39869, 0.36228, 0.50193, 0.35391, 0.66107, 0.28095 ],
				"triangles": [ 4, 3, 2, 40, 2, 1, 4, 2, 40, 0, 41, 1, 89, 40, 1, 41, 89, 1, 0, 33, 41, 32, 31, 33, 41, 33, 31, 6, 5, 4, 6, 4, 40, 7, 6, 40, 72, 7, 40, 71, 89, 41, 72, 40, 89, 71, 72, 89, 75, 31, 30, 41, 31, 75, 71, 41, 75, 73, 7, 72, 54, 72, 71, 53, 73, 72, 53, 72, 54, 8, 7, 73, 50, 53, 54, 49, 53, 50, 55, 54, 71, 66, 50, 54, 55, 66, 54, 75, 64, 71, 71, 61, 55, 75, 60, 64, 59, 75, 30, 60, 75, 59, 64, 61, 71, 52, 50, 66, 49, 50, 52, 51, 66, 55, 52, 66, 51, 62, 64, 60, 61, 64, 62, 45, 55, 61, 51, 55, 45, 44, 45, 61, 63, 60, 59, 62, 60, 63, 56, 44, 61, 56, 61, 62, 53, 49, 73, 87, 49, 52, 57, 62, 63, 56, 62, 57, 58, 63, 59, 57, 63, 58, 29, 59, 30, 58, 59, 29, 42, 51, 45, 42, 45, 44, 43, 42, 44, 88, 57, 58, 44, 65, 43, 56, 65, 44, 57, 65, 56, 46, 52, 51, 46, 51, 42, 88, 65, 57, 10, 9, 8, 48, 43, 65, 47, 46, 42, 47, 42, 43, 47, 43, 48, 11, 8, 73, 10, 8, 11, 73, 74, 11, 74, 73, 87, 46, 87, 52, 85, 46, 47, 46, 78, 87, 85, 78, 46, 73, 49, 87, 84, 85, 47, 78, 90, 87, 76, 79, 85, 78, 85, 79, 86, 47, 48, 84, 47, 86, 84, 76, 85, 91, 84, 86, 76, 84, 91, 92, 80, 48, 86, 48, 80, 91, 86, 80, 81, 78, 79, 90, 74, 87, 88, 48, 65, 88, 92, 48, 88, 58, 29, 83, 91, 80, 28, 88, 29, 92, 88, 28, 82, 79, 76, 81, 79, 82, 83, 82, 76, 83, 76, 91, 12, 11, 74, 95, 28, 27, 81, 38, 90, 81, 90, 78, 74, 90, 38, 77, 81, 82, 38, 81, 77, 39, 82, 83, 77, 82, 39, 92, 39, 83, 92, 83, 80, 39, 92, 28, 69, 13, 12, 68, 14, 13, 68, 13, 69, 94, 38, 77, 94, 77, 39, 39, 28, 95, 94, 39, 95, 93, 69, 12, 12, 74, 38, 93, 12, 38, 93, 38, 94, 16, 15, 14, 16, 14, 68, 35, 69, 93, 68, 69, 35, 67, 68, 35, 17, 16, 68, 17, 68, 67, 70, 27, 26, 70, 26, 25, 95, 27, 70, 94, 95, 70, 35, 93, 94, 70, 35, 94, 24, 70, 25, 36, 67, 35, 18, 17, 67, 18, 67, 36, 23, 70, 24, 36, 35, 70, 23, 36, 70, 34, 18, 36, 22, 34, 36, 19, 18, 34, 23, 22, 36, 37, 19, 34, 37, 34, 22, 20, 19, 37, 37, 22, 21, 20, 37, 21 ],
				"vertices": [ 797.95, -65.23, 796.48, -25.59, 791.22, 22.76, 777.51, 38.33, 756.36, 33.34, 755.56, 101.15, 718, 85.3, 713.55, 59.57, 672.74, 69.56, 658.83, 80.29, 612.56, 72.7, 604.11, 55.03, 562.45, 63.91, 544.79, 103.99, 548.33, 178.01, 573.98, 269.84, 475.22, 261.49, 410.39, 229.72, 310.56, 223.19, 177.34, 214.48, -24.37, 253.9, -14.54, -256.03, 152.77, -127.08, 253.77, -155.04, 349.74, -181.62, 495.31, -203.59, 579.38, -140.21, 578.24, -80.12, 577.8, -57.29, 631.49, -76.17, 697.75, -84.61, 726.22, -63.81, 723.43, -109.79, 741.63, -62.18, 191.26, 129.01, 449.58, 97.46, 337.54, 124.11, -8.74, 130.03, 539.85, 16.77, 535.03, -19.44, 738.68, 11.81, 730.87, -53.43, 623.91, -27.02, 620.88, -33.38, 647.83, -33.32, 649.53, -29.24, 618.09, -4.27, 608.99, -23.9, 610.74, -35.8, 661.7, 19.26, 665.46, 5.81, 649.26, -15.61, 650.26, 4.11, 679.6, 20.97, 682.87, 1.71, 662.6, -26.05, 643.28, -37.09, 636.52, -48.37, 637.38, -62.68, 656.36, -66.38, 660.97, -55.85, 653.41, -38.61, 650.46, -47.17, 648.39, -58.22, 658.77, -46.08, 619.03, -39.3, 661.96, -8.76, 417.78, 148.85, 496.28, 166.39, 513.64, 101.85, 357.05, -96.34, 691.52, -34.43, 705.09, 16.83, 681.96, 37.28, 579.46, 49.82, 692.75, -63.32, 592.45, -20.84, 535.59, -4.18, 598.88, 6.9, 595.88, -5.3, 586.44, -38.8, 581.91, -0.51, 574.89, -16.76, 577.81, -28.51, 600, -23.36, 601.97, -4.43, 594.07, -31.35, 640.39, 19.74, 623.46, -53.12, 734.14, -26.05, 595.57, 26.73, 589.78, -28.82, 581.72, -46.55, 490.99, 65.7, 499.62, 13.09, 563.59, -63.68 ],
				"hull": 34
			}
		},
		"cloak": {
			"cloak": {
				"type": "mesh",
				"uvs": [ 0.85897, 0.06589, 0.79009, 0.25266, 0.70629, 0.36782, 0.57303, 0.37548, 0.36495, 0.53865, 0.18509, 0.5486, 1.0E-5, 0.74209, 0, 1, 0.18534, 0.93639, 0.31232, 0.83719, 0.48311, 0.89667, 0.68156, 0.5802, 0.77062, 0.49693, 0.88468, 0.35948, 1, 0.19279, 1, 0 ],
				"triangles": [ 0, 15, 14, 1, 0, 14, 13, 1, 14, 2, 1, 13, 12, 2, 13, 11, 3, 2, 11, 2, 12, 4, 3, 11, 9, 5, 4, 6, 5, 9, 10, 4, 11, 9, 4, 10, 8, 6, 9, 7, 6, 8 ],
				"vertices": [ 481.34, 19.01, 456.84, 33.04, 441.47, 50.54, 439.66, 79.02, 417.33, 122.92, 414.93, 161.35, 388.83, 200.22, 355.58, 199.26, 364.93, 159.85, 378.51, 133.06, 371.89, 96.31, 413.93, 55.04, 425.22, 36.3, 443.65, 12.41, 465.85, -11.64, 490.71, -10.92 ],
				"hull": 16
			}
		},
		"light": {
			"light": {
				"x": -10.01,
				"y": 29.69,
				"scaleX": 2.025,
				"scaleY": 2.025,
				"rotation": -77.45,
				"width": 273,
				"height": 101
			}
		}
	}
},
"animations": {
	"Shu": {
		"slots": {
			"Lcloak": {
				"color": [
					{ "time": 2.3333, "color": "ffffffff" },
					{ "time": 3, "color": "00000000" }
				]
			},
			"Lhand1": {
				"color": [
					{ "time": 2.3333, "color": "ffffffff" },
					{ "time": 3, "color": "00000000" }
				]
			},
			"Rcloak": {
				"color": [
					{ "time": 2.3333, "color": "ffffffff" },
					{ "time": 3, "color": "00000000" }
				]
			},
			"Rhand1": {
				"color": [
					{ "time": 2.3333, "color": "ffffffff" },
					{ "time": 3, "color": "00000000" }
				]
			},
			"Rhand2": {
				"color": [
					{ "time": 2.3333, "color": "ffffffff" },
					{ "time": 3, "color": "00000000" }
				]
			},
			"body": {
				"color": [
					{ "time": 2.3333, "color": "ffffffff" },
					{ "time": 3, "color": "00000000" }
				]
			},
			"cloak": {
				"color": [
					{ "time": 2.3333, "color": "ffffffff" },
					{ "time": 3, "color": "00000000" }
				]
			},
			"light": {
				"color": [
					{ "time": 1.3333, "color": "ffffff00" },
					{ "time": 1.5, "color": "ffffff96" },
					{ "time": 1.7333, "color": "3090ffff", "curve": "stepped" },
					{ "time": 1.8333, "color": "3090ffff" },
					{ "time": 2, "color": "ffffff00", "curve": "stepped" },
					{ "time": 2.3333, "color": "ffffff00" },
					{ "time": 3, "color": "00000000" }
				],
				"attachment": [
					{ "time": 1.3333, "name": "light" }
				]
			}
		},
		"bones": {
			"character": {
				"rotate": [
					{ "time": 1.3333, "angle": 11.46 },
					{ "time": 1.8333, "angle": 2.55 },
					{ "time": 3, "angle": 1.4 }
				],
				"translate": [
					{ "time": 1.3333, "x": -1552.08, "y": -2412.35 },
					{ "time": 1.8333, "x": -1342.01, "y": -1543.69 },
					{ "time": 3, "x": -1294.48, "y": -1217.78 }
				],
				"scale": [
					{ "time": 1.3333, "x": 2.266, "y": 2.359 },
					{ "time": 3, "x": 1.174, "y": 1.174 }
				]
			},
			"Rhand1": {
				"rotate": [
					{ "time": 1.3333, "angle": -1.88 }
				],
				"translate": [
					{ "time": 1.3333, "x": -40.47, "y": 15.49 }
				]
			},
			"Rcloak": {
				"rotate": [
					{ "time": 1.3333, "angle": -31.01, "curve": "stepped" },
					{ "time": 1.5, "angle": -31.01 },
					{ "time": 1.8333, "angle": -16.3 },
					{ "time": 2.3333, "angle": -19.89 }
				],
				"translate": [
					{ "time": 1.3333, "x": 29.36, "y": 47.59, "curve": "stepped" },
					{ "time": 1.5, "x": 29.36, "y": 47.59 },
					{ "time": 1.8333, "x": 32.52, "y": 81.6 }
				]
			},
			"Lhand": {
				"rotate": [
					{ "time": 1.3333, "angle": -10.38, "curve": "stepped" },
					{ "time": 1.5, "angle": -10.38 },
					{ "time": 2, "angle": -9.35 },
					{ "time": 2.3333, "angle": -10.63 }
				],
				"translate": [
					{ "time": 1.3333, "x": -32.01, "y": 10.93, "curve": "stepped" },
					{ "time": 1.5, "x": -32.01, "y": 10.93 },
					{ "time": 2, "x": -30.12, "y": 9.27 }
				]
			},
			"Lcloak": {
				"rotate": [
					{ "time": 1.3333, "angle": 0.9, "curve": "stepped" },
					{ "time": 1.5, "angle": 0.9 },
					{ "time": 1.8333, "angle": -0.25 },
					{ "time": 2.3333, "angle": 0.74 }
				]
			},
			"Lcloak2": {
				"rotate": [
					{ "time": 1.5, "angle": 20.27 },
					{ "time": 1.8333, "angle": -18.97 }
				],
				"translate": [
					{ "time": 1.5, "x": -25.59, "y": 19.78 },
					{ "time": 1.8333, "x": 12.94, "y": 26.36 },
					{ "time": 2.3333, "x": -6.88, "y": 37.27 }
				],
				"scale": [
					{ "time": 1.5, "x": 0.916, "y": 1.25 },
					{ "time": 2.3333, "x": 0.717, "y": 1.322 }
				],
				"shear": [
					{ "time": 1.5, "x": -4.87, "y": 0 },
					{ "time": 2.3333, "x": 0, "y": 17.48 }
				]
			},
			"Rcloak2": {
				"rotate": [
					{ "time": 1.5, "angle": -4.25 },
					{ "time": 1.8333, "angle": 28 },
					{ "time": 2.3333, "angle": 27.99 }
				]
			},
			"Rhand4": {
				"rotate": [
					{ "time": 1.3333, "angle": -3.24 }
				],
				"translate": [
					{ "time": 1.3333, "x": -18.1, "y": 2.27 }
				]
			},
			"Rhand2": {
				"rotate": [
					{ "time": 1.3333, "angle": 16.18 },
					{ "time": 1.6667, "angle": 33.97 },
					{ "time": 1.9667, "angle": 12.73 },
					{ "time": 2.3333, "angle": 10.52 },
					{ "time": 2.9667, "angle": 50.85 }
				],
				"translate": [
					{ "time": 1.6667, "x": 0, "y": 0 },
					{ "time": 1.9667, "x": 49.92, "y": -3.5 }
				]
			},
			"Rhand3": {
				"rotate": [
					{ "time": 1.8333, "angle": 0 },
					{ "time": 2.1667, "angle": -47.81 },
					{ "time": 2.6667, "angle": -33.28 },
					{ "time": 3, "angle": 12.8 }
				]
			},
			"Rhand5": {
				"translate": [
					{ "time": 1.8333, "x": 30.21, "y": -68.08 },
					{ "time": 2.0667, "x": 50.41, "y": 47.1 },
					{ "time": 2.3333, "x": 24.34, "y": 82.79 }
				]
			}
		},
		"deform": {
			"default": {
				"Lcloak": {
					"Lcloak": [
						{
							"time": 1.3333,
							"vertices": [ -0.59741, 25.3407, 14.6947, 35.85654, 8.13342, 52.74536, 0, 0, 0, 0, 0, 0, 0, 0, 0, 0, 0, 0, 0, 0, 0, 0, 0, 0, 0, 0, 0, 0, 0, 0, 0, 0, 0, 0, 0, 0, 0, 0, 0, 0, 0, 0, 8.67224, 3.5127, 10.14136, 1.73358, -0.46899, 8.55676 ]
						},
						{
							"time": 1.6667,
							"vertices": [ -0.59741, 25.3407, 14.6947, 35.85654, 8.13342, 52.74536, 0, 0, 0, 0, 0, 0, -33.45129, 0.83032, 6.66089, -21.18823, 15.89563, -12.23907, -24.526, -21.27118, -19.94336, -24.13934, -8.62109, -7.57178, -6.97339, -8.55133, 0, 0, 0, 0, 0, 0, 0, 0, 0, 0, 0, 0, 0, 0, 0, 0, 8.67224, 3.5127, 10.14136, 1.73358, -0.46899, 8.55676 ]
						},
						{
							"time": 2,
							"vertices": [ -6.13782, 45.55408, 22.09692, 69.45102, 12.7135, 118.89362, 7.32056, 27.55408, 1.58594, 5.95239, 1.05811, 4.79938, -34.18225, 20.19275, -1.28101, 3.69501, -0.77515, 2.82031, -24.526, -21.27118, -19.94336, -24.13934, -8.62109, -7.57178, -6.97339, -8.55133, 0, 0, 0, 0, 0, 0, 0, 0, 0, 0, 0, 0, 0, 0, 0, 0, 19.04797, -1.98285, 26.30481, 1.36908, 1.34424, 16.78418 ]
						}
					]
				},
				"Lhand1": {
					"Lhand1": [
						{
							"time": 1.3333,
							"offset": 32,
							"vertices": [ -8.60815, -11.85004, 5.13257, -4.84094, 9.35681, 4.77216, 0, 0, 0, 0, 0, 0, 0, 0, 0, 0, 0, 0, 0, 0, 0, 0, 0, 0, 0, 0, 0, 0, 0, 0, 2.0752, 5.93323, 1.50146, 6.10321 ],
							"curve": "stepped"
						},
						{
							"time": 1.5,
							"offset": 32,
							"vertices": [ -8.60815, -11.85004, 5.13257, -4.84094, 9.35681, 4.77216, 0, 0, 0, 0, 0, 0, 0, 0, 0, 0, 0, 0, 0, 0, 0, 0, 0, 0, 0, 0, 0, 0, 0, 0, 2.0752, 5.93323, 1.50146, 6.10321 ]
						},
						{
							"time": 2,
							"offset": 26,
							"vertices": [ 6.27344, -0.92206, 7.52295, 1.40472, -6.19543, -2.61566, -14.96436, -28.97961, 22, -13.97046, 19.28198, 8.96906, 0, 0, 0, 0, 0, 0, 0, 0, 0, 0, 0, 0, 0, 0, 0, 0, 0, 0, 0, 0, -4.91809, -2.32544, -5.60474, -7.57095, 11.73987, 4.09735, 10.91943, 7.10405 ]
						},
						{
							"time": 2.3333,
							"offset": 26,
							"vertices": [ 6.27344, -0.92206, 7.52295, 1.40472, -6.19543, -2.61566, -3.474, -27.39124, 22.36584, -11.16431, 19.28198, 8.96906, 3.38904, 1.78992, 0, 0, 0, 0, 0, 0, 0, 0, 0, 0, 0, 0, 0, 0, 0, 0, 0, 0, -4.91809, -2.32544, -5.60474, -7.57095, 11.73987, 4.09735, 10.91943, 7.10405 ]
						}
					]
				},
				"Rcloak": {
					"Rcloak": [
						{
							"time": 1.3333,
							"offset": 40,
							"vertices": [ 11.74316, -7.42896, -1.67712, -13.79236, -15.64893, -24.58044 ],
							"curve": "stepped"
						},
						{
							"time": 1.5,
							"offset": 40,
							"vertices": [ 11.74316, -7.42896, -1.67712, -13.79236, -15.64893, -24.58044 ]
						},
						{
							"time": 1.8333,
							"offset": 2,
							"vertices": [ 17.73871, -22.71692, 0, 0, 0, 0, 3.25256, 12.3938, 10.8195, 6.86511, 0, 0, 0, 0, 0, 0, 0, 0, 10.5498, -33.69812, -15.21285, -31.86487, 0, 0, 0, 0, 0, 0, 0, 0, 0, 0, 0, 0, -3.21985, 54.01904, 34.41534, 41.76233, 11.76514, 18.02649, 15.66839, 4.8396, -17.32423, 4.19189, 1.56445, 32.14148, 23.0266, 22.47961 ]
						},
						{
							"time": 2.3333,
							"vertices": [ 37.2453, -3.09888, 27.77075, -27.34033, 0, 0, 0, 0, 0.3623, 33.95862, 24.24687, 23.98071, -3.93835, -8.69128, -8.97565, -3.24561, -21.19409, -51.78467, -8.58228, -64.04932, 20.52637, -50.04724, -21.52896, -49.62976, 0, 0, 0, 0, 5.05432, -28.22192, -16.69165, -23.31702, -14.89484, -29.6781, -2.54436, 7.15039, -9.16956, 71.77405, 43.47932, 57.79846, 21.81287, -5.80249, 5.60874, -18.98792, -27.66104, -16.08447, 5.6842, 47.01001, 37.11414, 29.4624 ]
						}
					]
				},
				"body": {
					"body": [
						{
							"time": 1.3333,
							"offset": 2,
							"vertices": [ -0.15207, -4.53662, 1.24326, -10.72815, 0, 0, 0, 0, 0, 0, 0, 0, 0, 0, 0, 0, -0.20917, 2.29578, -0.20917, 2.29578, 0.08301, 2.4762, 0, 0, 0, 0, 0, 0, 0, 0, 0, 0, 0, 0, 0, 0, 0, 0, 0, 0, 0, 0, 0, 0, 0, 0, 0, 0, 0, 0, 0, 0, 0, 0, 1.79504, 1.39331, 0.93338, 4.6333, 0, 0, 0, 0, 0, 0, 0, 0, 0, 0, 0, 0, 0, 0, 0, 0, 3.7023, -5.79175, 1.07364, -1.80493, 1.24326, -10.72815, 0, 0, -1.05286, -0.30644, -2.35699, -3.93857, -2.51566, -2.49072, -3.06256, 0.78662, -2.45593, -4.63428, -1.28946, -1.85652, -2.7836, -2.62598, -1.44617, -5.66382, -1.67053, -3.69812, 0.34628, -1.84863, 2.29855, -3.34814, -0.15927, -4.75525, -3.88177, -4.69946, -1.07224, 4.65503, 0, 0, 1.2428, -0.70251, 0.4314, 2.25623, -1.52899, 1.89209, -2.10376, 2.1814, -0.72968, 0.02441, -0.72095, 3.55432, -0.69263, 4.39282, -1.42944, 0.92419, -3.37338, -0.86046, -4.15048, -4.41809, 0, 0, 0, 0, 0, 0, 0, 0, 0, 0, 0, 0, -1.93439, -3.3291, 2.79742, -1.16064, 0, 0, -0.45175, -2.97815, -0.09778, -2.91455, -1.05536, -0.58594, 0, 0, -0.60651, 0.43457, 0, 0, -0.24051, -1.92871, 0, 0, -0.24646, -2.1051, 0, 0, 0.32489, -1.2323, 2.20615, -0.35608, 3.98926, 0.32263, -0.15207, -4.53662, 0.56937, 2.42139 ]
						},
						{
							"time": 1.6667,
							"offset": 76,
							"vertices": [ 2.25653, -7.02516, 2.29712, -0.51993, 0, 0, 0, 0, 0, 0, 0, 0, 0, 0, 0, 0, 0, 0, 0, 0, 0, 0, 0, 0, 0, 0, 0, 0, 0, 0, 0, 0, 0, 0, 0, 0, 0, 0, 0, 0, 0, 0, 0, 0, 0, 0, 0, 0, 0, 0, 0, 0, 0, 0, 0, 0, 0, 0, 0, 0, 0, 0, 0, 0, 0, 0, 0, 0, 0, 0, 0, 0, 3.0047, -1.72898, 0, 0, 0, 0, 2.1474, -3.18579, 2.11737, 0.74904, 0, 0, 3.19806, -1.572 ]
						},
						{
							"time": 2,
							"vertices": [ -0.435, -1.75157, 0, 0, 0, 0, 0.18213, -3.20479, 0.18213, -3.20479, -0.28906, -5.66441, -0.28906, -5.66441, 0, 0, 0, 0, -0.7262, 2.70153, -0.7262, 2.70153, 0, 0, 0, 0, 0, 0, 0, 0, 0, 0, 0, 0, 0, 0, 0, 0, 0, 0, 0, 0, 0, 0, 0, 0, 0, 0, 0, 0, 0, 0, 0, 0, 0, 0, 0.12646, 2.47815, 0.4892, 2.81363, 0.4892, 2.81363, 0, 0, 1.14099, 8.81345, -0.07227, -1.41612, 0, 0, 0, 0, 0, 0, 0, 0, 6.84222, -2.0E-5, 5.83441, -2.0E-5, 0, 0, 0, 0, 0.46155, 2.14545, 0, 0, 0, 0, 0.11047, 2.16436, 0, 0, 0, 0, 0, 0, 0, 0, 0, 0, 0, 0, 0.89697, -0.04829, 0, 0, 0, 0, 0.72095, 2.58327, 0, 0, 0.8891, -1.0E-5, 0, 0, 0, 0, -1.60474, -2.13356, 0, -0.62235, -0.74762, -1.0E-5, -1.04657, -1.0E-5, -0.09381, -1.84253, 0, 0, 0, 0, 0, 0, 0, 0, 0, 0, 0, 0, 0, 0, 0, 0, 0, 0, 0, 0, 0, 0, 0, 0, 7.36853, -1.58822, 2.11737, 0.74904, 0, 0, 3.19806, -1.572, 0, 0, 0, 0, 0, 0, 0, 0, 0, 0, 0.73621, -1.27408 ]
						}
					]
				}
			}
		}
	},
	"Shu2": {
		"slots": {
			"Lcloak": {
				"color": [
					{ "time": 2.3333, "color": "ffffffff" },
					{ "time": 3, "color": "00000000" }
				]
			},
			"Lhand1": {
				"color": [
					{ "time": 2.3333, "color": "ffffffff" },
					{ "time": 3, "color": "00000000" }
				]
			},
			"Rcloak": {
				"color": [
					{ "time": 2.3333, "color": "ffffffff" },
					{ "time": 3, "color": "00000000" }
				]
			},
			"Rhand1": {
				"color": [
					{ "time": 2.3333, "color": "ffffffff" },
					{ "time": 3, "color": "00000000" }
				]
			},
			"Rhand2": {
				"color": [
					{ "time": 2.3333, "color": "ffffffff" },
					{ "time": 3, "color": "00000000" }
				]
			},
			"body": {
				"color": [
					{ "time": 2.3333, "color": "ffffffff" },
					{ "time": 3, "color": "00000000" }
				]
			},
			"cloak": {
				"color": [
					{ "time": 2.3333, "color": "ffffffff" },
					{ "time": 3, "color": "00000000" }
				]
			},
			"light": {
				"color": [
					{ "time": 1.3333, "color": "ffffff00" },
					{ "time": 1.5, "color": "ffffff96" },
					{ "time": 1.7333, "color": "3090ffff", "curve": "stepped" },
					{ "time": 1.8333, "color": "3090ffff" },
					{ "time": 2, "color": "ffffff00", "curve": "stepped" },
					{ "time": 2.3333, "color": "ffffff00" },
					{ "time": 3, "color": "00000000" }
				],
				"attachment": [
					{ "time": 1.3333, "name": "light" }
				]
			}
		},
		"bones": {
			"character": {
				"rotate": [
					{ "time": 1.3333, "angle": 11.46 },
					{ "time": 1.8333, "angle": 2.55 },
					{ "time": 3, "angle": 1.4 }
				],
				"translate": [
					{ "time": 1.3333, "x": -1552.08, "y": -2412.35 },
					{ "time": 1.8333, "x": -1342.01, "y": -1543.69 },
					{ "time": 3, "x": -1294.48, "y": -1217.78 }
				],
				"scale": [
					{ "time": 1.3333, "x": 2.266, "y": 2.359 },
					{ "time": 3, "x": 1.174, "y": 1.174 }
				]
			},
			"Rhand1": {
				"rotate": [
					{ "time": 1.3333, "angle": 29.57 },
					{ "time": 1.5, "angle": 29.95 },
					{ "time": 1.8333, "angle": -23.53 },
					{ "time": 2.3333, "angle": -1.88 },
					{ "time": 3, "angle": -6.48 }
				],
				"translate": [
					{ "time": 1.3333, "x": -49.39, "y": 4.83 },
					{ "time": 1.5, "x": -41.81, "y": -30.57 },
					{ "time": 1.8333, "x": -79.51, "y": 30.31 },
					{ "time": 2.3333, "x": -40.47, "y": 15.49 }
				],
				"scale": [
					{ "time": 1.3333, "x": 0.775, "y": 1, "curve": "stepped" },
					{ "time": 1.5, "x": 0.775, "y": 1 },
					{ "time": 1.8333, "x": 1, "y": 1 }
				]
			},
			"Rcloak": {
				"rotate": [
					{ "time": 1.3333, "angle": -31.01, "curve": "stepped" },
					{ "time": 1.5, "angle": -31.01 },
					{ "time": 1.8333, "angle": -16.3 },
					{ "time": 2.3333, "angle": -19.89 }
				],
				"translate": [
					{ "time": 1.3333, "x": 29.36, "y": 47.59, "curve": "stepped" },
					{ "time": 1.5, "x": 29.36, "y": 47.59 },
					{ "time": 1.8333, "x": 32.52, "y": 81.6 }
				]
			},
			"Lhand": {
				"rotate": [
					{ "time": 1.3333, "angle": -10.38, "curve": "stepped" },
					{ "time": 1.5, "angle": -10.38 },
					{ "time": 2, "angle": -9.35 },
					{ "time": 2.3333, "angle": -10.63 }
				],
				"translate": [
					{ "time": 1.3333, "x": -32.01, "y": 10.93, "curve": "stepped" },
					{ "time": 1.5, "x": -32.01, "y": 10.93 },
					{ "time": 2, "x": -30.12, "y": 9.27 }
				]
			},
			"Lcloak": {
				"rotate": [
					{ "time": 1.3333, "angle": 0.9, "curve": "stepped" },
					{ "time": 1.5, "angle": 0.9 },
					{ "time": 1.8333, "angle": -0.25 },
					{ "time": 2.3333, "angle": 0.74 }
				]
			},
			"Lcloak2": {
				"rotate": [
					{ "time": 1.5, "angle": 20.27 },
					{ "time": 1.8333, "angle": -18.97 }
				],
				"translate": [
					{ "time": 1.5, "x": -25.59, "y": 19.78 },
					{ "time": 1.8333, "x": 12.94, "y": 26.36 },
					{ "time": 2.3333, "x": -6.88, "y": 37.27 }
				],
				"scale": [
					{ "time": 1.5, "x": 0.916, "y": 1.25 },
					{ "time": 2.3333, "x": 0.717, "y": 1.322 }
				],
				"shear": [
					{ "time": 1.5, "x": -4.87, "y": 0 },
					{ "time": 2.3333, "x": 0, "y": 17.48 }
				]
			},
			"Rcloak2": {
				"rotate": [
					{ "time": 1.5, "angle": -4.25 },
					{ "time": 1.8333, "angle": 28 },
					{ "time": 2.3333, "angle": 27.99 }
				]
			},
			"Rhand4": {
				"rotate": [
					{ "time": 1.3333, "angle": 12.3, "curve": "stepped" },
					{ "time": 1.5, "angle": 12.3 },
					{ "time": 1.8333, "angle": -8.43 },
					{ "time": 2, "angle": -3.24 }
				],
				"translate": [
					{ "time": 1.5, "x": -18.1, "y": 2.27 },
					{ "time": 1.8333, "x": 4.66, "y": 3.72 }
				]
			},
			"Rhand2": {
				"rotate": [
					{ "time": 1.3333, "angle": 16.18 },
					{ "time": 1.6667, "angle": 33.97 },
					{ "time": 1.9667, "angle": 12.73 },
					{ "time": 2.3333, "angle": 10.52 },
					{ "time": 2.9667, "angle": 50.85 }
				],
				"translate": [
					{ "time": 1.6667, "x": 0, "y": 0 },
					{ "time": 1.9667, "x": 49.92, "y": -3.5 }
				]
			},
			"Rhand3": {
				"rotate": [
					{ "time": 1.8333, "angle": 0 },
					{ "time": 2.1667, "angle": -47.81 },
					{ "time": 2.6667, "angle": -33.28 },
					{ "time": 3, "angle": 12.8 }
				]
			},
			"Rhand5": {
				"translate": [
					{ "time": 1.8333, "x": 30.21, "y": -68.08 },
					{ "time": 2.0667, "x": 50.41, "y": 47.1 },
					{ "time": 2.3333, "x": 24.34, "y": 82.79 }
				]
			}
		},
		"deform": {
			"default": {
				"Lcloak": {
					"Lcloak": [
						{
							"time": 1.3333,
							"vertices": [ -0.59741, 25.3407, 14.6947, 35.85654, 8.13342, 52.74536, 0, 0, 0, 0, 0, 0, 0, 0, 0, 0, 0, 0, 0, 0, 0, 0, 0, 0, 0, 0, 0, 0, 0, 0, 0, 0, 0, 0, 0, 0, 0, 0, 0, 0, 0, 0, 8.67224, 3.5127, 10.14136, 1.73358, -0.46899, 8.55676 ]
						},
						{
							"time": 1.6667,
							"vertices": [ -0.59741, 25.3407, 14.6947, 35.85654, 8.13342, 52.74536, 0, 0, 0, 0, 0, 0, -33.45129, 0.83032, 6.66089, -21.18823, 15.89563, -12.23907, -24.526, -21.27118, -19.94336, -24.13934, -8.62109, -7.57178, -6.97339, -8.55133, 0, 0, 0, 0, 0, 0, 0, 0, 0, 0, 0, 0, 0, 0, 0, 0, 8.67224, 3.5127, 10.14136, 1.73358, -0.46899, 8.55676 ]
						},
						{
							"time": 2,
							"vertices": [ -6.13782, 45.55408, 22.09692, 69.45102, 12.7135, 118.89362, 7.32056, 27.55408, 1.58594, 5.95239, 1.05811, 4.79938, -34.18225, 20.19275, -1.28101, 3.69501, -0.77515, 2.82031, -24.526, -21.27118, -19.94336, -24.13934, -8.62109, -7.57178, -6.97339, -8.55133, 0, 0, 0, 0, 0, 0, 0, 0, 0, 0, 0, 0, 0, 0, 0, 0, 19.04797, -1.98285, 26.30481, 1.36908, 1.34424, 16.78418 ]
						}
					]
				},
				"Lhand1": {
					"Lhand1": [
						{
							"time": 1.3333,
							"offset": 32,
							"vertices": [ -8.60815, -11.85004, 5.13257, -4.84094, 9.35681, 4.77216, 0, 0, 0, 0, 0, 0, 0, 0, 0, 0, 0, 0, 0, 0, 0, 0, 0, 0, 0, 0, 0, 0, 0, 0, 2.0752, 5.93323, 1.50146, 6.10321 ],
							"curve": "stepped"
						},
						{
							"time": 1.5,
							"offset": 32,
							"vertices": [ -8.60815, -11.85004, 5.13257, -4.84094, 9.35681, 4.77216, 0, 0, 0, 0, 0, 0, 0, 0, 0, 0, 0, 0, 0, 0, 0, 0, 0, 0, 0, 0, 0, 0, 0, 0, 2.0752, 5.93323, 1.50146, 6.10321 ]
						},
						{
							"time": 2,
							"offset": 26,
							"vertices": [ 6.27344, -0.92206, 7.52295, 1.40472, -6.19543, -2.61566, -14.96436, -28.97961, 22, -13.97046, 19.28198, 8.96906, 0, 0, 0, 0, 0, 0, 0, 0, 0, 0, 0, 0, 0, 0, 0, 0, 0, 0, 0, 0, -4.91809, -2.32544, -5.60474, -7.57095, 11.73987, 4.09735, 10.91943, 7.10405 ]
						},
						{
							"time": 2.3333,
							"offset": 26,
							"vertices": [ 6.27344, -0.92206, 7.52295, 1.40472, -6.19543, -2.61566, -3.474, -27.39124, 22.36584, -11.16431, 19.28198, 8.96906, 3.38904, 1.78992, 0, 0, 0, 0, 0, 0, 0, 0, 0, 0, 0, 0, 0, 0, 0, 0, 0, 0, -4.91809, -2.32544, -5.60474, -7.57095, 11.73987, 4.09735, 10.91943, 7.10405 ]
						}
					]
				},
				"Rcloak": {
					"Rcloak": [
						{
							"time": 1.3333,
							"offset": 40,
							"vertices": [ 11.74316, -7.42896, -1.67712, -13.79236, -15.64893, -24.58044 ],
							"curve": "stepped"
						},
						{
							"time": 1.5,
							"offset": 40,
							"vertices": [ 11.74316, -7.42896, -1.67712, -13.79236, -15.64893, -24.58044 ]
						},
						{
							"time": 1.8333,
							"offset": 2,
							"vertices": [ 17.73871, -22.71692, 0, 0, 0, 0, 3.25256, 12.3938, 10.8195, 6.86511, 0, 0, 0, 0, 0, 0, 0, 0, 10.5498, -33.69812, -15.21285, -31.86487, 0, 0, 0, 0, 0, 0, 0, 0, 0, 0, 0, 0, -3.21985, 54.01904, 34.41534, 41.76233, 11.76514, 18.02649, 15.66839, 4.8396, -17.32423, 4.19189, 1.56445, 32.14148, 23.0266, 22.47961 ]
						},
						{
							"time": 2.3333,
							"vertices": [ 37.2453, -3.09888, 27.77075, -27.34033, 0, 0, 0, 0, 0.3623, 33.95862, 24.24687, 23.98071, -3.93835, -8.69128, -8.97565, -3.24561, -21.19409, -51.78467, -8.58228, -64.04932, 20.52637, -50.04724, -21.52896, -49.62976, 0, 0, 0, 0, 5.05432, -28.22192, -16.69165, -23.31702, -14.89484, -29.6781, -2.54436, 7.15039, -9.16956, 71.77405, 43.47932, 57.79846, 21.81287, -5.80249, 5.60874, -18.98792, -27.66104, -16.08447, 5.6842, 47.01001, 37.11414, 29.4624 ]
						}
					]
				},
				"body": {
					"body": [
						{
							"time": 1.3333,
							"offset": 2,
							"vertices": [ -0.15207, -4.53662, 1.24326, -10.72815, 0, 0, 0, 0, 0, 0, 0, 0, 0, 0, 0, 0, -0.20917, 2.29578, -0.20917, 2.29578, 0.08301, 2.4762, 0, 0, 0, 0, 0, 0, 0, 0, 0, 0, 0, 0, 0, 0, 0, 0, 0, 0, 0, 0, 0, 0, 0, 0, 0, 0, 0, 0, 0, 0, 0, 0, 1.79504, 1.39331, 0.93338, 4.6333, 0, 0, 0, 0, 0, 0, 0, 0, 0, 0, 0, 0, 0, 0, 0, 0, 3.7023, -5.79175, 1.07364, -1.80493, 1.24326, -10.72815, 0, 0, -1.05286, -0.30644, -2.35699, -3.93857, -2.51566, -2.49072, -3.06256, 0.78662, -2.45593, -4.63428, -1.28946, -1.85652, -2.7836, -2.62598, -1.44617, -5.66382, -1.67053, -3.69812, 0.34628, -1.84863, 2.29855, -3.34814, -0.15927, -4.75525, -3.88177, -4.69946, -1.07224, 4.65503, 0, 0, 1.2428, -0.70251, 0.4314, 2.25623, -1.52899, 1.89209, -2.10376, 2.1814, -0.72968, 0.02441, -0.72095, 3.55432, -0.69263, 4.39282, -1.42944, 0.92419, -3.37338, -0.86046, -4.15048, -4.41809, 0, 0, 0, 0, 0, 0, 0, 0, 0, 0, 0, 0, -1.93439, -3.3291, 2.79742, -1.16064, 0, 0, -0.45175, -2.97815, -0.09778, -2.91455, -1.05536, -0.58594, 0, 0, -0.60651, 0.43457, 0, 0, -0.24051, -1.92871, 0, 0, -0.24646, -2.1051, 0, 0, 0.32489, -1.2323, 2.20615, -0.35608, 3.98926, 0.32263, -0.15207, -4.53662, 0.56937, 2.42139 ]
						},
						{
							"time": 1.6667,
							"offset": 76,
							"vertices": [ 2.25653, -7.02516, 2.29712, -0.51993, 0, 0, 0, 0, 0, 0, 0, 0, 0, 0, 0, 0, 0, 0, 0, 0, 0, 0, 0, 0, 0, 0, 0, 0, 0, 0, 0, 0, 0, 0, 0, 0, 0, 0, 0, 0, 0, 0, 0, 0, 0, 0, 0, 0, 0, 0, 0, 0, 0, 0, 0, 0, 0, 0, 0, 0, 0, 0, 0, 0, 0, 0, 0, 0, 0, 0, 0, 0, 3.0047, -1.72898, 0, 0, 0, 0, 2.1474, -3.18579, 2.11737, 0.74904, 0, 0, 3.19806, -1.572 ]
						},
						{
							"time": 2,
							"vertices": [ -0.435, -1.75157, 0, 0, 0, 0, 0.18213, -3.20479, 0.18213, -3.20479, -0.28906, -5.66441, -0.28906, -5.66441, 0, 0, 0, 0, -0.7262, 2.70153, -0.7262, 2.70153, 0, 0, 0, 0, 0, 0, 0, 0, 0, 0, 0, 0, 0, 0, 0, 0, 0, 0, 0, 0, 0, 0, 0, 0, 0, 0, 0, 0, 0, 0, 0, 0, 0, 0, 0.12646, 2.47815, 0.4892, 2.81363, 0.4892, 2.81363, 0, 0, 1.14099, 8.81345, -0.07227, -1.41612, 0, 0, 0, 0, 0, 0, 0, 0, 6.84222, -2.0E-5, 5.83441, -2.0E-5, 0, 0, 0, 0, 0.46155, 2.14545, 0, 0, 0, 0, 0.11047, 2.16436, 0, 0, 0, 0, 0, 0, 0, 0, 0, 0, 0, 0, 0.89697, -0.04829, 0, 0, 0, 0, 0.72095, 2.58327, 0, 0, 0.8891, -1.0E-5, 0, 0, 0, 0, -1.60474, -2.13356, 0, -0.62235, -0.74762, -1.0E-5, -1.04657, -1.0E-5, -0.09381, -1.84253, 0, 0, 0, 0, 0, 0, 0, 0, 0, 0, 0, 0, 0, 0, 0, 0, 0, 0, 0, 0, 0, 0, 0, 0, 7.36853, -1.58822, 2.11737, 0.74904, 0, 0, 3.19806, -1.572, 0, 0, 0, 0, 0, 0, 0, 0, 0, 0, 0.73621, -1.27408 ]
						}
					]
				}
			}
		}
	}
}
}