{
"skeleton": { "hash": "oYqBJRYLclJ8AUm35PHImUaihrU", "spine": "3.7.94", "width": 244.32, "height": 304.45 },
"bones": [
	{ "name": "root" },
	{ "name": "character", "parent": "root", "x": -16.42, "y": -102.75 },
	{
		"name": "body",
		"parent": "character",
		"length": 138.04,
		"rotation": 82.36,
		"x": 0.6,
		"y": 1.71,
		"scaleX": 1.005,
		"scaleY": 1.005
	},
	{ "name": "head", "parent": "body", "length": 100.61, "rotation": 5.07, "x": 152.98, "y": -16.66 },
	{ "name": "handR1", "parent": "body", "length": 111.74, "rotation": 167.54, "x": 133.96, "y": -79.49 },
	{ "name": "Rhand2", "parent": "handR1", "length": 98.14, "rotation": -75.59, "x": 112.59, "y": 3.54 },
	{ "name": "Rhand3", "parent": "Rhand2", "length": 32.35, "rotation": 14.77, "x": 97.05, "y": -0.11 },
	{ "name": "headwear", "parent": "head", "length": 33.28, "rotation": -94.1, "x": 90.85, "y": -14.85 },
	{ "name": "breastL", "parent": "body", "rotation": -82.36, "x": 67.91, "y": 75.21 },
	{ "name": "breastR", "parent": "body", "rotation": -82.36, "x": 70.44, "y": -3.1 },
	{ "name": "Lbreastlight", "parent": "body", "rotation": -104.8, "x": 84.5, "y": 50.3 },
	{ "name": "hair", "parent": "head", "x": -10.16, "y": 16.35 },
	{ "name": "mouthB", "parent": "head", "rotation": -87.44, "x": 16.68, "y": 16.46 },
	{ "name": "mouthT", "parent": "head", "rotation": -87.44, "x": 24.98, "y": 18.64 },
	{ "name": "clothL", "parent": "body", "rotation": -82.36, "x": 62.74, "y": 31.51 },
	{ "name": "clothL2", "parent": "clothL", "x": 78.2, "y": 12.4 },
	{ "name": "clothR", "parent": "body", "rotation": -82.36, "x": 52.34, "y": 42.66 },
	{ "name": "clothR2", "parent": "clothR", "x": -47.52, "y": 39.64 },
	{ "name": "clothR3", "parent": "clothR2", "x": 38.18, "y": 49.04 },
	{ "name": "Rbreastlight", "parent": "body", "rotation": -56.99, "x": 93.62, "y": -11.07 },
	{ "name": "pice", "parent": "body", "rotation": -82.36, "x": 120.99, "y": -115.48 }
],
"slots": [
	{ "name": "Bhand", "bone": "body", "attachment": "Bhand" },
	{ "name": "Rhair", "bone": "head", "attachment": "Rhair" },
	{ "name": "Lhair", "bone": "head", "attachment": "Lhair" },
	{ "name": "body", "bone": "body", "attachment": "body" },
	{ "name": "handR1", "bone": "handR1", "attachment": "handR1" },
	{ "name": "Rhand2", "bone": "Rhand2", "attachment": "Rhand2" },
	{ "name": "head", "bone": "head", "attachment": "head" },
	{ "name": "breastL", "bone": "body", "attachment": "breastL" },
	{ "name": "breastR", "bone": "body", "attachment": "breastR" },
	{ "name": "breastlight", "bone": "Lbreastlight", "attachment": "breastlight", "blend": "screen" },
	{ "name": "breastlight2", "bone": "Rbreastlight", "attachment": "breastlight", "blend": "screen" },
	{ "name": "pice1", "bone": "body", "attachment": "pice1" },
	{ "name": "water", "bone": "head", "attachment": "water" },
	{ "name": "wather2", "bone": "body", "attachment": "wather2" },
	{ "name": "clothR", "bone": "clothL", "attachment": "clothR" },
	{ "name": "L_cioth", "bone": "body", "attachment": "clothL" },
	{ "name": "pice2", "bone": "pice", "attachment": "pice2" },
	{ "name": "headwear", "bone": "headwear", "attachment": "headwear" }
],
"skins": {
	"default": {
		"Bhand": {
			"Bhand": { "x": 35.93, "y": 62.07, "rotation": -82.36, "width": 56, "height": 89 }
		},
		"L_cioth": {
			"clothL": {
				"type": "mesh",
				"uvs": [ 0.00275, 0, 0, 0.62922, 0.22345, 1, 0.64691, 1, 0.9499, 1, 1, 0.73538, 0.75324, 0.62591, 0.48399, 0.50647, 0.36308, 0.27683, 0.21732, 0 ],
				"triangles": [ 8, 0, 9, 8, 1, 0, 7, 2, 1, 7, 1, 8, 2, 7, 3, 3, 7, 6, 5, 4, 6, 4, 3, 6 ],
				"vertices": [ 2, 17, -16.49, 30.86, 0.288, 18, -54.67, -18.18, 0.712, 3, 16, -64.26, 17.02, 0.19645, 17, -16.75, -22.62, 0.6041, 18, -54.92, -71.66, 0.19945, 2, 16, -43.71, -14.5, 0.536, 17, 3.81, -54.14, 0.464, 2, 16, -4.75, -14.5, 0.744, 17, 42.77, -54.14, 0.256, 1, 16, 23.13, -14.5, 1, 1, 16, 27.74, 8, 1, 2, 16, 5.03, 17.3, 0.816, 17, 52.55, -22.34, 0.184, 2, 16, -19.74, 27.45, 0.536, 17, 27.78, -12.19, 0.464, 3, 16, -30.86, 46.97, 0.28262, 17, 16.66, 7.33, 0.48538, 18, -21.52, -41.71, 0.232, 2, 17, 3.25, 30.86, 0.176, 18, -34.93, -18.18, 0.824 ],
				"hull": 10
			}
		},
		"Lhair": {
			"Lhair": {
				"type": "mesh",
				"uvs": [ 0.17747, 0, 0.20663, 0.30802, 0.23155, 0.57123, 0, 1, 1, 0.70457, 1, 0.45106, 1, 0.23654, 1, 0 ],
				"triangles": [ 2, 1, 5, 6, 1, 7, 1, 0, 7, 1, 6, 5, 2, 5, 4, 3, 2, 4 ],
				"vertices": [ 1, 3, 44.33, 40.64, 1, 2, 11, 34.83, 22.7, 0.296, 3, 24.67, 39.05, 0.704, 2, 11, 18.03, 21.33, 0.448, 3, 7.87, 37.68, 0.552, 1, 11, -9.64, 25.64, 1, 1, 11, 10.34, 2.52, 1, 2, 11, 26.55, 3.26, 0.472, 3, 16.39, 19.61, 0.528, 2, 11, 40.26, 3.88, 0.304, 3, 30.11, 20.23, 0.696, 1, 3, 45.23, 20.92, 1 ],
				"hull": 8
			}
		},
		"Rhair": {
			"Rhair": {
				"type": "mesh",
				"uvs": [ 0, 0.25381, 0.12508, 0.51444, 0.19939, 0.66927, 0.27835, 0.8338, 0.35811, 1, 1, 1, 1, 0.76769, 1, 0.54761, 0.92479, 0.42948, 0.65137, 0, 0, 0.08492 ],
				"triangles": [ 3, 2, 7, 6, 3, 7, 2, 8, 7, 2, 1, 8, 1, 9, 8, 4, 3, 6, 4, 6, 5, 0, 10, 9, 1, 0, 9 ],
				"vertices": [ 2, 3, 17.03, -28.41, 0.64, 11, 27.19, -44.76, 0.36, 2, 3, -11.02, -35.45, 0.352, 11, -0.87, -51.8, 0.648, 2, 3, -27.69, -39.63, 0.528, 11, -17.53, -55.98, 0.472, 2, 3, -45.4, -44.07, 0.344, 11, -35.24, -60.42, 0.656, 2, 3, -63.29, -48.56, 0.272, 11, -53.14, -64.91, 0.728, 2, 3, -61.95, -78.06, 0.288, 11, -51.79, -94.4, 0.712, 2, 3, -36.88, -76.91, 0.384, 11, -26.73, -93.26, 0.616, 2, 3, -13.14, -75.83, 0.448, 11, -2.98, -92.18, 0.552, 2, 3, -0.55, -71.8, 0.472, 11, 9.6, -88.15, 0.528, 2, 3, 45.21, -57.12, 0.64, 11, 55.37, -73.47, 0.36, 2, 3, 34.69, -27.61, 0.76, 11, 44.84, -43.96, 0.24 ],
				"hull": 11
			}
		},
		"Rhand2": {
			"Rhand2": {
				"type": "mesh",
				"uvs": [ 0.40247, 0.13915, 0.99999, 0.1055, 0.89836, 0.82818, 0.66749, 0.89449, 0.2506, 0.99991, 0.18502, 0.99999, 0.14514, 1, 0.06949, 1, 0.11194, 0.73252, 1.0E-4, 0.59416, 0.01159, 0.29238, 0.25249, 0.17936, 0.32054, 0.15373 ],
				"triangles": [ 6, 8, 11, 11, 9, 10, 8, 9, 11, 7, 8, 6, 2, 0, 1, 3, 0, 2, 0, 3, 4, 6, 11, 5, 5, 12, 4, 0, 4, 12, 12, 5, 11 ],
				"vertices": [ 2, 5, 72.96, -21.21, 0.848, 6, -28.67, -14.26, 0.152, 1, 5, -24.3, -33.34, 1, 1, 5, -12.77, 18.66, 1, 1, 5, 24.44, 27.06, 1, 2, 5, 91.73, 41.23, 0.81168, 6, 5.39, 41.33, 0.18832, 2, 5, 102.43, 42.31, 0.61571, 6, 16.01, 39.65, 0.38429, 2, 5, 108.94, 42.97, 0.60584, 6, 22.47, 38.62, 0.39416, 2, 5, 121.28, 44.21, 0.5007, 6, 34.73, 36.67, 0.4993, 2, 5, 116.22, 24.88, 0.2208, 6, 24.91, 19.28, 0.7792, 2, 5, 135.44, 17.08, 0.00305, 6, 41.5, 6.83, 0.99695, 2, 5, 135.68, -4.13, 0.00211, 6, 36.32, -13.74, 0.99789, 2, 5, 97.16, -15.95, 0.53471, 6, -3.94, -15.34, 0.46529, 2, 5, 86.23, -18.85, 0.712, 6, -15.24, -15.36, 0.288 ],
				"hull": 13
			}
		},
		"body": {
			"body": {
				"type": "mesh",
				"uvs": [ 0.47501, 1.0E-5, 0.44859, 0.07191, 0.11432, 0.15625, 0.09553, 0.29496, 0, 1, 0.83252, 1, 0.98621, 0.34619, 0.99999, 0.28758, 0.8231, 0.12752, 0.75347, 1.0E-5, 0.43986, 0.30461 ],
				"triangles": [ 10, 2, 1, 3, 2, 10, 6, 8, 7, 1, 0, 9, 8, 1, 9, 10, 1, 8, 10, 8, 6, 5, 10, 6, 4, 3, 10, 5, 4, 10 ],
				"vertices": [ 176.46, -2.73, 162.88, 0.05, 139.94, 55.31, 114.49, 55.16, -14.89, 54.38, 4.36, -88.35, 125.85, -98.8, 136.73, -99.73, 161.51, -65.51, 182.9, -50.47, 120.71, -4.11 ],
				"hull": 10
			}
		},
		"breastL": {
			"breastL": {
				"type": "mesh",
				"uvs": [ 0.65783, 0.10406, 0.33824, 0.21196, 0, 0.47332, 0, 0.64172, 0, 0.78853, 0.17815, 1, 0.51715, 0.98505, 0.87207, 0.64944, 0.96608, 0.24286, 0.95826, 0.02978, 0.24392, 0.74316, 0.63438, 0.64149 ],
				"triangles": [ 11, 1, 0, 10, 2, 1, 10, 3, 2, 1, 11, 10, 4, 3, 10, 6, 10, 11, 5, 4, 10, 5, 10, 6, 0, 9, 8, 11, 0, 8, 7, 11, 8, 6, 11, 7 ],
				"vertices": [ 2, 2, 110.65, 39.06, 0.392, 8, 41.51, 37.56, 0.608, 2, 2, 98.4, 62.88, 0.232, 8, 16.27, 28.58, 0.768, 2, 2, 73.33, 86.46, 0.072, 8, -10.44, 6.87, 0.928, 2, 2, 59.48, 84.59, 0.096, 8, -10.42, -7.11, 0.904, 2, 2, 47.41, 82.97, 0.152, 8, -10.41, -19.29, 0.848, 2, 2, 31.89, 66.67, 0.384, 8, 3.67, -36.83, 0.616, 2, 2, 36.7, 40.3, 0.576, 8, 30.45, -35.57, 0.424, 1, 2, 68.05, 16.23, 1, 1, 2, 102.49, 13.38, 1, 1, 2, 119.93, 16.36, 1, 2, 2, 53.71, 64.37, 0.28, 8, 8.85, -15.51, 0.72, 2, 2, 66.2, 34.93, 0.36, 8, 39.69, -7.05, 0.64 ],
				"hull": 10
			}
		},
		"breastR": {
			"breastR": {
				"type": "mesh",
				"uvs": [ 0.42971, 0.02331, 0.15747, 0.2347, 0, 0.43229, 1.0E-5, 0.77056, 0.11728, 0.98702, 0.60531, 1, 0.98963, 0.706, 0.99999, 0.00776, 0.3343, 0.3521, 0.21273, 0.61023, 0.47859, 0.75763, 0.77571, 0.55386, 0.68293, 0.32139, 0.4891, 0.52523 ],
				"triangles": [ 12, 0, 7, 8, 1, 0, 8, 0, 12, 11, 12, 7, 8, 2, 1, 9, 2, 8, 6, 11, 7, 3, 2, 9, 4, 3, 9, 4, 9, 10, 5, 10, 11, 5, 11, 6, 4, 10, 5, 13, 8, 12, 13, 12, 11, 9, 8, 13, 10, 9, 13, 10, 13, 11 ],
				"vertices": [ 1, 2, 111.62, 7.93, 1, 2, 9, -26.95, 25.56, 0.416, 2, 92.19, 27.01, 0.584, 2, 9, -39.38, 9.94, 0.304, 2, 75.06, 37.25, 0.696, 2, 9, -39.36, -16.78, 0.36, 2, 48.58, 33.68, 0.64, 2, 9, -30.08, -33.87, 0.432, 2, 32.87, 22.21, 0.568, 2, 9, 8.47, -34.87, 0.24, 2, 37.01, -16.13, 0.76, 2, 9, 38.82, -11.62, 0.072, 2, 64.08, -43.12, 0.928, 1, 2, 118.86, -36.56, 1, 2, 9, -12.98, 16.3, 0.456, 2, 84.87, 11.93, 0.544, 2, 9, -22.57, -4.1, 0.56, 2, 63.38, 18.72, 0.44, 2, 9, -1.55, -15.73, 0.50795, 2, 54.64, -3.65, 0.49205, 2, 9, 21.91, 0.39, 0.544, 2, 73.73, -24.76, 0.456, 2, 9, 14.56, 18.75, 0.49256, 2, 90.95, -15.04, 0.50744, 2, 9, -0.74, 2.63, 0.784, 2, 72.95, -2.02, 0.216 ],
				"hull": 8
			}
		},
		"breastlight": {
			"breastlight": { "x": -1.39, "y": -1.87, "rotation": 22.43, "width": 29, "height": 33 }
		},
		"breastlight2": {
			"breastlight": { "x": -1.39, "y": -1.87, "rotation": 22.43, "width": 29, "height": 33 }
		},
		"clothR": {
			"clothR": {
				"type": "mesh",
				"uvs": [ 0.33037, 0.24362, 0.56371, 0, 0.73038, 0, 1, 0, 0.99704, 0.50283, 0.73837, 0.62532, 0.67878, 0.99999, 1.0E-5, 0.98011, 1.0E-5, 0.74792, 0.46504, 0.79053, 0.27837, 0.51707 ],
				"triangles": [ 9, 0, 1, 9, 1, 5, 0, 9, 10, 6, 9, 5, 7, 9, 6, 7, 8, 9, 4, 2, 3, 5, 2, 4, 1, 2, 5 ],
				"vertices": [ 3, 15, -80.13, 3.69, 0.03439, 14, -1.92, 16.09, 0.90161, 2, 78.42, 35.55, 0.064, 2, 15, -38.99, 24.6, 0.55205, 14, 39.21, 37.01, 0.44795, 2, 15, -19.39, 22.94, 0.80068, 14, 58.82, 35.34, 0.19932, 1, 15, 12.03, 25.75, 1, 1, 15, 11.59, -7.37, 1, 2, 15, -22.29, -9.63, 0.61451, 14, 55.91, 2.77, 0.38549, 2, 15, -32.87, -37.56, 0.344, 14, 45.33, -25.15, 0.656, 3, 15, -126.84, -44.57, 0.136, 14, -48.64, -32.16, 0.64973, 2, 24.39, 75.44, 0.21427, 2, 14, -48.24, -17.91, 0.792, 2, 38.58, 76.94, 0.208, 3, 15, -61.12, -32.47, 0.16611, 14, 17.09, -20.07, 0.69041, 2, 45.12, 11.9, 0.14348, 2, 14, -9.21, -2.08, 0.888, 2, 59.45, 40.36, 0.112 ],
				"hull": 11
			}
		},
		"handR1": {
			"handR1": { "path": "Rhand1", "x": 63.61, "y": 2.68, "rotation": 110.14, "width": 103, "height": 135 }
		},
		"head": {
			"head": {
				"type": "mesh",
				"uvs": [ 0.74031, 0.02426, 0.52911, 0.06295, 0.43273, 0.02036, 0.13785, 0.1495, 0.11716, 0.51057, 0.01586, 0.60198, 0.01511, 0.73273, 0.14732, 0.77504, 0.13591, 0.88225, 0.12584, 0.97691, 0.18457, 0.95821, 0.20898, 0.86343, 0.26631, 0.67444, 0.37406, 0.80281, 0.47042, 0.80188, 0.55785, 0.75718, 0.54749, 0.90119, 0.56388, 1, 0.61734, 1, 0.61418, 0.90322, 0.64915, 0.8544, 0.86957, 0.65037, 1, 0.57704, 0.93829, 0.31333, 0.95508, 0.12549, 0.41739, 0.52761, 0.45306, 0.49952, 0.54767, 0.50148, 0.59559, 0.53058, 0.53724, 0.55865, 0.46143, 0.55003, 0.24602, 0.49602, 0.30309, 0.49338, 0.34032, 0.53935, 0.28065, 0.54495, 0.23893, 0.53825, 0.23065, 0.52239, 0.31698, 0.69193, 0.35529, 0.73035, 0.41772, 0.73159, 0.47446, 0.70162, 0.41819, 0.66919, 0.35194, 0.66799, 0.34064, 0.69704, 0.35738, 0.68565, 0.40756, 0.68688, 0.43244, 0.7013, 0.36226, 0.70456, 0.41081, 0.70669, 0.35951, 0.74776, 0.42534, 0.74512, 0.49499, 0.70113, 0.42988, 0.65695, 0.34661, 0.65675, 0.30763, 0.68974, 0.23256, 0.54313, 0.28052, 0.55686, 0.35409, 0.54347, 0.31268, 0.48807, 0.24187, 0.48921, 0.21658, 0.52162, 0.27537, 0.52731, 0.46232, 0.52846, 0.54029, 0.53331, 0.44116, 0.49439, 0.40274, 0.52834, 0.45091, 0.55896, 0.54123, 0.56665, 0.60846, 0.53383, 0.55435, 0.49446, 0.3854, 0.46205, 0.46548, 0.4595, 0.52731, 0.45304, 0.37188, 0.44299, 0.45372, 0.44477, 0.56855, 0.43185, 0.2288, 0.44854, 0.28826, 0.449, 0.3377, 0.46635, 0.2241, 0.43511, 0.28651, 0.43342, 0.35244, 0.44861 ],
				"triangles": [ 41, 42, 53, 52, 41, 53, 45, 44, 42, 41, 45, 42, 44, 43, 42, 52, 40, 41, 45, 41, 46, 47, 44, 45, 47, 45, 48, 38, 43, 47, 39, 48, 46, 38, 47, 48, 39, 38, 48, 50, 39, 40, 49, 38, 39, 49, 39, 50, 49, 54, 38, 23, 0, 24, 75, 1, 0, 75, 0, 23, 80, 3, 2, 73, 80, 2, 1, 73, 2, 79, 3, 80, 1, 74, 73, 75, 74, 1, 76, 79, 80, 81, 80, 73, 78, 77, 80, 76, 80, 77, 72, 74, 75, 71, 74, 72, 70, 73, 74, 70, 74, 71, 81, 78, 80, 58, 77, 78, 59, 76, 77, 59, 77, 58, 32, 59, 58, 64, 70, 71, 69, 72, 75, 71, 72, 69, 64, 71, 69, 31, 59, 32, 26, 64, 69, 27, 26, 69, 4, 3, 79, 4, 79, 76, 60, 4, 76, 59, 60, 76, 36, 60, 59, 31, 36, 59, 61, 31, 32, 36, 31, 61, 64, 65, 70, 25, 64, 26, 25, 65, 64, 62, 26, 27, 25, 26, 62, 75, 68, 69, 28, 69, 68, 27, 69, 28, 63, 62, 27, 63, 27, 28, 23, 68, 75, 35, 36, 61, 58, 78, 57, 33, 58, 57, 32, 58, 33, 61, 32, 33, 81, 73, 70, 70, 78, 81, 70, 57, 78, 55, 36, 35, 60, 36, 55, 65, 57, 70, 34, 61, 33, 35, 61, 34, 30, 25, 62, 30, 62, 63, 56, 35, 34, 55, 35, 56, 56, 34, 33, 56, 33, 57, 29, 30, 63, 29, 63, 28, 66, 25, 30, 65, 25, 66, 67, 29, 28, 30, 29, 67, 66, 30, 67, 67, 28, 68, 21, 68, 23, 22, 21, 23, 53, 56, 57, 66, 57, 65, 52, 57, 66, 53, 57, 52, 12, 55, 56, 12, 56, 53, 4, 60, 55, 12, 4, 55, 5, 4, 12, 54, 12, 53, 37, 54, 53, 42, 37, 53, 42, 43, 37, 67, 52, 66, 51, 52, 67, 46, 41, 40, 51, 40, 52, 43, 44, 47, 48, 45, 46, 37, 43, 38, 39, 46, 40, 50, 40, 51, 54, 37, 38, 15, 67, 68, 15, 68, 21, 51, 67, 15, 12, 7, 5, 14, 50, 51, 14, 51, 15, 13, 49, 50, 13, 50, 14, 12, 54, 49, 13, 12, 49, 20, 15, 21, 11, 7, 12, 8, 7, 11, 16, 15, 20, 19, 16, 20, 17, 16, 19, 17, 19, 18, 7, 6, 5, 10, 8, 11, 9, 8, 10 ],
				"vertices": [ 1, 3, 137.18, -22.48, 1, 1, 3, 129.41, 3.59, 1, 1, 3, 136.09, 15.96, 1, 1, 3, 112.48, 51.78, 1, 1, 3, 51.05, 51.57, 1, 2, 11, 45.1, 47.17, 0.624, 3, 34.95, 63.52, 0.376, 2, 11, 22.89, 46.25, 0.568, 3, 12.74, 62.6, 0.432, 2, 11, 16.46, 29.41, 0.4, 3, 6.3, 45.76, 0.6, 2, 11, -1.81, 30.01, 0.56, 3, -11.97, 46.36, 0.44, 2, 11, -17.94, 30.53, 0.848, 3, -28.1, 46.88, 0.152, 2, 11, -14.44, 23.35, 0.72, 3, -24.59, 39.69, 0.28, 2, 11, 1.8, 21.03, 0.536, 3, -8.36, 37.38, 0.464, 1, 3, 24.06, 31.68, 1, 1, 3, 2.88, 17.23, 1, 1, 3, 3.58, 5.21, 1, 1, 3, 11.67, -5.36, 1, 1, 3, -12.84, -5.18, 1, 1, 3, -29.53, -7.99, 1, 1, 3, -29.23, -14.67, 1, 1, 3, -12.81, -13.53, 1, 1, 3, -4.32, -17.52, 1, 1, 3, 31.58, -43.46, 1, 1, 3, 44.78, -59.18, 1, 1, 3, 89.21, -49.44, 1, 1, 3, 121.21, -50.08, 1, 1, 3, 49.86, 13.95, 1, 1, 3, 54.83, 9.71, 1, 1, 3, 55.04, -2.12, 1, 1, 3, 50.37, -8.32, 1, 1, 3, 45.27, -1.25, 1, 1, 3, 46.3, 8.28, 1, 1, 3, 54.25, 35.59, 1, 1, 3, 55.02, 28.49, 1, 1, 3, 47.43, 23.48, 1, 1, 3, 46.14, 30.89, 1, 1, 3, 47.04, 36.15, 1, 1, 3, 49.68, 37.31, 1, 2, 3, 21.38, 25.22, 0.928, 13, -6.73, -3.3, 0.072, 1, 12, -3.74, -1.44, 1, 1, 12, 4.06, -1.65, 1, 2, 3, 20.63, 5.48, 0.712, 13, 12.96, -4.93, 0.288, 2, 3, 25.82, 12.76, 0.056, 13, 5.92, 0.58, 0.944, 1, 13, -2.36, 0.78, 1, 1, 3, 20.65, 22.22, 1, 2, 3, 22.68, 20.22, 0.32, 13, -1.68, -2.23, 0.68, 2, 3, 22.75, 13.95, 0.328, 13, 4.59, -2.43, 0.672, 1, 3, 20.45, 10.73, 1, 2, 3, 19.5, 19.47, 0.24, 12, -2.88, 2.94, 0.76, 2, 3, 19.41, 13.39, 0.2, 12, 3.19, 2.59, 0.8, 2, 3, 12.14, 19.48, 0.49822, 12, -3.21, -4.4, 0.50178, 2, 3, 12.97, 11.28, 0.584, 12, 5.02, -3.95, 0.416, 1, 3, 20.83, 2.92, 1, 2, 3, 27.97, 11.39, 0.704, 13, 7.38, 2.66, 0.296, 2, 3, 27.53, 21.79, 0.624, 13, -3.03, 2.69, 0.376, 1, 3, 21.7, 26.4, 1, 1, 3, 46.17, 36.91, 1, 2, 3, 44.11, 30.82, 0.99702, 13, -11.31, 19.66, 0.00298, 2, 3, 46.81, 21.73, 0.99068, 13, -2.11, 21.94, 0.00932, 1, 3, 55.98, 27.33, 1, 1, 3, 55.38, 36.16, 1, 1, 3, 49.73, 39.07, 1, 1, 3, 49.1, 31.69, 1, 1, 3, 49.97, 8.33, 1, 1, 3, 49.59, -1.44, 1, 1, 3, 55.64, 11.24, 1, 2, 3, 49.65, 15.77, 0.99861, 13, 3.97, 24.52, 0.00139, 2, 3, 44.73, 9.52, 0.97272, 13, 9.99, 19.32, 0.02728, 1, 3, 43.93, -1.81, 1, 1, 3, 49.89, -9.96, 1, 1, 3, 56.27, -2.9, 1, 1, 3, 60.81, 18.45, 1, 1, 3, 61.7, 8.47, 1, 1, 3, 63.15, 0.8, 1, 1, 3, 63.97, 20.29, 1, 1, 3, 64.13, 10.06, 1, 1, 3, 66.98, -4.18, 1, 1, 3, 62.22, 38.11, 1, 1, 3, 62.47, 30.68, 1, 1, 3, 59.81, 24.38, 1, 1, 3, 64.47, 38.8, 1, 1, 3, 65.11, 31.02, 1, 1, 3, 62.91, 22.67, 1 ],
				"hull": 25
			}
		},
		"headwear": {
			"headwear": { "x": 24.34, "y": 4.43, "rotation": 6.71, "width": 65, "height": 41 }
		},
		"pice1": {
			"pice1": {
				"type": "mesh",
				"uvs": [ 0.14899, 0.22903, 0, 0.37012, 0.11044, 0.77187, 0.30991, 0.99999, 0.49819, 0.93816, 0.63486, 0.61845, 0.98197, 1.0E-5, 0.67038, 0, 0.46031, 0.46547, 0.27511, 0.59793 ],
				"triangles": [ 4, 9, 5, 5, 7, 6, 5, 8, 7, 5, 9, 8, 1, 0, 9, 2, 1, 9, 3, 2, 9, 4, 3, 9 ],
				"vertices": [ 2, 17, -0.2, 45.35, 0.376, 18, -38.38, -3.69, 0.624, 1, 17, -9.53, 36.65, 1, 1, 17, -2.61, 11.88, 1, 1, 17, 9.88, -2.19, 1, 2, 17, 21.68, 1.63, 0.392, 18, -16.5, -47.41, 0.608, 2, 17, 30.25, 21.34, 0.088, 18, -7.93, -27.7, 0.912, 1, 18, 13.82, 10.44, 1, 1, 18, -5.71, 10.44, 1, 2, 17, 19.31, 30.77, 0.216, 18, -18.87, -18.27, 0.784, 2, 17, 7.7, 22.61, 0.504, 18, -30.47, -26.43, 0.496 ],
				"hull": 10
			}
		},
		"pice2": {
			"pice2": { "x": -5.13, "y": -1.12, "width": 36, "height": 43 }
		},
		"water": {
			"water": {
				"type": "mesh",
				"uvs": [ 1, 1, 0, 1, 0, 0, 1, 0 ],
				"triangles": [ 1, 2, 3, 1, 3, 0 ],
				"vertices": [ 22.82, -13.99, 20.64, 34.7, 69.33, 36.88, 71.51, -11.81 ],
				"hull": 4
			}
		},
		"wather2": {
			"wather2": {
				"type": "mesh",
				"uvs": [ 1, 1, 0, 1, 0, 0, 1, 0 ],
				"triangles": [ 1, 2, 3, 1, 3, 0 ],
				"vertices": [ 75.62, -37.42, 61.8, 65.65, 118.3, 73.23, 132.12, -29.85 ],
				"hull": 4
			}
		}
	}
},
"animations": {
	"captive": {
		"slots": {
			"Bhand": {
				"color": [
					{ "time": 1.1667, "color": "ffffffff" },
					{ "time": 1.5, "color": "ffffff00" }
				]
			},
			"L_cioth": {
				"color": [
					{ "time": 1.1667, "color": "ffffffff" },
					{ "time": 1.5, "color": "ffffff00" }
				]
			},
			"Lhair": {
				"color": [
					{ "time": 1.1667, "color": "ffffffff" },
					{ "time": 1.5, "color": "ffffff00" }
				]
			},
			"Rhair": {
				"color": [
					{ "time": 1.1667, "color": "ffffffff" },
					{ "time": 1.5, "color": "ffffff00" }
				]
			},
			"Rhand2": {
				"color": [
					{ "time": 1.1667, "color": "ffffffff" },
					{ "time": 1.5, "color": "ffffff00" }
				]
			},
			"body": {
				"color": [
					{ "time": 1.1667, "color": "ffffffff" },
					{ "time": 1.5, "color": "ffffff00" }
				]
			},
			"breastL": {
				"color": [
					{ "time": 1.1667, "color": "ffffffff" },
					{ "time": 1.5, "color": "ffffff00" }
				]
			},
			"breastR": {
				"color": [
					{ "time": 1.1667, "color": "ffffffff" },
					{ "time": 1.5, "color": "ffffff00" }
				]
			},
			"breastlight": {
				"color": [
					{ "time": 1.1667, "color": "ffffffff" },
					{ "time": 1.5, "color": "ffffff00" }
				]
			},
			"breastlight2": {
				"color": [
					{ "time": 1.1667, "color": "ffffff84" },
					{ "time": 1.5, "color": "ffffff00" }
				]
			},
			"clothR": {
				"color": [
					{ "time": 1.1667, "color": "ffffffff" },
					{ "time": 1.5, "color": "ffffff00" }
				]
			},
			"handR1": {
				"color": [
					{ "time": 1.1667, "color": "ffffffff" },
					{ "time": 1.5, "color": "ffffff00" }
				]
			},
			"head": {
				"color": [
					{ "time": 1.1667, "color": "ffffffff" },
					{ "time": 1.5, "color": "ffffff00" }
				]
			},
			"headwear": {
				"color": [
					{ "time": 1.1667, "color": "ffffffff" },
					{ "time": 1.5, "color": "ffffff00" }
				]
			},
			"pice1": {
				"color": [
					{ "time": 1.1667, "color": "ffffffff" },
					{ "time": 1.5, "color": "ffffff00" }
				]
			},
			"pice2": {
				"color": [
					{ "time": 1.1667, "color": "ffffffff" },
					{ "time": 1.5, "color": "ffffff00" }
				]
			},
			"water": {
				"color": [
					{ "time": 1.1667, "color": "ffffffff" },
					{ "time": 1.5, "color": "ffffff00" }
				],
				"attachment": [
					{ "time": 0, "name": null },
					{ "time": 0.3333, "name": "water" }
				]
			},
			"wather2": {
				"color": [
					{ "time": 1.1667, "color": "ffffffff" },
					{ "time": 1.5, "color": "ffffff00" }
				],
				"attachment": [
					{ "time": 0, "name": null },
					{ "time": 0.3333, "name": "wather2" }
				]
			}
		},
		"bones": {
			"breastL": {
				"rotate": [
					{ "time": 0.1667, "angle": 0 },
					{ "time": 0.5, "angle": -4.47 }
				],
				"translate": [
					{ "time": 0.1667, "x": -13.93, "y": -11.46 },
					{ "time": 0.4333, "x": 22.04, "y": 3.44 },
					{ "time": 0.5, "x": 31.06, "y": 7.2 },
					{ "time": 0.8333, "x": 11.52, "y": -10.04 },
					{ "time": 1.1667, "x": 9.69, "y": -7.87 },
					{ "time": 1.5, "x": 9.18, "y": -9.35 }
				],
				"scale": [
					{ "time": 0.1667, "x": 1, "y": 1 },
					{ "time": 0.5, "x": 0.928, "y": 0.75 },
					{ "time": 0.8333, "x": 1, "y": 0.859 },
					{ "time": 1.5, "x": 1.03, "y": 0.928 }
				]
			},
			"character": {
				"rotate": [
					{ "time": 0, "angle": 8.37 },
					{ "time": 0.6667, "angle": 0.05 },
					{ "time": 1, "angle": 2.59 }
				],
				"translate": [
					{ "time": 0, "x": 0.86, "y": 53.83 },
					{ "time": 0.1667, "x": -0.62, "y": 54.08 },
					{ "time": 0.5, "x": -0.62, "y": -19.47 }
				],
				"scale": [
					{ "time": 0, "x": 0.565, "y": 0.565, "curve": "stepped" },
					{ "time": 0.1667, "x": 0.565, "y": 0.565 },
					{ "time": 0.5, "x": 1.2, "y": 1.2 },
					{ "time": 0.6667, "x": 1.1, "y": 1.1 }
				]
			},
			"breastR": {
				"translate": [
					{ "time": 0.1667, "x": -20.03, "y": 1.33 },
					{ "time": 0.4333, "x": 23.21, "y": -30.56 },
					{ "time": 0.5, "x": 34.04, "y": -38.51 },
					{ "time": 0.8333, "x": -0.74, "y": -2.88 },
					{ "time": 1.1667, "x": 7, "y": -30.06 },
					{ "time": 1.5, "x": 6.47, "y": -19.64 }
				]
			},
			"handR1": {
				"rotate": [
					{ "time": 0, "angle": 0.48 },
					{ "time": 0.5, "angle": -3.32 },
					{ "time": 0.8333, "angle": -7.41 },
					{ "time": 1.5, "angle": 0.04 }
				],
				"translate": [
					{ "time": 0.3333, "x": 0, "y": 0 },
					{ "time": 0.4333, "x": 0.07, "y": 1.63 },
					{ "time": 0.8333, "x": 0.43, "y": 8.28 }
				]
			},
			"Rhand2": {
				"rotate": [
					{ "time": 0.1667, "angle": 0 },
					{ "time": 0.5, "angle": -3.81 },
					{ "time": 0.8333, "angle": -7.83 }
				]
			},
			"Rhand3": {
				"rotate": [
					{ "time": 0.1667, "angle": 0 },
					{ "time": 0.5, "angle": 6.94 },
					{ "time": 0.8333, "angle": -22.12 },
					{ "time": 1.5, "angle": -32.12 }
				]
			},
			"head": {
				"rotate": [
					{ "time": 0.1667, "angle": 5.67 },
					{ "time": 0.5, "angle": -9.33 },
					{ "time": 0.8333, "angle": 4.37 },
					{ "time": 1.5, "angle": -1.3 }
				],
				"translate": [
					{ "time": 0.1667, "x": -6.4, "y": -0.86 },
					{ "time": 0.4333, "x": -1.63, "y": -2.82 },
					{ "time": 0.5, "x": -0.42, "y": -3.28 },
					{ "time": 0.8333, "x": -3.2, "y": -3.66 }
				]
			},
			"Lbreastlight": {
				"rotate": [
					{ "time": 0.1667, "angle": -2.02 },
					{ "time": 0.5, "angle": -48.48 },
					{ "time": 0.8333, "angle": -24.85 },
					{ "time": 1.1667, "angle": -58.03 }
				],
				"translate": [
					{ "time": 0, "x": 6.33, "y": -2.17 },
					{ "time": 0.1667, "x": -9.19, "y": 2.82 },
					{ "time": 0.5, "x": 18.51, "y": -4.47 },
					{ "time": 0.6667, "x": 20.55, "y": -4.82 },
					{ "time": 0.8333, "x": 9.22, "y": -10.63 },
					{ "time": 1.1667, "x": 12.69, "y": -7.8 },
					{ "time": 1.5, "x": 10.12, "y": -2.76 }
				],
				"scale": [
					{ "time": 0.1667, "x": 1, "y": 1 },
					{ "time": 0.5, "x": 0.629, "y": 0.917 },
					{ "time": 0.8333, "x": 0.93, "y": 1.516 },
					{ "time": 1.1667, "x": 0.887, "y": 1.138 },
					{ "time": 1.5, "x": 0.844, "y": 0.669 }
				]
			},
			"hair": {
				"translate": [
					{ "time": 0.1667, "x": -1.56, "y": 16.03 },
					{ "time": 0.5, "x": 2.26, "y": -1.55 },
					{ "time": 0.8333, "x": 0.71, "y": 5.74 },
					{ "time": 1.1667, "x": 2.2, "y": 1.51 }
				]
			},
			"headwear": {
				"rotate": [
					{ "time": 0.1667, "angle": -3.96 },
					{ "time": 0.3333, "angle": -3.94 },
					{ "time": 0.5, "angle": 13.33 },
					{ "time": 0.7, "angle": 3.48 },
					{ "time": 1.5, "angle": 2.42 }
				]
			},
			"mouthT": {
				"translate": [
					{ "time": 0.1667, "x": 0, "y": 0 },
					{ "time": 0.5, "x": -2.02, "y": -1.21 },
					{ "time": 0.8333, "x": -1.61, "y": -0.66 },
					{ "time": 1.5, "x": -0.24, "y": -1.08 }
				],
				"scale": [
					{ "time": 0.6667, "x": 1, "y": 1 },
					{ "time": 0.8333, "x": 0.785, "y": 1 }
				]
			},
			"mouthB": {
				"translate": [
					{ "time": 0.1667, "x": 0, "y": 0 },
					{ "time": 0.5, "x": 1.58, "y": -0.08 },
					{ "time": 0.8333, "x": 1.76, "y": 0.11 },
					{ "time": 1.1333, "x": -0.79, "y": -0.24 },
					{ "time": 1.5, "x": 0, "y": -0.8 }
				],
				"scale": [
					{ "time": 0.6667, "x": 1, "y": 1 },
					{ "time": 0.8333, "x": 0.756, "y": 1 }
				]
			},
			"body": {
				"translate": [
					{ "time": 0.4333, "x": -0.02, "y": 0.02 }
				]
			},
			"clothR2": {
				"rotate": [
					{ "time": 0.6667, "angle": 0 },
					{ "time": 1, "angle": 12.9 }
				],
				"translate": [
					{ "time": 0, "x": 13.79, "y": -17.38 },
					{ "time": 0.3333, "x": 46.84, "y": -25.33 },
					{ "time": 0.6667, "x": -0.35, "y": 21.11 },
					{ "time": 1, "x": 23.04, "y": -9.77 },
					{ "time": 1.5, "x": 18.94, "y": -1.14 }
				]
			},
			"clothR3": {
				"rotate": [
					{ "time": 0.3333, "angle": 0 },
					{ "time": 0.6667, "angle": -14.16 },
					{ "time": 1, "angle": -3.23 }
				],
				"translate": [
					{ "time": 0, "x": -32.73, "y": -32.51 },
					{ "time": 0.3333, "x": -19.3, "y": -36.94 },
					{ "time": 0.6667, "x": -10.65, "y": -54.38 },
					{ "time": 1, "x": -18.14, "y": -34.54 },
					{ "time": 1.5, "x": -35.37, "y": -59.32 }
				]
			},
			"clothL": {
				"rotate": [
					{ "time": 0, "angle": -11.46 },
					{ "time": 0.3333, "angle": 0 },
					{ "time": 0.6667, "angle": -1.6 },
					{ "time": 1, "angle": -12.45 },
					{ "time": 1.5, "angle": -25.28 }
				],
				"translate": [
					{ "time": 0, "x": -6.7, "y": -1.57 },
					{ "time": 0.3333, "x": -7.77, "y": 0.69 },
					{ "time": 0.6667, "x": 4.75, "y": -15.34 },
					{ "time": 1.5, "x": -5.96, "y": -24.02 }
				],
				"scale": [
					{ "time": 0.6667, "x": 1, "y": 1 },
					{ "time": 1, "x": 1, "y": 0.746 }
				]
			},
			"clothL2": {
				"rotate": [
					{ "time": 0.5, "angle": 5.8 },
					{ "time": 0.8333, "angle": 33.3 },
					{ "time": 1.5, "angle": 52.59 }
				],
				"translate": [
					{ "time": 0, "x": -10.61, "y": -3.72 },
					{ "time": 0.3333, "x": -18.94, "y": -9.28 },
					{ "time": 0.5, "x": 23.43, "y": 11.67 },
					{ "time": 0.8333, "x": -0.93, "y": 48.87 },
					{ "time": 1.5, "x": -40.31, "y": 39.68 }
				],
				"scale": [
					{ "time": 0.3333, "x": 1, "y": 1 },
					{ "time": 0.6667, "x": 0.777, "y": 0.777 },
					{ "time": 1.5, "x": 1, "y": 1 }
				]
			},
			"clothR": {
				"rotate": [
					{ "time": 0, "angle": 0 },
					{ "time": 0.3333, "angle": -6.75 },
					{ "time": 0.6667, "angle": -4.26 },
					{ "time": 1, "angle": 8.22 },
					{ "time": 1.5, "angle": -1.53 }
				],
				"translate": [
					{ "time": 0.3333, "x": 8.55, "y": 10.35 },
					{ "time": 0.4333, "x": 10.64, "y": 13.03 },
					{ "time": 0.6667, "x": 15.57, "y": 19.36 },
					{ "time": 1, "x": 20.9, "y": 21.75 },
					{ "time": 1.5, "x": 3.52, "y": 15.91 }
				],
				"scale": [
					{ "time": 0.6667, "x": 1, "y": 1 },
					{ "time": 1, "x": 0.771, "y": 1 },
					{ "time": 1.5, "x": 0.74, "y": 1 }
				]
			},
			"Rbreastlight": {
				"rotate": [
					{ "time": 0, "angle": -48.73 },
					{ "time": 1.5, "angle": -45.58 }
				],
				"translate": [
					{ "time": 0, "x": -3.41, "y": 2.21 },
					{ "time": 0.3333, "x": -0.62, "y": 0.19 },
					{ "time": 0.4333, "x": -1.01, "y": -0.02 },
					{ "time": 0.6667, "x": -1.85, "y": -0.43 },
					{ "time": 1, "x": 6.12, "y": 0.39 },
					{ "time": 1.5, "x": -7.17, "y": 2.43 }
				],
				"scale": [
					{ "time": 0, "x": 1.358, "y": 1 },
					{ "time": 0.6667, "x": 1.433, "y": 1.365 },
					{ "time": 1, "x": 1.554, "y": 0.684 },
					{ "time": 1.5, "x": 0.794, "y": 1.396 }
				]
			},
			"pice": {
				"rotate": [
					{ "time": 0.4333, "angle": 0 },
					{ "time": 0.8333, "angle": -25.93 },
					{ "time": 1.5, "angle": -60.14 }
				],
				"translate": [
					{ "time": 0, "x": -6.74, "y": 24.39, "curve": "stepped" },
					{ "time": 0.1667, "x": -6.74, "y": 24.39 },
					{ "time": 0.4333, "x": 19.58, "y": -5.15 },
					{ "time": 0.8333, "x": 18.85, "y": -5.55 },
					{ "time": 1.5, "x": -40.69, "y": 2.22 }
				],
				"scale": [
					{ "time": 0.1667, "x": 0.888, "y": 0.51 },
					{ "time": 0.4333, "x": 0.931, "y": 1 },
					{ "time": 1.5, "x": 0.337, "y": 0.911 }
				]
			},
			"root": {
				"translate": [
					{ "time": 0, "x": 11.74, "y": -13.69 },
					{ "time": 0.3333, "x": 0, "y": 0 }
				]
			}
		},
		"deform": {
			"default": {
				"body": {
					"body": [
						{
							"time": 0,
							"offset": 20,
							"vertices": [ -1.41827, -0.19019 ]
						},
						{
							"time": 0.4333,
							"vertices": [ -0.01832, -0.02158, -0.01832, -0.02158, -0.01832, -0.02158, -0.01832, -0.02158, -0.01834, -0.02158, -0.01834, -0.02158, -0.01834, -0.02158, -0.01834, -0.02158, -0.01832, -0.02157, -0.01832, -0.02157, 2.40505, 0.90534 ]
						},
						{
							"time": 0.5,
							"offset": 20,
							"vertices": [ 3.01439, 1.09877 ]
						},
						{
							"time": 1,
							"offset": 20,
							"vertices": [ -2.22485, 1.79235 ]
						},
						{
							"time": 1.5,
							"offset": 20,
							"vertices": [ 2.35764, 0.59865 ]
						}
					]
				},
				"breastL": {
					"breastL": [
						{
							"time": 0.4333,
							"vertices": [ -0.00719, -0.00847, 0.00845, -0.00972, -0.00422, -0.00503, 0.00503, -0.00574, -0.00133, -0.00156, 0.00157, -0.00181, -0.00174, -0.00208, 0.00209, -0.00237, -0.0028, -0.00329, 0.0033, -0.00379, -0.00702, -0.00831, 0.00829, -0.00951, -0.01053, -0.01244, 0.01239, -0.01425, -0.01829, -0.02159, -0.01829, -0.02159, -0.01829, -0.02159, -0.00513, -0.00606, 0.00605, -0.00695, -0.00659, -0.00778, 0.00777, -0.00892 ]
						}
					]
				},
				"breastR": {
					"breastR": [
						{
							"time": 0.4333,
							"vertices": [ -0.01829, -0.02157, 0.01106, -0.01227, -0.01067, -0.01259, 0.0132, -0.01463, -0.01273, -0.01502, 0.01213, -0.01345, -0.0117, -0.0138, 0.01076, -0.01195, -0.0104, -0.01225, 0.0144, -0.01598, -0.01391, -0.0164, 0.0176, -0.01951, -0.01698, -0.02003, -0.01829, -0.02157, 0.01031, -0.01143, -0.00994, -0.01173, 0.00834, -0.00925, -0.00803, -0.00948, 0.00932, -0.01034, -0.00899, -0.01061, 0.00863, -0.00959, -0.00834, -0.00983, 0.00962, -0.01067, -0.00928, -0.01095 ]
						}
					]
				},
				"head": {
					"head": [
						{ "time": 0.1 },
						{
							"time": 0.6667,
							"vertices": [ -1.4651, -0.30864, -1.42148, -0.29945, -1.59935, -0.33693, -1.29181, -0.27214, -0.11443, -0.02411, 0.12258, 0.02583, 0.12259, 0.02582, 0.55366, 0.11663, 0.55367, 0.11663, 0.75101, 0.15821, 0.75101, 0.15821, 1.09261, 0.23017, 1.09261, 0.23017, 1.38877, 0.29256, 1.38877, 0.29256, 1.35531, 0.28551, 1.35531, 0.28551, 1.06056, 0.22342, 1.06056, 0.22342, 0.48249, 0.10164, 0.94654, 0.1994, 0.98153, 0.20677, 0.86927, 0.18312, 1.338, 0.28187, 1.66893, 0.35158, 1.69002, 0.35603, 1.37102, 0.28882, 1.22455, 0.25797, 0.64167, 0.13518, 0.45241, 0.09531, -0.43784, -0.09223, -1.04791, -0.22076, 0.06361, -0.33311, -2.05068, -0.22414, -1.92469, -0.0128, 0.43001, 0.29848, 2.28742, -0.28047, 0.82862, 0.10525, -1.60836, 0.0825, -2.55615, 0.47261, 0.77419, 0.16307, 1.01605, -1.2607, 0.97759, -1.2688, 1.03627, -0.57174, 0.56307, 0.11862, -0.09334, 0.56781, -0.11128, 0.67694, -0.11603, 0.70589, 0.66647, 0.1404, -0.11048, 0.67208, 0.56633, 0.1193, -0.09387, 0.57109, -0.08929, 0.54319, 0.58606, 0.12346, 0.58488, 0.12321, -0.09695, 0.58981, 0.60839, 0.12816, -0.10085, 0.61351, 0.63628, 0.13404, 0.59653, 0.12566, -0.09888, 0.60155, 0.62149, 0.13092, -0.10302, 0.62672, 0.74501, 0.15694, -0.12349, 0.75127, 0.76493, 0.16114, -0.12679, 0.77136, 0.66042, 0.13913, 0.50253, 0.10586, -0.0833, 0.50676, 0.47248, 0.09953, -0.07832, 0.47646, 0.54904, 0.11566, 0.03801, 0.00801, 0.10218, 0.02152, -0.01694, 0.10303, 0.08755, 0.01844, -0.01451, 0.08829, -2.09513, -0.04563, -0.13535, -0.02852, -0.03891, -0.0082, 0.5233, -0.46911, 0.0806, 0.01698, 0.97481, 0.03901, -1.52876, -0.44523, 0.05671, 0.01195, -0.0094, 0.05719, 0.1774, 0.03737, -0.02941, 0.17889, 0.23713, 0.04995, 0.15591, 0.03285, 0.00528, 0.00111, -3.27258, -1.0015, -2.92187, 1.37183, 0.95407, -0.42499, 0, 0, 0, 0, 0, 0, 0, 0, -1.81016, -0.2615, -3.35865, -0.60181 ]
						},
						{
							"time": 1,
							"offset": 64,
							"vertices": [ -0.25881, 0.07923, 0.25194, -0.21031, 0.19324, -0.0758, 0, 0, -0.45204, 0.15504, -1.05913, -0.14194, 0, 0, -0.04505, 0.39674, -0.06897, -0.06213, -0.39333, 0.02053, -0.13111, 0.00684, 0, 0, 0, 0, 0, 0, 0, 0, 0, 0, 0, 0, 0, 0, 0, 0, 0, 0, 0, 0, 0, 0, 0, 0, 0, 0, 0, 0, 0, 0, 0, 0, 0, 0, 0, 0, 0, 0, 0, 0, 0, 0, 0, 0, 0, 0, 0, 0, 0, 0, 0, 0, 0, 0, 0, 0, 0, 0, 0, 0, 0, 0, 0, 0, 0, 0, 0, 0, 0, 0, 0, 0, 0, 0, 0, 0, 0, 0, 0, 0, 0, 0, 0, 0, 0, 0, 0, 0, -0.65554, 0.03419, -0.08085, -0.65334, -0.65554, 0.03419, 0, 0, 0, 0, -0.27931, -0.31407, 0.7279, 0.09352, -0.35513, -0.50733, 0, 0, 0, 0, 0, 0, -0.99699, -0.2109, -0.68355, 0.75869, 0.06554 ]
						}
					]
				},
				"water": {
					"water": [
						{
							"time": 0.1667,
							"vertices": [ -2.13115, 2.37833, -2.13115, 2.37833, -9.93834, -14.63509, -9.93834, -14.63509 ]
						},
						{
							"time": 0.5,
							"vertices": [ 4.50501, -3.19698, 4.50501, -3.19698, -2.98347, 4.7387, -3.07149, 6.70561 ]
						},
						{
							"time": 1.5,
							"vertices": [ -17.68954, 5.55049, -16.50294, -16.1428, -30.85399, -2.43331, -31.95266, -3.57418 ]
						}
					]
				},
				"wather2": {
					"wather2": [
						{ "time": 0 },
						{
							"time": 0.4333,
							"vertices": [ 7.49458, -2.43772, 7.49458, -2.43772, 10.31167, -4.66124, 10.31167, -4.66124 ]
						},
						{
							"time": 0.5,
							"vertices": [ 8.66873, -2.78786, 8.66873, -2.78786, 11.91921, -5.35346, 11.91921, -5.35346 ]
						},
						{
							"time": 1.5,
							"vertices": [ -12.8519, -1.41486, -12.8519, -1.41486, -16.07982, -5.3186, -8.78741, 3.65469 ]
						}
					]
				}
			}
		}
	}
}
}