{
"skeleton": { "hash": "o7dwW7mT/st4khIGO+ttechSpQ4", "spine": "3.7.94", "width": 162.35, "height": 202.29 },
"bones": [
	{ "name": "root", "x": -8.62, "y": -6.46, "scaleX": 1.2, "scaleY": 1.2 },
	{ "name": "avatar_l", "parent": "root", "x": 30.26, "y": 25.7, "scaleX": 0.715, "scaleY": 0.715 },
	{ "name": "avatar_r", "parent": "root", "x": 29.18, "y": 26.78, "scaleX": 0.715, "scaleY": 0.715 }
],
"slots": [
	{ "name": "avatar_l", "bone": "avatar_l", "attachment": "l" },
	{ "name": "avatar_r", "bone": "avatar_r", "attachment": "r" }
],
"skins": {
	"default": {
		"avatar_l": {
			"l": { "x": -25.62, "y": -14.06, "width": 189, "height": 185 }
		},
		"avatar_r": {
			"r": { "x": -4.5, "y": 9.6, "rotation": -0.27, "width": 149, "height": 235 }
		}
	}
},
"animations": {
	"die": {
		"slots": {
			"avatar_l": {
				"color": [
					{ "time": 0.7, "color": "ffffffff" },
					{ "time": 0.8667, "color": "ffffff00" }
				]
			},
			"avatar_r": {
				"color": [
					{ "time": 0.7, "color": "ffffffff" },
					{ "time": 0.8667, "color": "ffffff00" }
				]
			}
		},
		"bones": {
			"avatar_l": {
				"rotate": [
					{ "time": 0.3333, "angle": 0 },
					{ "time": 0.4333, "angle": -9.2 },
					{ "time": 0.6, "angle": 25.15 },
					{ "time": 0.8667, "angle": 43.03 }
				],
				"translate": [
					{ "time": 0, "x": -3.58, "y": -15.51 },
					{ "time": 0.3333, "x": 0, "y": 0 },
					{ "time": 0.4333, "x": 4.46, "y": 4.3 },
					{ "time": 0.6, "x": -54.79, "y": 6.72 },
					{ "time": 0.8667, "x": -70.68, "y": -112.5 }
				],
				"scale": [
					{ "time": 0.3333, "x": 1, "y": 1 },
					{ "time": 0.4333, "x": 1, "y": 0.935 },
					{ "time": 0.6, "x": 1, "y": 1 }
				]
			},
			"avatar_r": {
				"rotate": [
					{ "time": 0.3333, "angle": 0 },
					{ "time": 0.4333, "angle": -11.66 },
					{ "time": 0.8667, "angle": -31.7 }
				],
				"translate": [
					{ "time": 0, "x": -3.58, "y": -15.51 },
					{ "time": 0.3333, "x": 0, "y": 0 },
					{ "time": 0.4333, "x": 4.91, "y": -0.26 },
					{ "time": 0.6, "x": 74.47, "y": 5.11 },
					{ "time": 0.8667, "x": 83.78, "y": -123.01 }
				],
				"scale": [
					{ "time": 0.3333, "x": 1, "y": 1 },
					{ "time": 0.4333, "x": 1, "y": 0.935 },
					{ "time": 0.6, "x": 1, "y": 1 }
				]
			},
			"root": {
				"translate": [
					{ "time": 0, "x": 2.15, "y": 0 }
				]
			}
		}
	}
}
}