{
"skeleton": { "hash": "Duqqabo5g8XwWK2qU3DKm8xze3M", "spine": "3.7.94", "width": 139.93, "height": 172.2 },
"bones": [
	{ "name": "root", "x": -8.62, "y": -6.46, "scaleX": 0.7, "scaleY": 0.7 },
	{ "name": "avatar_l", "parent": "root", "x": 7.59, "y": 35.63 },
	{ "name": "avatar_r", "parent": "root", "x": -18.49, "y": 40.22 }
],
"slots": [
	{ "name": "avatar_l", "bone": "avatar_l", "attachment": "l" },
	{ "name": "avatar_r", "bone": "avatar_r", "attachment": "r" }
],
"skins": {
	"default": {
		"avatar_l": {
			"l": { "x": -25.62, "y": -14.06, "width": 183, "height": 214 }
		},
		"avatar_r": {
			"r": { "x": 18.36, "y": -2.87, "width": 181, "height": 246 }
		}
	}
},
"animations": {
	"die": {
		"slots": {
			"avatar_l": {
				"color": [
					{ "time": 0.7, "color": "ffffffff" },
					{ "time": 0.8667, "color": "ffffff00" }
				]
			},
			"avatar_r": {
				"color": [
					{ "time": 0.7, "color": "ffffffff" },
					{ "time": 0.8667, "color": "ffffff00" }
				]
			}
		},
		"bones": {
			"avatar_l": {
				"rotate": [
					{ "time": 0.3333, "angle": 0 },
					{ "time": 0.4333, "angle": -9.2 },
					{ "time": 0.6, "angle": 25.15 },
					{ "time": 0.8667, "angle": 43.03 }
				],
				"translate": [
					{ "time": 0.3333, "x": 0, "y": 0 },
					{ "time": 0.4333, "x": 4.46, "y": 4.3 },
					{ "time": 0.6, "x": -54.79, "y": 6.72 },
					{ "time": 0.8667, "x": -70.68, "y": -112.5 }
				],
				"scale": [
					{ "time": 0.3333, "x": 1, "y": 1 },
					{ "time": 0.4333, "x": 1, "y": 0.935 },
					{ "time": 0.6, "x": 1, "y": 1 }
				]
			},
			"avatar_r": {
				"rotate": [
					{ "time": 0.3333, "angle": 0 },
					{ "time": 0.4333, "angle": -11.66 },
					{ "time": 0.8667, "angle": -31.7 }
				],
				"translate": [
					{ "time": 0.3333, "x": 0, "y": 0 },
					{ "time": 0.4333, "x": 4.91, "y": -0.26 },
					{ "time": 0.6, "x": 74.47, "y": 5.11 },
					{ "time": 0.8667, "x": 83.78, "y": -123.01 }
				],
				"scale": [
					{ "time": 0.3333, "x": 1, "y": 1 },
					{ "time": 0.4333, "x": 1, "y": 0.935 },
					{ "time": 0.6, "x": 1, "y": 1 }
				]
			}
		}
	}
}
}