{
"skeleton": { "hash": "5aQGgLeL+RJuw+xX+opGSW83too", "spine": "3.7.94", "width": 1224.93, "height": 773.1 },
"bones": [
	{ "name": "root" },
	{ "name": "GuanYu", "parent": "root", "x": 486.16, "y": -376.24 },
	{ "name": "GuanYu2", "parent": "GuanYu", "length": 149.13, "rotation": 152.38, "x": -32, "y": 242.34 },
	{ "name": "GuanYu3", "parent": "GuanYu2", "length": 423.41, "rotation": -18.64, "x": 149.13 },
	{ "name": "GuanYu4", "parent": "GuanYu", "x": -42.89, "y": 125.33 },
	{ "name": "ZhangFei", "parent": "root", "x": -374.83, "y": -367.26 },
	{ "name": "ZhangFei2", "parent": "ZhangFei", "length": 194.09, "rotation": 40.75, "x": 58.19, "y": 211.04 },
	{ "name": "ZhangFei3", "parent": "ZhangFei2", "length": 402.92, "rotation": 5.13, "x": 194.09 },
	{ "name": "LiuBei", "parent": "root", "x": 54.46, "y": -358.96 },
	{ "name": "LiuBei2", "parent": "LiuBei", "length": 158.47, "rotation": 104.78, "x": -63.31, "y": 135.31 },
	{ "name": "LiuBei3", "parent": "LiuBei2", "length": 267.4, "rotation": -33.72, "x": 151.6, "y": -1.74 },
	{ "name": "LiuBei4", "parent": "LiuBei", "x": -59.76, "y": 54.07 },
	{ "name": "txt", "parent": "root", "y": 110.74 },
	{ "name": "txt_light", "parent": "txt", "y": 4.55, "scaleX": 2, "scaleY": 2 },
	{ "name": "light", "parent": "root", "x": 53.54, "y": 181.33, "scaleX": 3.615, "scaleY": 3.615 },
	{ "name": "d", "parent": "root" }
],
"slots": [
	{ "name": "LiuBei", "bone": "LiuBei", "attachment": "LiuBei" },
	{ "name": "ZhangFei", "bone": "ZhangFei", "attachment": "ZhangFei" },
	{ "name": "GuanYu", "bone": "GuanYu", "attachment": "GuanYu" },
	{ "name": "txt", "bone": "txt", "attachment": "txt" },
	{ "name": "txt_light", "bone": "txt_light", "attachment": "txt_light", "blend": "additive" },
	{ "name": "d", "bone": "d" },
	{ "name": "light", "bone": "light", "attachment": "light", "blend": "additive" }
],
"skins": {
	"default": {
		"GuanYu": {
			"GuanYu": {
				"type": "mesh",
				"uvs": [ 0, 0, 0.01836, 0.19769, 0.40558, 0.56899, 0.43118, 0.59354, 0.45563, 0.61698, 0.46183, 0.64704, 0.46822, 0.67799, 0.49921, 0.82811, 0.52152, 0.92551, 0.53858, 1, 0.80614, 1, 1, 1, 1, 0.50773, 0.78463, 0.45606, 0.68762, 0.52987, 0.67075, 0.58303, 0.63114, 0.54217, 0.6073, 0.51758, 0.58613, 0.49574, 0.56232, 0.47118, 0.53299, 0.44093, 0.10554, 0, 0.74369, 0.64551, 0.62888, 0.73126, 0.67594, 0.86783, 0.77682, 0.83359 ],
				"triangles": [ 2, 1, 20, 1, 21, 20, 1, 0, 21, 16, 5, 17, 16, 6, 5, 17, 4, 18, 17, 5, 4, 4, 19, 18, 4, 3, 19, 19, 3, 20, 3, 2, 20, 11, 25, 12, 9, 24, 10, 24, 25, 10, 11, 10, 25, 9, 8, 24, 8, 7, 24, 7, 23, 24, 24, 23, 25, 23, 22, 25, 25, 22, 12, 7, 6, 23, 23, 15, 22, 23, 16, 15, 23, 6, 16, 15, 14, 22, 22, 13, 12, 22, 14, 13 ],
				"vertices": [ 1, 3, 550.45, -24.56, 1, 1, 3, 445.68, 66.55, 1, 2, 2, 225.75, 37.38, 0.528, 3, 60.85, 59.71, 0.472, 2, 2, 201.47, 45, 0.6, 3, 35.41, 59.26, 0.4, 2, 2, 178.29, 52.28, 0.712, 3, 11.11, 58.82, 0.288, 2, 1, -196.15, 251.69, 0.2, 2, 165.29, 69.41, 0.8, 2, 1, -191.47, 230.06, 0.6, 2, 151.91, 87.04, 0.4, 1, 1, -168.72, 125.12, 1, 1, 1, -152.34, 57.04, 1, 1, 1, -139.82, 4.97, 1, 1, 1, 56.57, 4.97, 1, 1, 1, 198.86, 4.97, 1, 1, 1, 198.86, 349.07, 1, 1, 1, 40.78, 385.19, 1, 1, 1, -30.43, 333.59, 1, 1, 1, -42.81, 296.44, 1, 2, 1, -71.88, 324.99, 0.512, 2, 83.58, -49.5, 0.488, 2, 1, -89.39, 342.19, 0.104, 2, 106.7, -57.7, 0.896, 2, 2, 127.23, -64.98, 0.768, 3, -0.21, -68.57, 0.232, 2, 2, 150.32, -73.16, 0.504, 3, 24.28, -69.03, 0.496, 2, 2, 178.76, -83.25, 0.64, 3, 54.45, -69.59, 0.36, 1, 3, 494.19, -77.8, 1, 1, 1, 10.73, 252.76, 1, 2, 1, -73.54, 192.82, 0.61, 4, -30.66, 67.49, 0.39, 2, 1, -39, 97.36, 0.47, 4, 3.88, -27.97, 0.53, 2, 1, 35.05, 121.29, 0.78, 4, 77.94, -4.04, 0.22 ],
				"hull": 22
			}
		},
		"LiuBei": {
			"LiuBei": {
				"type": "mesh",
				"uvs": [ 0.54677, 0, 0, 0.54253, 0, 0.59868, 0, 0.65144, 0, 0.713, 0, 0.80981, 0.09021, 0.88939, 0, 0.996, 1, 1, 0.88648, 0.82594, 0.73024, 0.77516, 0.73149, 0.61361, 0.51355, 0.59994, 0.45058, 0.73795, 0.34304, 0.70882, 0.28441, 0.66313, 0.23317, 0.62918, 0.1922, 0.59378, 0.2137, 0.56806, 0.65904, 0, 0.48028, 0.83724, 0.44464, 0.98947 ],
				"triangles": [ 18, 0, 19, 18, 1, 0, 17, 1, 18, 6, 15, 14, 15, 6, 4, 6, 5, 4, 4, 16, 15, 4, 3, 16, 3, 17, 16, 3, 2, 17, 2, 1, 17, 7, 6, 21, 20, 6, 14, 21, 6, 20, 10, 12, 11, 20, 13, 10, 7, 21, 8, 8, 21, 10, 21, 20, 10, 10, 9, 8, 13, 12, 10, 20, 14, 13 ],
				"vertices": [ 1, 10, 379.94, 10.45, 1, 2, 9, 169.77, 23.18, 0.616, 10, 1.27, 30.82, 0.384, 1, 9, 134.59, 32.47, 1, 1, 9, 101.53, 41.19, 1, 2, 11, -69.28, 129.01, 0.00258, 9, 62.97, 51.37, 0.99742, 3, 8, -129.05, 120.35, 0.088, 11, -69.28, 66.28, 0.16226, 9, 2.31, 67.38, 0.74974, 2, 11, -45.83, 14.71, 0.83597, 9, -53.54, 57.86, 0.16403, 3, 8, -129.05, -0.3, 0.288, 11, -69.28, -54.37, 0.7063, 10, -276.67, -64.55, 0.0057, 2, 8, 130.95, -2.9, 0.904, 10, -194.74, -311.31, 0.096, 3, 8, 101.44, 109.89, 0.992, 11, 161.2, 55.82, 4.3E-4, 9, -66.61, -152.8, 0.00758, 3, 8, 60.82, 142.8, 0.984, 11, 120.58, 88.73, 7.2E-4, 9, -24.43, -121.93, 0.01528, 1, 8, 61.14, 247.49, 1, 1, 8, 4.48, 256.34, 1, 3, 8, -11.9, 166.91, 0.928, 11, 47.87, 112.84, 0.00116, 9, 17.44, -57.77, 0.07084, 2, 8, -39.85, 185.79, 0.24051, 9, 42.82, -35.56, 0.75949, 2, 8, -55.1, 215.39, 1.1E-4, 9, 75.34, -28.37, 0.99989, 2, 9, 100.01, -21.11, 0.9883, 10, -32.16, -44.75, 0.0117, 2, 9, 124.91, -16.66, 0.6265, 10, -13.92, -27.23, 0.3735, 1, 10, 3.66, -27.1, 1, 1, 10, 389.41, -17.16, 1, 3, 8, -4.17, 102.57, 0.50655, 11, 55.59, 48.5, 0.47041, 9, -46.74, -48.82, 0.02304, 4, 8, -13.44, 3.93, 0.96, 11, 46.32, -50.14, 1.7E-4, 9, -139.75, -14.69, 0, 10, -235.15, -172.52, 0.03982 ],
				"hull": 20
			}
		},
		"ZhangFei": {
			"ZhangFei": {
				"type": "mesh",
				"uvs": [ 1, 0.0442, 0.67127, 0.49039, 0.58941, 0.54326, 0.5078, 0.65535, 0.46268, 0.73357, 0.49489, 0.99876, 0, 1, 0, 0.95912, 0.1098, 0.74007, 0.11428, 0.54322, 0.1934, 0.52119, 0.30468, 0.63493, 0.38769, 0.6061, 0.42509, 0.56378, 0.49669, 0.50322, 0.58117, 0.42129, 0.93244, 0, 1, 0, 0.30741, 0.73992, 0.37555, 0.8367 ],
				"triangles": [ 2, 15, 1, 1, 16, 0, 1, 15, 16, 16, 17, 0, 12, 13, 3, 13, 14, 3, 3, 14, 2, 14, 15, 2, 4, 12, 3, 18, 12, 4, 19, 4, 5, 18, 8, 11, 18, 19, 8, 6, 19, 5, 7, 8, 19, 7, 19, 6, 8, 9, 11, 9, 10, 11, 19, 18, 4, 18, 11, 12 ],
				"vertices": [ 1, 7, 381.35, -25.89, 1, 2, 6, 219.08, -47.52, 0.27796, 7, 20.65, -49.57, 0.72204, 2, 6, 159.35, -34.94, 0.95639, 7, -37.72, -31.7, 0.04361, 2, 5, 141.83, 229.72, 0.16942, 6, 70.03, -49.4, 0.83058, 2, 5, 114.58, 176.77, 0.832, 6, 12.49, -64.79, 0.168, 1, 5, 134.03, -2.76, 1, 1, 5, -164.88, -3.6, 1, 2, 5, -164.88, 24.07, 0.99082, 6, -288.35, 39.65, 0.00918, 2, 5, -98.57, 172.37, 0.936, 6, -133.94, 90.15, 0.064, 1, 5, -95.86, 305.64, 1, 1, 5, -48.07, 320.55, 1, 1, 5, 19.15, 243.55, 1, 2, 5, 69.28, 263.07, 0.784, 6, 46, 26.74, 0.216, 2, 5, 91.87, 291.72, 0.08, 6, 82.39, 29.25, 0.92, 1, 6, 141.81, 24.75, 1, 2, 6, 217.18, 24.22, 0.25737, 7, 25.17, 22.06, 0.74263, 1, 7, 380.63, 24.71, 1, 1, 7, 405.23, -7.85, 1, 1, 5, 20.79, 172.47, 1, 2, 5, 61.95, 106.95, 0.968, 6, -74.58, -72.7, 0.032 ],
				"hull": 18
			}
		},
		"d": {
			"s1": { "width": 650, "height": 650 },
			"s2": { "width": 650, "height": 650 },
			"s3": { "width": 650, "height": 650 },
			"s4": { "width": 650, "height": 650 },
			"s5": { "width": 650, "height": 650 },
			"s6": { "width": 650, "height": 650 },
			"s7": { "width": 650, "height": 650 },
			"s8": { "width": 650, "height": 650 },
			"s9": { "width": 650, "height": 650 },
			"s10": { "width": 650, "height": 650 },
			"s11": { "width": 650, "height": 650 },
			"s12": { "width": 650, "height": 650 },
			"s13": { "width": 650, "height": 650 }
		},
		"light": {
			"light": { "y": 0.5, "width": 152, "height": 121 }
		},
		"txt": {
			"txt": { "y": 0.5, "width": 638, "height": 177 }
		},
		"txt_light": {
			"txt_light": { "x": 0.5, "y": 0.5, "width": 331, "height": 101 }
		}
	}
},
"animations": {
	"Shu": {
		"slots": {
			"GuanYu": {
				"color": [
					{ "time": 3.5, "color": "ffffffff" },
					{ "time": 3.6667, "color": "ffffff00" }
				],
				"attachment": [
					{ "time": 0, "name": null },
					{ "time": 2.5, "name": "GuanYu" }
				]
			},
			"LiuBei": {
				"color": [
					{ "time": 3.5, "color": "ffffffff" },
					{ "time": 3.6667, "color": "ffffff00" }
				],
				"attachment": [
					{ "time": 0, "name": null },
					{ "time": 2.5, "name": "LiuBei" }
				]
			},
			"ZhangFei": {
				"color": [
					{ "time": 3.5, "color": "ffffffff" },
					{ "time": 3.6667, "color": "ffffff00" }
				],
				"attachment": [
					{ "time": 0, "name": null },
					{ "time": 2.5, "name": "ZhangFei" }
				]
			},
			"d": {
				"color": [
					{ "time": 3.5333, "color": "ffffffff" },
					{ "time": 3.7333, "color": "ffffff00" }
				],
				"attachment": [
					{ "time": 3.1667, "name": "s1" },
					{ "time": 3.2333, "name": "s3" },
					{ "time": 3.3, "name": "s5" },
					{ "time": 3.3667, "name": "s7" },
					{ "time": 3.4333, "name": "s9" },
					{ "time": 3.5, "name": "s11" },
					{ "time": 3.5667, "name": "s13" }
				]
			},
			"light": {
				"color": [
					{ "time": 2.6667, "color": "ffffff00" },
					{ "time": 2.7667, "color": "ffffffff", "curve": "stepped" },
					{ "time": 3, "color": "ffffffff" },
					{ "time": 3.1667, "color": "ffffff00" }
				],
				"attachment": [
					{ "time": 0, "name": null },
					{ "time": 2.6667, "name": "light" }
				]
			},
			"txt": {
				"color": [
					{ "time": 2.6667, "color": "ffffff00", "curve": "stepped" },
					{ "time": 2.8333, "color": "ffffff00" },
					{ "time": 3.0333, "color": "ffffffff", "curve": "stepped" },
					{ "time": 3.5, "color": "ffffffff" },
					{ "time": 3.6667, "color": "ffffff00" }
				],
				"attachment": [
					{ "time": 0, "name": null },
					{ "time": 2.6667, "name": "txt" }
				]
			},
			"txt_light": {
				"color": [
					{ "time": 2.5, "color": "ffffff00", "curve": "stepped" },
					{ "time": 2.8333, "color": "ffffff00" },
					{ "time": 3.0667, "color": "ffffffa0" },
					{ "time": 3.5, "color": "ffffff00" }
				],
				"attachment": [
					{ "time": 0, "name": null },
					{ "time": 2.5, "name": "txt_light" }
				]
			}
		},
		"bones": {
			"GuanYu3": {
				"rotate": [
					{ "time": 2.5, "angle": -33.18 },
					{ "time": 2.6667, "angle": 8.73 },
					{ "time": 2.8333, "angle": 4.08 }
				],
				"translate": [
					{ "time": 2.5, "x": -29.66, "y": 33.96 },
					{ "time": 2.6667, "x": -0.31, "y": 32.31 }
				],
				"scale": [
					{ "time": 2.5, "x": 0.9, "y": 0.9 },
					{ "time": 2.6667, "x": 1, "y": 1 }
				]
			},
			"GuanYu2": {
				"rotate": [
					{ "time": 2.5, "angle": -15.48 },
					{ "time": 2.6333, "angle": 0.78 }
				],
				"scale": [
					{ "time": 2.5, "x": 0.825, "y": 1 },
					{ "time": 2.6333, "x": 1, "y": 1 }
				]
			},
			"GuanYu4": {
				"translate": [
					{ "time": 2.5, "x": -28.81, "y": -3.09 },
					{ "time": 2.8333, "x": 66.88, "y": 22.64 },
					{ "time": 3.1667, "x": 16.46, "y": 4.58 }
				]
			},
			"GuanYu": {
				"rotate": [
					{ "time": 2.5, "angle": -7.26 },
					{ "time": 2.7, "angle": -1.02 }
				],
				"translate": [
					{ "time": 2.5, "x": -62.8, "y": -4.12 },
					{ "time": 2.7, "x": -87.88, "y": -4.12, "curve": "stepped" },
					{ "time": 3, "x": -87.88, "y": -4.12 },
					{ "time": 3.3333, "x": -87.88, "y": -208.78 },
					{ "time": 3.5, "x": -87.88, "y": -335.16 }
				]
			},
			"ZhangFei3": {
				"rotate": [
					{ "time": 2.5, "angle": 34.07 },
					{ "time": 2.6667, "angle": -0.97 },
					{ "time": 2.8333, "angle": 0.31 }
				]
			},
			"ZhangFei2": {
				"rotate": [
					{ "time": 2.5, "angle": 37.14 },
					{ "time": 2.6667, "angle": -4.16 },
					{ "time": 2.8333, "angle": 0.37 }
				]
			},
			"ZhangFei": {
				"rotate": [
					{ "time": 2.5, "angle": 6.72 },
					{ "time": 2.7, "angle": -0.61 }
				],
				"translate": [
					{ "time": 2.5, "x": -73.37, "y": 0 },
					{ "time": 2.7, "x": -19.49, "y": 0, "curve": "stepped" },
					{ "time": 3, "x": -19.49, "y": 0 },
					{ "time": 3.5, "x": -19.49, "y": -331.04 }
				]
			},
			"LiuBei3": {
				"rotate": [
					{ "time": 2.5, "angle": -5.85 },
					{ "time": 2.6667, "angle": 10.94 },
					{ "time": 3.1667, "angle": 11.99 }
				],
				"scale": [
					{ "time": 2.5, "x": 0.631, "y": 1 },
					{ "time": 2.6667, "x": 1, "y": 1 }
				]
			},
			"LiuBei": {
				"rotate": [
					{ "time": 2.5, "angle": 1.21 },
					{ "time": 2.7, "angle": -0.45 }
				],
				"translate": [
					{ "time": 2.5, "x": -39.3, "y": -26.59 },
					{ "time": 2.7, "x": 11.54, "y": -10.61, "curve": "stepped" },
					{ "time": 3, "x": 11.54, "y": -10.61 },
					{ "time": 3.3333, "x": 11.54, "y": -215.27 },
					{ "time": 3.5, "x": 11.54, "y": -341.66 }
				],
				"scale": [
					{ "time": 2.5, "x": 1.1, "y": 1.1 }
				]
			},
			"LiuBei4": {
				"translate": [
					{ "time": 2.5, "x": -14.28, "y": 7.35 },
					{ "time": 3.1667, "x": 1, "y": 8.43 }
				]
			},
			"LiuBei2": {
				"translate": [
					{ "time": 2.5, "x": -0.58, "y": -27.63 }
				],
				"scale": [
					{ "time": 2.5, "x": 0.894, "y": 1 },
					{ "time": 2.6667, "x": 1, "y": 1 }
				]
			},
			"txt_light": {
				"scale": [
					{ "time": 2.8333, "x": 1, "y": 1 },
					{ "time": 3.5, "x": 1.233, "y": 1.479 }
				]
			},
			"txt": {
				"translate": [
					{ "time": 2.6667, "x": 0, "y": -107.52 }
				],
				"scale": [
					{ "time": 2.8333, "x": 1.578, "y": 1.578 },
					{ "time": 3.0333, "x": 0.969, "y": 0.969 },
					{ "time": 3.1667, "x": 1, "y": 1 }
				]
			},
			"light": {
				"translate": [
					{ "time": 2.6667, "x": -57.3, "y": -71.29 },
					{ "time": 3, "x": -76.63, "y": -56.93 },
					{ "time": 3.1667, "x": -81.9, "y": -127.21 }
				],
				"scale": [
					{ "time": 2.6667, "x": 1, "y": 1 },
					{ "time": 3, "x": 1.148, "y": 0.973 }
				]
			},
			"d": {
				"translate": [
					{ "time": 3.1667, "x": 17.05, "y": 45.19 },
					{ "time": 3.4, "x": 72.66, "y": 168.71 }
				],
				"scale": [
					{ "time": 3.1667, "x": 1, "y": 1 },
					{ "time": 3.4, "x": 1.691, "y": 1.691 }
				]
			}
		}
	},
	"Shu2": {
		"slots": {
			"GuanYu": {
				"color": [
					{ "time": 3.5, "color": "ffffffff" },
					{ "time": 3.6667, "color": "ffffff00" }
				],
				"attachment": [
					{ "time": 0, "name": null },
					{ "time": 2.5, "name": "GuanYu" }
				]
			},
			"LiuBei": {
				"color": [
					{ "time": 3.5, "color": "ffffffff" },
					{ "time": 3.6667, "color": "ffffff00" }
				],
				"attachment": [
					{ "time": 0, "name": null },
					{ "time": 2.5, "name": "LiuBei" }
				]
			},
			"ZhangFei": {
				"color": [
					{ "time": 3.5, "color": "ffffffff" },
					{ "time": 3.6667, "color": "ffffff00" }
				],
				"attachment": [
					{ "time": 0, "name": null },
					{ "time": 2.5, "name": "ZhangFei" }
				]
			},
			"d": {
				"color": [
					{ "time": 3.5333, "color": "ffffffff" },
					{ "time": 3.7333, "color": "ffffff00" }
				],
				"attachment": [
					{ "time": 3.1667, "name": "s1" },
					{ "time": 3.2333, "name": "s3" },
					{ "time": 3.3, "name": "s5" },
					{ "time": 3.3667, "name": "s7" },
					{ "time": 3.4333, "name": "s9" },
					{ "time": 3.5, "name": "s11" },
					{ "time": 3.5667, "name": "s13" }
				]
			},
			"light": {
				"color": [
					{ "time": 2.6667, "color": "ffffff00" },
					{ "time": 2.7667, "color": "ffffffff", "curve": "stepped" },
					{ "time": 3, "color": "ffffffff" },
					{ "time": 3.1667, "color": "ffffff00" }
				],
				"attachment": [
					{ "time": 0, "name": null },
					{ "time": 2.6667, "name": "light" }
				]
			},
			"txt": {
				"color": [
					{ "time": 2.6667, "color": "ffffff00", "curve": "stepped" },
					{ "time": 2.8333, "color": "ffffff00" },
					{ "time": 3.0333, "color": "ffffffff", "curve": "stepped" },
					{ "time": 3.5, "color": "ffffffff" },
					{ "time": 3.6667, "color": "ffffff00" }
				],
				"attachment": [
					{ "time": 0, "name": null },
					{ "time": 2.6667, "name": "txt" }
				]
			},
			"txt_light": {
				"color": [
					{ "time": 2.5, "color": "ffffff00", "curve": "stepped" },
					{ "time": 2.8333, "color": "ffffff00" },
					{ "time": 3.0667, "color": "ffffffa0" },
					{ "time": 3.5, "color": "ffffff00" }
				],
				"attachment": [
					{ "time": 0, "name": null },
					{ "time": 2.5, "name": "txt_light" }
				]
			}
		},
		"bones": {
			"GuanYu3": {
				"rotate": [
					{ "time": 2.5, "angle": 15.49 },
					{ "time": 2.6667, "angle": 8.73 },
					{ "time": 2.8333, "angle": 4.08 }
				],
				"translate": [
					{ "time": 2.6667, "x": -0.31, "y": 32.31 }
				]
			},
			"GuanYu2": {
				"rotate": [
					{ "time": 2.5, "angle": -15.48 },
					{ "time": 2.6333, "angle": 0.78 }
				],
				"scale": [
					{ "time": 2.5, "x": 0.825, "y": 1 },
					{ "time": 2.6333, "x": 1, "y": 1 }
				]
			},
			"GuanYu4": {
				"translate": [
					{ "time": 2.5, "x": -28.81, "y": -3.09 },
					{ "time": 2.8333, "x": 66.88, "y": 22.64 },
					{ "time": 3.1667, "x": 16.46, "y": 4.58 }
				]
			},
			"GuanYu": {
				"rotate": [
					{ "time": 2.5, "angle": -7.26 },
					{ "time": 2.7, "angle": -1.02 }
				],
				"translate": [
					{ "time": 2.5, "x": -215.06, "y": -50.46 },
					{ "time": 2.7, "x": -87.88, "y": -4.12, "curve": "stepped" },
					{ "time": 3, "x": -87.88, "y": -4.12 },
					{ "time": 3.3333, "x": -87.88, "y": -208.78 },
					{ "time": 3.5, "x": -87.88, "y": -335.16 }
				]
			},
			"ZhangFei3": {
				"rotate": [
					{ "time": 2.5, "angle": -8.12 },
					{ "time": 2.6667, "angle": -0.97 },
					{ "time": 2.8333, "angle": 0.31 }
				]
			},
			"ZhangFei2": {
				"rotate": [
					{ "time": 2.5, "angle": 10.03 },
					{ "time": 2.6667, "angle": -4.16 },
					{ "time": 2.8333, "angle": 0.37 }
				]
			},
			"ZhangFei": {
				"rotate": [
					{ "time": 2.5, "angle": 6.72 },
					{ "time": 2.7, "angle": -0.61 }
				],
				"translate": [
					{ "time": 2.5, "x": 119.33, "y": -49.2 },
					{ "time": 2.7, "x": -19.49, "y": 0, "curve": "stepped" },
					{ "time": 3, "x": -19.49, "y": 0 },
					{ "time": 3.5, "x": -19.49, "y": -331.04 }
				]
			},
			"LiuBei3": {
				"rotate": [
					{ "time": 2.6667, "angle": 10.94 },
					{ "time": 3.1667, "angle": 11.99 }
				],
				"translate": [
					{ "time": 2.5, "x": 28.93, "y": -8.77 }
				]
			},
			"LiuBei": {
				"rotate": [
					{ "time": 2.5, "angle": 1.2 },
					{ "time": 2.7, "angle": -0.45 }
				],
				"translate": [
					{ "time": 2.5, "x": -22.66, "y": -53.83 },
					{ "time": 2.7, "x": 11.54, "y": -10.61, "curve": "stepped" },
					{ "time": 3, "x": 11.54, "y": -10.61 },
					{ "time": 3.3333, "x": 11.54, "y": -215.27 },
					{ "time": 3.5, "x": 11.54, "y": -341.66 }
				],
				"scale": [
					{ "time": 2.5, "x": 1.368, "y": 1.368 }
				]
			},
			"LiuBei4": {
				"translate": [
					{ "time": 2.5, "x": -14.28, "y": 7.35 },
					{ "time": 3.1667, "x": 1, "y": 8.43 }
				]
			},
			"LiuBei2": {
				"rotate": [
					{ "time": 2.5, "angle": -2.59 }
				],
				"translate": [
					{ "time": 2.5, "x": 20.71, "y": -31.39 }
				],
				"scale": [
					{ "time": 2.5, "x": 0.894, "y": 1 },
					{ "time": 2.6667, "x": 1, "y": 1 }
				]
			},
			"txt_light": {
				"scale": [
					{ "time": 2.8333, "x": 1, "y": 1 },
					{ "time": 3.5, "x": 1.233, "y": 1.479 }
				]
			},
			"txt": {
				"translate": [
					{ "time": 2.6667, "x": 0, "y": -107.52 }
				],
				"scale": [
					{ "time": 2.8333, "x": 1.578, "y": 1.578 },
					{ "time": 3.0333, "x": 0.969, "y": 0.969 },
					{ "time": 3.1667, "x": 1, "y": 1 }
				]
			},
			"light": {
				"translate": [
					{ "time": 2.6667, "x": -57.3, "y": -71.29 },
					{ "time": 3, "x": -57.3, "y": -100.85 }
				],
				"scale": [
					{ "time": 2.6667, "x": 1, "y": 1 },
					{ "time": 3, "x": 3.283, "y": 2.781 }
				]
			},
			"d": {
				"translate": [
					{ "time": 3.1667, "x": 17.05, "y": 45.19 },
					{ "time": 3.4, "x": 72.66, "y": 168.71 }
				],
				"scale": [
					{ "time": 3.1667, "x": 1, "y": 1 },
					{ "time": 3.4, "x": 1.691, "y": 1.691 }
				]
			}
		}
	}
}
}