{
"skeleton": { "hash": "oLGQjeKKHN/I9xbjXzWAXK2g26E", "spine": "3.7.94", "width": 1260.5, "height": 738.38 },
"bones": [
	{ "name": "root", "x": 21.04, "y": -433.84, "scaleX": 0.614, "scaleY": 0.614 },
	{
		"name": "txt01",
		"parent": "root",
		"x": -771.71,
		"y": 1162.67,
		"scaleX": 0.5,
		"scaleY": 0.5,
		"shearX": 5.18
	},
	{
		"name": "txt02",
		"parent": "root",
		"x": -16.49,
		"y": 316.55,
		"scaleX": 2,
		"scaleY": 2,
		"shearX": 4.64
	},
	{ "name": "txt03", "parent": "root", "x": -30.85, "y": 679.42, "scaleX": 2.8, "scaleY": 2.8 }
],
"slots": [
	{ "name": "txt03_02", "bone": "txt03", "attachment": "txt03_02" },
	{ "name": "txt03_01", "bone": "txt03", "attachment": "txt03_01", "blend": "additive" },
	{ "name": "txt02_02", "bone": "txt02", "attachment": "txt02_02" },
	{ "name": "txt02_01", "bone": "txt02", "attachment": "txt02_01" },
	{ "name": "txt01_02", "bone": "txt01", "attachment": "txt01_02" },
	{ "name": "txt01_01", "bone": "txt01", "attachment": "txt01_01" }
],
"skins": {
	"default": {
		"txt01_01": {
			"txt01_01": { "y": 0.5, "scaleX": 4, "scaleY": 4, "width": 336, "height": 127 }
		},
		"txt01_02": {
			"txt01_02": { "x": 0.5, "y": 0.5, "scaleX": 4, "scaleY": 4, "width": 321, "height": 127 }
		},
		"txt02_01": {
			"txt02_01": { "x": 0.5, "y": 0.5, "width": 959, "height": 123 }
		},
		"txt02_02": {
			"txt02_02": { "y": 0.5, "width": 947, "height": 123 }
		},
		"txt03_01": {
			"txt03_01": { "x": 0.5, "y": 8.66, "width": 698, "height": 139 }
		},
		"txt03_02": {
			"txt03_02": { "x": 0.5, "y": 0.5, "width": 689, "height": 133 }
		}
	}
},
"animations": {
	"01_XiahouDun": {
		"slots": {
			"txt01_01": {
				"color": [
					{ "time": 0, "color": "ffffff00" },
					{ "time": 0.1667, "color": "ffffffff" },
					{ "time": 0.2333, "color": "ffffff85" },
					{ "time": 0.3, "color": "ffffff00" }
				]
			},
			"txt01_02": {
				"color": [
					{ "time": 0, "color": "ffffff00" },
					{ "time": 0.2333, "color": "ffffffff" }
				]
			},
			"txt02_01": {
				"color": [
					{ "time": 0, "color": "ffffff00", "curve": "stepped" },
					{ "time": 0.1333, "color": "ffffff00" },
					{ "time": 0.3667, "color": "ffffffff" },
					{ "time": 0.4333, "color": "ffffffd7" },
					{ "time": 0.5, "color": "ffffff00" }
				]
			},
			"txt02_02": {
				"color": [
					{ "time": 0, "color": "ffffff00" },
					{ "time": 0.3, "color": "ffffffff" }
				]
			},
			"txt03_01": {
				"attachment": [
					{ "time": 0, "name": null }
				]
			},
			"txt03_02": {
				"attachment": [
					{ "time": 0, "name": null }
				]
			}
		},
		"bones": {
			"txt01": {
				"translate": [
					{
						"time": 0,
						"x": -130.11,
						"y": -162.67,
						"curve": [ 0.25, 0, 0.75, 1 ]
					},
					{ "time": 0.1, "x": 115.61, "y": -162.67 }
				],
				"shear": [
					{ "time": 0.1333, "x": 0, "y": -10.82 },
					{ "time": 0.2, "x": 0, "y": 0 },
					{ "time": 0.2667, "x": 0, "y": 4.31 },
					{ "time": 0.3333, "x": 0, "y": 0 }
				]
			},
			"txt02": {
				"translate": [
					{ "time": 0, "x": -8.79, "y": 43.31 }
				],
				"scale": [
					{ "time": 0.2, "x": 1.8, "y": 1.8 },
					{ "time": 0.3, "x": 1, "y": 1 },
					{ "time": 0.3667, "x": 0.96, "y": 0.96 },
					{ "time": 0.4333, "x": 1, "y": 1 }
				]
			}
		}
	},
	"02_XiahouDun": {
		"slots": {
			"txt01_01": {
				"color": [
					{ "time": 0, "color": "ffffff00" }
				]
			},
			"txt01_02": {
				"color": [
					{ "time": 0, "color": "ffffffff" },
					{ "time": 0.3333, "color": "ffffff00" }
				]
			},
			"txt02_01": {
				"color": [
					{ "time": 0, "color": "ffffff00" }
				]
			},
			"txt02_02": {
				"color": [
					{ "time": 0, "color": "ffffffff" },
					{ "time": 0.3333, "color": "ffffff00" }
				]
			},
			"txt03_01": {
				"color": [
					{ "time": 0, "color": "ffffff00", "curve": "stepped" },
					{ "time": 0.3333, "color": "ffffff00" },
					{ "time": 0.5667, "color": "ffffffff", "curve": "stepped" },
					{ "time": 0.8667, "color": "ffffffff" },
					{ "time": 1, "color": "ffffff00" }
				]
			},
			"txt03_02": {
				"color": [
					{ "time": 0, "color": "ffffff00", "curve": "stepped" },
					{ "time": 0.3333, "color": "ffffff00" },
					{ "time": 0.5667, "color": "ffffffff", "curve": "stepped" },
					{ "time": 0.6333, "color": "ffffffff" },
					{ "time": 1, "color": "ffffff00" }
				]
			}
		},
		"bones": {
			"txt01": {
				"translate": [
					{ "time": 0, "x": 115.61, "y": -162.67 }
				]
			},
			"txt02": {
				"translate": [
					{ "time": 0, "x": -8.79, "y": 43.31 }
				]
			},
			"txt03": {
				"translate": [
					{ "time": 0.3, "x": 0, "y": -199.34 },
					{ "time": 0.4333, "x": 0, "y": -375.69 }
				],
				"scale": [
					{ "time": 0.3, "x": 0.724, "y": 1 },
					{ "time": 0.4667, "x": 1, "y": 1 }
				]
			}
		}
	}
}
}