{
"skeleton": { "hash": "4YayUNglLpYLrQPGI8EN1/5MVbY", "spine": "3.7.94", "width": 242, "height": 129 },
"bones": [
	{ "name": "root", "y": 48.55 },
	{ "name": "light", "parent": "root", "x": -78.71, "y": 13.55 },
	{ "name": "sword", "parent": "root", "x": -80.73, "y": 8.51 },
	{ "name": "sword2", "parent": "root", "x": 81.73, "y": 8.86, "scaleX": -1 },
	{ "name": "button_txt", "parent": "root", "x": 1.38, "y": 3.3 },
	{ "name": "finger", "parent": "root", "rotation": 180, "x": 1.05, "y": 126.08 }
],
"slots": [
	{ "name": "sword", "bone": "sword", "blend": "additive" },
	{ "name": "sword2", "bone": "sword2", "blend": "additive" },
	{ "name": "bg_light", "bone": "light", "color": "ffb91aff", "blend": "additive" },
	{ "name": "button", "bone": "root", "attachment": "button" },
	{ "name": "light", "bone": "light", "blend": "additive" },
	{ "name": "text3", "bone": "button_txt", "attachment": "text3" },
	{ "name": "text4", "bone": "button_txt", "attachment": "text4", "blend": "additive" },
	{ "name": "button2", "bone": "light", "blend": "additive" },
	{ "name": "finger", "bone": "finger" }
],
"skins": {
	"default": {
		"bg_light": {
			"bg_light": { "scaleX": 2, "scaleY": 2, "width": 51, "height": 53 }
		},
		"button": {
			"button": { "y": 7.89, "width": 242, "height": 129 }
		},
		"button2": {
			"button2": { "x": 0.5, "y": 0.5, "scaleX": 2, "scaleY": 2, "width": 55, "height": 55 }
		},
		"finger": {
			"finger": { "x": 5.62, "y": 8.4, "rotation": -29.77, "width": 55, "height": 66 }
		},
		"light": {
			"sword6": { "y": 0.5, "scaleX": 2, "scaleY": 2, "width": 109, "height": 55 }
		},
		"sword": {
			"sword1": { "y": 0.5, "width": 114, "height": 127 },
			"sword2": { "y": 0.5, "width": 114, "height": 127 },
			"sword3": { "y": 0.5, "width": 114, "height": 127 },
			"sword4": { "y": 0.5, "width": 114, "height": 127 },
			"sword5": { "y": 0.5, "width": 114, "height": 127 }
		},
		"sword2": {
			"sword1": { "y": 0.5, "width": 114, "height": 127 },
			"sword2": { "y": 0.5, "width": 114, "height": 127 },
			"sword3": { "y": 0.5, "width": 114, "height": 127 },
			"sword4": { "y": 0.5, "width": 114, "height": 127 },
			"sword5": { "y": 0.5, "width": 114, "height": 127 }
		},
		"text3": {
			"text3": { "x": 0.16, "width": 55, "height": 91 }
		},
		"text4": {
			"text4": { "x": 0.5, "width": 55, "height": 91 }
		}
	}
},
"animations": {
	"up0": {
		"slots": {
			"button": {
				"attachment": [
					{ "time": 0, "name": null }
				]
			},
			"text3": {
				"attachment": [
					{ "time": 0, "name": null }
				]
			},
			"text4": {
				"attachment": [
					{ "time": 0, "name": null }
				]
			}
		}
	},
	"up1": {
		"slots": {
			"bg_light": {
				"color": [
					{ "time": 0, "color": "ffb81900" },
					{ "time": 0.3333, "color": "ffcf65ff" },
					{ "time": 0.5667, "color": "ffb71900" }
				],
				"attachment": [
					{ "time": 0.3333, "name": "bg_light" }
				]
			},
			"button": {
				"attachment": [
					{ "time": 0, "name": null }
				]
			},
			"sword": {
				"attachment": [
					{ "time": 0.0667, "name": "sword1" },
					{ "time": 0.1333, "name": "sword2" },
					{ "time": 0.2, "name": "sword3" },
					{ "time": 0.2667, "name": "sword4" },
					{ "time": 0.3333, "name": "sword5" }
				]
			},
			"text3": {
				"attachment": [
					{ "time": 0, "name": null }
				]
			},
			"text4": {
				"attachment": [
					{ "time": 0, "name": null }
				]
			}
		},
		"bones": {
			"light": {
				"translate": [
					{ "time": 0, "x": -1.59, "y": -9.6 }
				],
				"scale": [
					{ "time": 0, "x": 0.868, "y": 0.85 },
					{ "time": 0.3333, "x": 1, "y": 1 },
					{ "time": 0.5667, "x": 1.2, "y": 1.197 }
				]
			}
		}
	},
	"up2": {
		"slots": {
			"bg_light": {
				"color": [
					{ "time": 0, "color": "ffb81900" },
					{ "time": 0.3333, "color": "ffcf65ff" },
					{ "time": 0.5667, "color": "ffb71900" }
				],
				"attachment": [
					{ "time": 0.3333, "name": "bg_light" }
				]
			},
			"button": {
				"attachment": [
					{ "time": 0, "name": null }
				]
			},
			"sword": {
				"attachment": [
					{ "time": 0, "name": "sword5" }
				]
			},
			"sword2": {
				"attachment": [
					{ "time": 0.0667, "name": "sword1" },
					{ "time": 0.1333, "name": "sword2" },
					{ "time": 0.2, "name": "sword3" },
					{ "time": 0.2667, "name": "sword4" },
					{ "time": 0.3333, "name": "sword5" }
				]
			},
			"text3": {
				"attachment": [
					{ "time": 0, "name": null }
				]
			},
			"text4": {
				"attachment": [
					{ "time": 0, "name": null }
				]
			}
		},
		"bones": {
			"light": {
				"translate": [
					{ "time": 0.3333, "x": 159.05, "y": -7.71 }
				],
				"scale": [
					{ "time": 0, "x": -0.87, "y": 0.85 },
					{ "time": 0.3333, "x": -1, "y": 1 },
					{ "time": 0.5667, "x": -1.2, "y": 1.197 }
				],
				"shear": [
					{ "time": 0.3333, "x": 0, "y": -1.2 }
				]
			},
			"sword2": {
				"rotate": [
					{ "time": 0, "angle": -178.8 }
				],
				"scale": [
					{ "time": 0, "x": -1, "y": -1 }
				]
			},
			"finger": {
				"translate": [
					{ "time": 0.4667, "x": 81.54, "y": 27.78 }
				]
			}
		}
	},
	"up3": {
		"slots": {
			"button": {
				"color": [
					{ "time": 0, "color": "ffffff00" },
					{ "time": 0.3333, "color": "ffffffff" }
				]
			},
			"light": {
				"color": [
					{ "time": 0, "color": "ffffff00" },
					{ "time": 0.1667, "color": "fffcbdff" },
					{ "time": 0.3333, "color": "ffffff00" }
				],
				"attachment": [
					{ "time": 0, "name": "sword6" }
				]
			},
			"sword": {
				"color": [
					{ "time": 0.3333, "color": "ffffffff" },
					{ "time": 0.5, "color": "ffffff00" }
				],
				"attachment": [
					{ "time": 0, "name": "sword5" }
				]
			},
			"sword2": {
				"color": [
					{ "time": 0.3333, "color": "ffffffff" },
					{ "time": 0.5, "color": "ffffff00" }
				],
				"attachment": [
					{ "time": 0, "name": "sword5" }
				]
			},
			"text3": {
				"color": [
					{ "time": 0, "color": "ffffff00", "curve": "stepped" },
					{ "time": 0.1667, "color": "ffffff00" },
					{ "time": 0.3333, "color": "ffffffff" }
				]
			},
			"text4": {
				"color": [
					{ "time": 0, "color": "ffffff00", "curve": "stepped" },
					{ "time": 0.1667, "color": "ffffff00" },
					{ "time": 0.3333, "color": "ffffffff" }
				],
				"attachment": [
					{ "time": 0.1667, "name": null }
				]
			}
		},
		"bones": {
			"sword2": {
				"rotate": [
					{ "time": 0, "angle": -178.8 }
				],
				"scale": [
					{ "time": 0, "x": -1, "y": -1 }
				]
			},
			"light": {
				"translate": [
					{ "time": 0, "x": 78.88, "y": -5.78 }
				],
				"scale": [
					{ "time": 0, "x": 1.083, "y": 1.144 }
				]
			},
			"button_txt": {
				"rotate": [
					{ "time": 0.1667, "angle": 7.15 },
					{ "time": 0.3333, "angle": 0 }
				],
				"scale": [
					{ "time": 0.1667, "x": 1.48, "y": 1.48 },
					{ "time": 0.3333, "x": 0.901, "y": 0.901 },
					{ "time": 0.5, "x": 1, "y": 1 }
				],
				"shear": [
					{ "time": 0.5, "x": 2.4, "y": 0 }
				]
			}
		}
	},
	"up4": {
		"slots": {
			"button2": {
				"color": [
					{ "time": 0, "color": "ffffff00" },
					{ "time": 1, "color": "ffffffff" },
					{ "time": 2, "color": "ffffff00" }
				],
				"attachment": [
					{ "time": 0, "name": "button2" }
				]
			},
			"finger": {
				"attachment": [
					{ "time": 0, "name": "finger" }
				]
			},
			"text4": {
				"color": [
					{ "time": 0, "color": "ffffff00" },
					{ "time": 1, "color": "ffffffff" },
					{ "time": 2, "color": "ffffff00" }
				]
			}
		},
		"bones": {
			"light": {
				"translate": [
					{ "time": 0, "x": 78.71, "y": -5.78 }
				],
				"scale": [
					{ "time": 0, "x": 1.083, "y": 1.144 },
					{ "time": 0.5, "x": 1.194, "y": 1.262 },
					{ "time": 1, "x": 1.083, "y": 1.144 },
					{ "time": 1.5, "x": 1.194, "y": 1.262 },
					{ "time": 2, "x": 1.083, "y": 1.144 }
				]
			},
			"button_txt": {
				"scale": [
					{ "time": 0, "x": 1, "y": 1 },
					{ "time": 1, "x": 1.11, "y": 1.11 },
					{ "time": 2, "x": 1, "y": 1 }
				]
			},
			"finger": {
				"translate": [
					{ "time": 0, "x": 0, "y": 3.01 },
					{ "time": 0.5, "x": 0, "y": 18.69 },
					{ "time": 1, "x": 0, "y": 3.01 },
					{ "time": 1.5, "x": 0, "y": 18.69 },
					{ "time": 2, "x": 0, "y": 3.01 }
				],
				"scale": [
					{ "time": 0, "x": 1.16, "y": 1.16 }
				]
			}
		}
	}
}
}