{
"skeleton": { "hash": "9u+lP9CBNNjynUDDNK/WEodxQxY", "spine": "3.7.94", "width": 571.49, "height": 578.24 },
"bones": [
	{ "name": "root" },
	{ "name": "00", "parent": "root" },
	{ "name": "crack_a", "parent": "00", "y": -62.21 },
	{ "name": "dragon", "parent": "00", "length": 89.9, "rotation": -52.79, "x": 54.2, "y": 201.94 },
	{ "name": "bone2", "parent": "dragon", "length": 76.36, "rotation": -16.88, "x": 98.39, "y": 0.22 },
	{ "name": "bone3", "parent": "bone2", "length": 74.65, "rotation": -32.63, "x": 84.14, "y": -5.71 },
	{ "name": "bone4", "parent": "bone3", "length": 77.79, "rotation": -17.32, "x": 83.27, "y": -2.19 },
	{ "name": "bone5", "parent": "bone4", "length": 71.26, "rotation": -15.38, "x": 90.79, "y": 1.29 },
	{ "name": "bone6", "parent": "bone5", "length": 74.73, "rotation": -17.53, "x": 80.64 },
	{ "name": "bone7", "parent": "bone6", "length": 84.39, "rotation": -19.34, "x": 86.54, "y": -3.15 },
	{ "name": "bone8", "parent": "bone7", "length": 77.24, "rotation": -20.02, "x": 96.58, "y": 0.94 },
	{ "name": "dragon2", "parent": "00", "length": 89.9, "rotation": -52.79, "x": 54.2, "y": 201.94 },
	{ "name": "bone9", "parent": "dragon2", "length": 76.36, "rotation": -16.88, "x": 98.39, "y": 0.22 },
	{ "name": "bone10", "parent": "bone9", "length": 74.65, "rotation": -32.63, "x": 84.14, "y": -5.71 },
	{ "name": "bone11", "parent": "bone10", "length": 77.79, "rotation": -17.32, "x": 83.27, "y": -2.19 },
	{ "name": "bone12", "parent": "bone11", "length": 71.26, "rotation": -15.38, "x": 90.79, "y": 1.29 },
	{ "name": "bone13", "parent": "bone12", "length": 74.73, "rotation": -17.53, "x": 80.64 },
	{ "name": "bone14", "parent": "bone13", "length": 84.39, "rotation": -19.34, "x": 86.54, "y": -3.15 },
	{ "name": "bone15", "parent": "bone14", "length": 77.24, "rotation": -20.02, "x": 96.58, "y": 0.94 },
	{ "name": "ice_1", "parent": "00", "y": -77.47 },
	{ "name": "ice_2", "parent": "00", "y": -83.26 },
	{ "name": "ice_3", "parent": "00", "y": -87.72 },
	{ "name": "light1", "parent": "00", "x": -5.58, "y": -56.47 },
	{ "name": "light", "parent": "00", "x": -5.58, "y": -52.39 },
	{ "name": "light2", "parent": "light" }
],
"slots": [
	{ "name": "crack_a", "bone": "crack_a", "attachment": "crack_a" },
	{ "name": "crack_a2", "bone": "crack_a", "attachment": "crack_a", "blend": "additive" },
	{ "name": "dragon", "bone": "dragon", "attachment": "dragon" },
	{ "name": "dragon2", "bone": "dragon2", "attachment": "dragon" },
	{ "name": "light2", "bone": "light2", "attachment": "light2", "blend": "additive" },
	{ "name": "ice_f3", "bone": "ice_3", "attachment": "ice_f" },
	{ "name": "ice_e1", "bone": "ice_1", "attachment": "ice_e" },
	{ "name": "ice_f1", "bone": "ice_2", "color": "87eaffff", "attachment": "ice_f" },
	{ "name": "ice_h2", "bone": "ice_2", "attachment": "ice_h" },
	{ "name": "ice_h", "bone": "ice_1", "color": "7af6ffff", "attachment": "ice_h" },
	{ "name": "ice_f2", "bone": "ice_3", "attachment": "ice_f" },
	{ "name": "ice_f4", "bone": "ice_1", "attachment": "ice_f" },
	{ "name": "ice_g", "bone": "ice_3", "attachment": "ice_g" },
	{ "name": "ice_g2", "bone": "ice_2", "attachment": "ice_g" },
	{ "name": "light", "bone": "light1", "attachment": "light", "blend": "additive" }
],
"skins": {
	"default": {
		"crack_a": {
			"crack_a": { "scaleX": 1.5, "scaleY": 1.5, "width": 350, "height": 225 }
		},
		"crack_a2": {
			"crack_a": { "scaleX": 1.5, "scaleY": 1.5, "width": 350, "height": 225 }
		},
		"dragon": {
			"dragon": {
				"type": "mesh",
				"uvs": [ 0, 0.82279, 0.04596, 0.94216, 0.11161, 0.96889, 0.2155, 0.9906, 0.32655, 0.99591, 0.44053, 0.97742, 0.576, 0.92209, 0.66014, 0.86022, 0.74148, 0.87837, 0.83333, 0.83465, 0.821, 0.7311, 0.76995, 0.70103, 0.80889, 0.6273, 0.83484, 0.53388, 0.91788, 0.50966, 0.95248, 0.42316, 0.89539, 0.34185, 0.8266, 0.3505, 0.8065, 0.26227, 0.77083, 0.1602, 0.70336, 0.07543, 0.5961, 0.03218, 0.50092, 0.03913, 0.45363, 0.09477, 0.43697, 0.15391, 0.46289, 0.23113, 0.5012, 0.2712, 0.53785, 0.30933, 0.57355, 0.35701, 0.51479, 0.39029, 0.50614, 0.44046, 0.52517, 0.48371, 0.58896, 0.51076, 0.57685, 0.55747, 0.54159, 0.59943, 0.47972, 0.56634, 0.4349, 0.58549, 0.40234, 0.62409, 0.40407, 0.70861, 0.34846, 0.73223, 0.28845, 0.75129, 0.22069, 0.76183, 0.14771, 0.75667, 0.08748, 0.74494, 0.44876, 0.67321, 0.50167, 0.63805, 0.71752, 0.78316, 0.77915, 0.81263, 0.59414, 0.45482, 0.84027, 0.44727, 0.5888, 0.40273, 0.06704, 0.84207, 0.13002, 0.86069, 0.21817, 0.87309, 0.30694, 0.87001, 0.39583, 0.85836, 0.49804, 0.82529, 0.56665, 0.77751, 0.62264, 0.71938, 0.66725, 0.65533, 0.7006, 0.59471, 0.72819, 0.52385, 0.73604, 0.45046, 0.73006, 0.3717, 0.70542, 0.30338, 0.66735, 0.22644, 0.61091, 0.16496, 0.53406, 0.12483 ],
				"triangles": [ 3, 53, 54, 3, 2, 53, 53, 2, 52, 2, 1, 52, 1, 51, 52, 1, 0, 51, 53, 41, 54, 53, 52, 41, 52, 42, 41, 52, 51, 42, 42, 51, 43, 51, 0, 43, 4, 3, 54, 4, 55, 5, 4, 54, 55, 41, 40, 54, 54, 39, 55, 54, 40, 39, 55, 39, 38, 5, 56, 6, 5, 55, 56, 56, 57, 6, 55, 38, 56, 38, 44, 56, 6, 57, 7, 8, 47, 9, 7, 46, 8, 8, 46, 47, 57, 58, 7, 7, 58, 46, 47, 10, 9, 56, 44, 57, 46, 11, 47, 47, 11, 10, 58, 59, 46, 44, 45, 57, 57, 45, 58, 45, 34, 58, 38, 37, 44, 37, 36, 44, 44, 36, 45, 36, 35, 45, 46, 59, 11, 58, 34, 59, 59, 60, 11, 11, 60, 12, 34, 33, 59, 59, 33, 60, 45, 35, 34, 33, 32, 60, 60, 61, 12, 12, 61, 13, 60, 32, 61, 61, 62, 13, 13, 49, 14, 13, 62, 49, 32, 48, 61, 61, 48, 62, 32, 31, 48, 31, 30, 48, 48, 30, 50, 30, 29, 50, 48, 50, 62, 50, 63, 62, 29, 28, 50, 14, 49, 15, 62, 63, 49, 63, 17, 49, 49, 16, 15, 49, 17, 16, 63, 50, 64, 50, 28, 64, 63, 64, 17, 64, 18, 17, 64, 65, 18, 64, 28, 65, 28, 27, 65, 65, 27, 66, 27, 26, 66, 26, 67, 66, 26, 25, 67, 65, 19, 18, 25, 24, 67, 19, 65, 20, 67, 21, 66, 65, 66, 20, 66, 21, 20, 24, 23, 67, 23, 22, 67, 67, 22, 21 ],
				"vertices": [ 3, 3, 100.9, -521.33, 0, 5, 324.37, -377.26, 0, 10, 147.02, -2.45, 1, 3, 3, 174.62, -542.68, 0, 5, 388.47, -335.05, 0, 10, 105.28, 61.96, 1, 3, 3, 211.21, -521.01, 0, 5, 395.74, -293.15, 0, 10, 63.43, 69.54, 1, 3, 3, 259.28, -479.23, 0, 9, 120.11, 66.27, 0.16289, 10, -0.25, 69.44, 0.83711, 4, 3, 302.11, -428.1, 0, 8, 164.18, 53.16, 0.05625, 9, 54.61, 78.85, 0.75186, 10, -66.1, 58.84, 0.19189, 4, 3, 334.63, -366.92, 0, 8, 98.38, 74.86, 0.57237, 9, -14.67, 77.53, 0.42521, 10, -130.74, 33.89, 0.00241, 5, 3, 357.34, -282.11, 0, 5, 308.91, -26.9, 0, 7, 116.05, 75.76, 0.17526, 8, 10.95, 82.91, 0.82378, 9, -99.83, 56.17, 9.6E-4, 5, 3, 358.3, -219.45, 0, 5, 261.88, 14.51, 0, 6, 165.55, 69.1, 0.02392, 7, 54.1, 85.21, 0.78282, 8, -50.96, 73.26, 0.19326, 4, 3, 396.49, -187.17, 0, 6, 150.89, 116.91, 0.10431, 7, 27.29, 127.42, 0.87626, 8, -89.24, 105.44, 0.01943, 4, 3, 408.92, -127.41, 0, 5, 224.74, 112.76, 0, 6, 100.85, 151.85, 0.18063, 7, -30.23, 147.84, 0.81937, 4, 3, 354.97, -95.73, 0, 5, 165.61, 92.29, 0.00424, 6, 50.49, 114.71, 0.30039, 7, -68.93, 98.68, 0.69537, 4, 3, 322.07, -109.22, 0, 5, 154.52, 58.52, 0.05298, 6, 49.95, 79.17, 0.488, 7, -60.03, 64.26, 0.45902, 5, 3, 300.97, -63.86, 0, 4, 212.45, -2.47, 0.00592, 5, 106.31, 71.92, 0.43123, 6, -0.05, 77.61, 0.50181, 7, -107.83, 49.5, 0.06103, 4, 4, 165.3, 31.6, 0.20959, 5, 48.23, 75.18, 0.74291, 6, -56.48, 63.44, 0.04746, 7, -158.47, 20.88, 4.0E-5, 2, 4, 168.98, 83.36, 0.48578, 5, 23.41, 120.76, 0.51422, 2, 4, 127.52, 120.86, 0.63369, 5, -31.72, 129.98, 0.36631, 3, 3, 195.95, 81.05, 0, 4, 69.87, 105.68, 0.7697, 5, -72.08, 86.12, 0.2303, 3, 3, 175.12, 45.03, 7.6E-4, 4, 60.4, 65.17, 0.90422, 5, -58.21, 46.9, 0.09502, 2, 3, 125.67, 67.44, 0.20844, 4, 6.57, 72.25, 0.79156, 2, 3, 63.95, 87.43, 0.79972, 4, -58.29, 73.45, 0.20028, 2, 3, -1.04, 85.94, 0.99233, 4, -120.05, 53.15, 0.00767, 1, 3, -60.62, 50.38, 1, 1, 3, -91.84, 2.38, 1, 1, 3, -82.4, -40.41, 1, 1, 3, -60.19, -69.83, 1, 3, 3, -13.89, -85.46, 0.9979, 5, -81.67, -181.58, 0.00203, 6, -104.07, -220.35, 7.0E-5, 4, 3, 19.16, -81.69, 0.9774, 4, -52.02, -101.39, 0.00464, 5, -63.08, -154, 0.0158, 6, -94.53, -188.49, 0.00216, 4, 3, 50.68, -78.01, 0.86003, 4, -22.93, -88.71, 0.05817, 5, -45.41, -127.64, 0.06817, 6, -85.51, -158.06, 0.01364, 4, 3, 86.42, -78.25, 0.42159, 4, 11.33, -78.56, 0.21479, 5, -22.03, -100.61, 0.28701, 6, -71.23, -125.3, 0.0766, 4, 3, 81, -118.41, 0.18186, 4, 17.81, -118.56, 0.14973, 5, 4.99, -130.8, 0.49293, 6, -36.45, -146.08, 0.17547, 4, 3, 101.84, -140.74, 0.13792, 4, 44.24, -133.88, 0.11992, 5, 35.51, -129.45, 0.52759, 6, -7.71, -135.71, 0.21457, 4, 3, 129.41, -147.34, 0.10645, 4, 72.54, -132.19, 0.09598, 5, 58.43, -112.77, 0.53913, 6, 9.2, -112.96, 0.25843, 6, 3, 165.48, -126.67, 0.04007, 4, 101.05, -101.93, 0.03634, 5, 66.13, -71.91, 0.43876, 6, 4.39, -71.66, 0.48273, 7, -63.96, -93.25, 0.00208, 8, -109.81, -132.47, 1.0E-5, 6, 3, 183.41, -149.41, 0.00634, 4, 124.81, -118.48, 0.00209, 5, 95.06, -73.04, 0.11931, 6, 32.34, -64.13, 0.81248, 7, -39.01, -78.57, 0.05541, 8, -90.43, -110.95, 0.00438, 6, 3, 190.67, -181.48, 2.2E-4, 5, 124.16, -88.34, 0.00557, 6, 64.69, -70.07, 0.61875, 7, -6.25, -75.73, 0.3217, 8, -60.05, -98.38, 0.05241, 9, -106.77, -138.4, 0.00136, 6, 3, 152.41, -199.04, 0, 5, 112.68, -128.84, 0, 6, 65.78, -112.16, 0.38906, 7, 5.96, -116.02, 0.45897, 8, -36.27, -133.12, 0.143, 9, -72.83, -163.31, 0.00896, 6, 3, 145.3, -227.41, 0, 5, 129.64, -152.67, 0, 6, 89.06, -129.86, 0.33077, 7, 33.11, -126.91, 0.46501, 8, -7.1, -135.33, 0.18491, 9, -44.57, -155.73, 0.01931, 6, 3, 151.93, -256.97, 0, 5, 156.43, -166.82, 0, 6, 118.85, -135.39, 0.26811, 7, 63.29, -124.35, 0.4509, 8, 20.91, -123.8, 0.24023, 9, -21.96, -135.57, 0.04075, 5, 5, 205.76, -154.99, 0, 6, 162.42, -109.42, 0.09267, 7, 98.42, -87.75, 0.24463, 8, 43.38, -78.32, 0.42281, 9, -15.82, -85.22, 0.2399, 5, 6, 191.23, -131.42, 0.01588, 7, 132.03, -101.32, 0.05024, 8, 79.52, -81.14, 0.26537, 9, 19.21, -75.91, 0.66609, 10, -46.38, -98.69, 0.00242, 5, 6, 218.97, -157.07, 0.00127, 7, 165.58, -118.7, 0.00479, 8, 116.75, -87.61, 0.05667, 9, 56.48, -69.68, 0.84452, 10, -13.5, -80.08, 0.09274, 3, 8, 155.73, -100.76, 0.0013, 9, 97.62, -69.17, 0.47637, 10, 24.98, -65.52, 0.52233, 2, 9, 140.53, -78.43, 0.08323, 10, 68.47, -59.52, 0.91677, 3, 5, 267.54, -335.93, 0, 9, 175.31, -90.51, 0.00796, 10, 105.28, -58.97, 0.99204, 6, 3, 192.24, -252.61, 0, 5, 179.29, -133.33, 0, 6, 130.7, -96.61, 0.20352, 7, 64.44, -83.81, 0.43517, 8, 9.8, -84.8, 0.29631, 9, -45.36, -102.46, 0.065, 4, 6, 96.67, -79.44, 0.37043, 7, 27.08, -76.28, 0.4849, 8, -28.1, -88.87, 0.13262, 9, -79.77, -118.85, 0.01206, 5, 3, 342.3, -164.08, 0, 5, 209.37, 38.29, 1.7E-4, 6, 108.34, 76.18, 0.16569, 7, -2.93, 76.86, 0.82358, 8, -102.83, 48.13, 0.01056, 4, 3, 378.74, -145.32, 0, 6, 105.43, 117.06, 0.17782, 7, -16.58, 115.51, 0.82038, 8, -127.49, 80.87, 0.0018, 4, 3, 140.63, -103.9, 0.09049, 4, 70.66, -87.36, 0.11246, 5, 32.67, -76.04, 0.55646, 6, -26.32, -85.56, 0.2406, 2, 4, 117.7, 52.7, 0.52603, 5, -3.23, 67.28, 0.47397, 4, 3, 113.8, -87.56, 0.19802, 4, 40.23, -79.51, 0.21339, 5, 2.82, -85.83, 0.45416, 6, -51.91, -103.79, 0.13443, 3, 3, 134.44, -496.29, 0, 5, 327.1, -335.5, 0, 10, 105.28, 0.59, 1, 3, 3, 166.19, -472.95, 0, 5, 329.96, -296.2, 0, 10, 66, 3.73, 1, 4, 3, 204.09, -435.33, 0, 5, 325.95, -242.93, 0, 9, 108.56, -3.3, 0.00377, 10, 12.71, 0.12, 0.99623, 3, 3, 234.83, -391.79, 0, 9, 55.57, 2.4, 0.99639, 10, -39.03, -12.66, 0.00361, 2, 3, 261.52, -345.09, 0, 9, 1.78, 3.03, 1, 3, 3, 282.8, -284.24, 0, 5, 262.14, -84.98, 0, 8, 25.66, 9.8, 1, 4, 3, 284.86, -234.12, 0, 5, 225.35, -50.87, 0, 7, 58.67, 10.46, 0.94771, 8, -24.09, 3.36, 0.05229, 2, 3, 277.4, -186.27, 0, 7, 10.26, 9.55, 1, 4, 3, 262.98, -141.72, 0, 5, 140.87, -7.53, 0.0029, 6, 56.58, 12.05, 0.94784, 7, -35.84, 1.3, 0.04927, 3, 5, 101.06, 4.27, 0.08627, 6, 15.07, 11.46, 0.90778, 7, -75.71, -10.27, 0.00595, 2, 4, 137.43, -26.32, 0.00513, 5, 55.99, 11.38, 0.99487, 2, 4, 97.78, -6.62, 0.03552, 5, 11.97, 6.59, 0.96448, 1, 4, 52.22, 6.43, 1, 1, 4, 8.64, 6.81, 1, 2, 3, 58.06, 13.94, 0.98474, 4, -42.58, 1.42, 0.01526, 1, 3, 8.2, 9.28, 1, 1, 3, -38.86, -12.88, 1 ],
				"hull": 44
			}
		},
		"dragon2": {
			"dragon": {
				"type": "mesh",
				"uvs": [ 0, 0.82279, 0.04596, 0.94216, 0.11161, 0.96889, 0.2155, 0.9906, 0.32655, 0.99591, 0.44053, 0.97742, 0.576, 0.92209, 0.66014, 0.86022, 0.74148, 0.87837, 0.83333, 0.83465, 0.821, 0.7311, 0.76995, 0.70103, 0.80889, 0.6273, 0.83484, 0.53388, 0.91788, 0.50966, 0.95248, 0.42316, 0.89539, 0.34185, 0.8266, 0.3505, 0.8065, 0.26227, 0.77083, 0.1602, 0.70336, 0.07543, 0.5961, 0.03218, 0.50092, 0.03913, 0.45363, 0.09477, 0.43697, 0.15391, 0.46289, 0.23113, 0.5012, 0.2712, 0.53785, 0.30933, 0.57355, 0.35701, 0.51479, 0.39029, 0.50614, 0.44046, 0.52517, 0.48371, 0.58896, 0.51076, 0.57685, 0.55747, 0.54159, 0.59943, 0.47972, 0.56634, 0.4349, 0.58549, 0.40234, 0.62409, 0.40407, 0.70861, 0.34846, 0.73223, 0.28845, 0.75129, 0.22069, 0.76183, 0.14771, 0.75667, 0.08748, 0.74494, 0.44876, 0.67321, 0.50167, 0.63805, 0.71752, 0.78316, 0.77915, 0.81263, 0.59414, 0.45482, 0.84027, 0.44727, 0.5888, 0.40273, 0.06704, 0.84207, 0.13002, 0.86069, 0.21817, 0.87309, 0.30694, 0.87001, 0.39583, 0.85836, 0.49804, 0.82529, 0.56665, 0.77751, 0.62264, 0.71938, 0.66725, 0.65533, 0.7006, 0.59471, 0.72819, 0.52385, 0.73604, 0.45046, 0.73006, 0.3717, 0.70542, 0.30338, 0.66735, 0.22644, 0.61091, 0.16496, 0.53406, 0.12483 ],
				"triangles": [ 3, 53, 54, 3, 2, 53, 53, 2, 52, 2, 1, 52, 1, 51, 52, 1, 0, 51, 53, 41, 54, 53, 52, 41, 52, 42, 41, 52, 51, 42, 42, 51, 43, 51, 0, 43, 4, 3, 54, 4, 55, 5, 4, 54, 55, 41, 40, 54, 54, 39, 55, 54, 40, 39, 55, 39, 38, 5, 56, 6, 5, 55, 56, 56, 57, 6, 55, 38, 56, 38, 44, 56, 6, 57, 7, 8, 47, 9, 7, 46, 8, 8, 46, 47, 57, 58, 7, 7, 58, 46, 47, 10, 9, 56, 44, 57, 46, 11, 47, 47, 11, 10, 58, 59, 46, 44, 45, 57, 57, 45, 58, 45, 34, 58, 38, 37, 44, 37, 36, 44, 44, 36, 45, 36, 35, 45, 46, 59, 11, 58, 34, 59, 59, 60, 11, 11, 60, 12, 34, 33, 59, 59, 33, 60, 45, 35, 34, 33, 32, 60, 60, 61, 12, 12, 61, 13, 60, 32, 61, 61, 62, 13, 13, 49, 14, 13, 62, 49, 32, 48, 61, 61, 48, 62, 32, 31, 48, 31, 30, 48, 48, 30, 50, 30, 29, 50, 48, 50, 62, 50, 63, 62, 29, 28, 50, 14, 49, 15, 62, 63, 49, 63, 17, 49, 49, 16, 15, 49, 17, 16, 63, 50, 64, 50, 28, 64, 63, 64, 17, 64, 18, 17, 64, 65, 18, 64, 28, 65, 28, 27, 65, 65, 27, 66, 27, 26, 66, 26, 67, 66, 26, 25, 67, 65, 19, 18, 25, 24, 67, 19, 65, 20, 67, 21, 66, 65, 66, 20, 66, 21, 20, 24, 23, 67, 23, 22, 67, 67, 22, 21 ],
				"vertices": [ 3, 11, 100.9, -521.33, 0, 13, 324.37, -377.26, 0, 18, 147.02, -2.45, 1, 3, 11, 174.62, -542.68, 0, 13, 388.47, -335.05, 0, 18, 105.28, 61.96, 1, 3, 11, 211.21, -521.01, 0, 13, 395.74, -293.15, 0, 18, 63.43, 69.54, 1, 3, 11, 259.28, -479.23, 0, 17, 120.11, 66.27, 0.16289, 18, -0.25, 69.44, 0.83711, 4, 11, 302.11, -428.1, 0, 16, 164.18, 53.16, 0.05625, 17, 54.61, 78.85, 0.75186, 18, -66.1, 58.84, 0.19189, 4, 11, 334.63, -366.92, 0, 16, 98.38, 74.86, 0.57237, 17, -14.67, 77.53, 0.42521, 18, -130.74, 33.89, 0.00241, 5, 11, 357.34, -282.11, 0, 13, 308.91, -26.9, 0, 15, 116.05, 75.76, 0.17526, 16, 10.95, 82.91, 0.82378, 17, -99.83, 56.17, 9.6E-4, 5, 11, 358.3, -219.45, 0, 13, 261.88, 14.51, 0, 14, 165.55, 69.1, 0.02392, 15, 54.1, 85.21, 0.78282, 16, -50.96, 73.26, 0.19326, 4, 11, 396.49, -187.17, 0, 14, 150.89, 116.91, 0.10431, 15, 27.29, 127.42, 0.87626, 16, -89.24, 105.44, 0.01943, 4, 11, 408.92, -127.41, 0, 13, 224.74, 112.76, 0, 14, 100.85, 151.85, 0.18063, 15, -30.23, 147.84, 0.81937, 4, 11, 354.97, -95.73, 0, 13, 165.61, 92.29, 0.00424, 14, 50.49, 114.71, 0.30039, 15, -68.93, 98.68, 0.69537, 4, 11, 322.07, -109.22, 0, 13, 154.52, 58.52, 0.05298, 14, 49.95, 79.17, 0.488, 15, -60.03, 64.26, 0.45902, 5, 11, 300.97, -63.86, 0, 12, 212.45, -2.47, 0.00592, 13, 106.31, 71.92, 0.43123, 14, -0.05, 77.61, 0.50181, 15, -107.83, 49.5, 0.06103, 4, 12, 165.3, 31.6, 0.20959, 13, 48.23, 75.18, 0.74291, 14, -56.48, 63.44, 0.04746, 15, -158.47, 20.88, 4.0E-5, 2, 12, 168.98, 83.36, 0.48578, 13, 23.41, 120.76, 0.51422, 2, 12, 127.52, 120.86, 0.63369, 13, -31.72, 129.98, 0.36631, 3, 11, 195.95, 81.05, 0, 12, 69.87, 105.68, 0.7697, 13, -72.08, 86.12, 0.2303, 3, 11, 175.12, 45.03, 7.6E-4, 12, 60.4, 65.17, 0.90422, 13, -58.21, 46.9, 0.09502, 2, 11, 125.67, 67.44, 0.20844, 12, 6.57, 72.25, 0.79156, 2, 11, 63.95, 87.43, 0.79972, 12, -58.29, 73.45, 0.20028, 2, 11, -1.04, 85.94, 0.99233, 12, -120.05, 53.15, 0.00767, 1, 11, -60.62, 50.38, 1, 1, 11, -91.84, 2.38, 1, 1, 11, -82.4, -40.41, 1, 1, 11, -60.19, -69.83, 1, 3, 11, -13.89, -85.46, 0.9979, 13, -81.67, -181.58, 0.00203, 14, -104.07, -220.35, 7.0E-5, 4, 11, 19.16, -81.69, 0.9774, 12, -52.02, -101.39, 0.00464, 13, -63.08, -154, 0.0158, 14, -94.53, -188.49, 0.00216, 4, 11, 50.68, -78.01, 0.86003, 12, -22.93, -88.71, 0.05817, 13, -45.41, -127.64, 0.06817, 14, -85.51, -158.06, 0.01364, 4, 11, 86.42, -78.25, 0.42159, 12, 11.33, -78.56, 0.21479, 13, -22.03, -100.61, 0.28701, 14, -71.23, -125.3, 0.0766, 4, 11, 81, -118.41, 0.18186, 12, 17.81, -118.56, 0.14973, 13, 4.99, -130.8, 0.49293, 14, -36.45, -146.08, 0.17547, 4, 11, 101.84, -140.74, 0.13792, 12, 44.24, -133.88, 0.11992, 13, 35.51, -129.45, 0.52759, 14, -7.71, -135.71, 0.21457, 4, 11, 129.41, -147.34, 0.10645, 12, 72.54, -132.19, 0.09598, 13, 58.43, -112.77, 0.53913, 14, 9.2, -112.96, 0.25843, 6, 11, 165.48, -126.67, 0.04007, 12, 101.05, -101.93, 0.03634, 13, 66.13, -71.91, 0.43876, 14, 4.39, -71.66, 0.48273, 15, -63.96, -93.25, 0.00208, 16, -109.81, -132.47, 1.0E-5, 6, 11, 183.41, -149.41, 0.00634, 12, 124.81, -118.48, 0.00209, 13, 95.06, -73.04, 0.11931, 14, 32.34, -64.13, 0.81248, 15, -39.01, -78.57, 0.05541, 16, -90.43, -110.95, 0.00438, 6, 11, 190.67, -181.48, 2.2E-4, 13, 124.16, -88.34, 0.00557, 14, 64.69, -70.07, 0.61875, 15, -6.25, -75.73, 0.3217, 16, -60.05, -98.38, 0.05241, 17, -106.77, -138.4, 0.00136, 6, 11, 152.41, -199.04, 0, 13, 112.68, -128.84, 0, 14, 65.78, -112.16, 0.38906, 15, 5.96, -116.02, 0.45897, 16, -36.27, -133.12, 0.143, 17, -72.83, -163.31, 0.00896, 6, 11, 145.3, -227.41, 0, 13, 129.64, -152.67, 0, 14, 89.06, -129.86, 0.33077, 15, 33.11, -126.91, 0.46501, 16, -7.1, -135.33, 0.18491, 17, -44.57, -155.73, 0.01931, 6, 11, 151.93, -256.97, 0, 13, 156.43, -166.82, 0, 14, 118.85, -135.39, 0.26811, 15, 63.29, -124.35, 0.4509, 16, 20.91, -123.8, 0.24023, 17, -21.96, -135.57, 0.04075, 5, 13, 205.76, -154.99, 0, 14, 162.42, -109.42, 0.09267, 15, 98.42, -87.75, 0.24463, 16, 43.38, -78.32, 0.42281, 17, -15.82, -85.22, 0.2399, 5, 14, 191.23, -131.42, 0.01588, 15, 132.03, -101.32, 0.05024, 16, 79.52, -81.14, 0.26537, 17, 19.21, -75.91, 0.66609, 18, -46.38, -98.69, 0.00242, 5, 14, 218.97, -157.07, 0.00127, 15, 165.58, -118.7, 0.00479, 16, 116.75, -87.61, 0.05667, 17, 56.48, -69.68, 0.84452, 18, -13.5, -80.08, 0.09274, 3, 16, 155.73, -100.76, 0.0013, 17, 97.62, -69.17, 0.47637, 18, 24.98, -65.52, 0.52233, 2, 17, 140.53, -78.43, 0.08323, 18, 68.47, -59.52, 0.91677, 3, 13, 267.54, -335.93, 0, 17, 175.31, -90.51, 0.00796, 18, 105.28, -58.97, 0.99204, 6, 11, 192.24, -252.61, 0, 13, 179.29, -133.33, 0, 14, 130.7, -96.61, 0.20352, 15, 64.44, -83.81, 0.43517, 16, 9.8, -84.8, 0.29631, 17, -45.36, -102.46, 0.065, 4, 14, 96.67, -79.44, 0.37043, 15, 27.08, -76.28, 0.4849, 16, -28.1, -88.87, 0.13262, 17, -79.77, -118.85, 0.01206, 5, 11, 342.3, -164.08, 0, 13, 209.37, 38.29, 1.7E-4, 14, 108.34, 76.18, 0.16569, 15, -2.93, 76.86, 0.82358, 16, -102.83, 48.13, 0.01056, 4, 11, 378.74, -145.32, 0, 14, 105.43, 117.06, 0.17782, 15, -16.58, 115.51, 0.82038, 16, -127.49, 80.87, 0.0018, 4, 11, 140.63, -103.9, 0.09049, 12, 70.66, -87.36, 0.11246, 13, 32.67, -76.04, 0.55646, 14, -26.32, -85.56, 0.2406, 2, 12, 117.7, 52.7, 0.52603, 13, -3.23, 67.28, 0.47397, 4, 11, 113.8, -87.56, 0.19802, 12, 40.23, -79.51, 0.21339, 13, 2.82, -85.83, 0.45416, 14, -51.91, -103.79, 0.13443, 3, 11, 134.44, -496.29, 0, 13, 327.1, -335.5, 0, 18, 105.28, 0.59, 1, 3, 11, 166.19, -472.95, 0, 13, 329.96, -296.2, 0, 18, 66, 3.73, 1, 4, 11, 204.09, -435.33, 0, 13, 325.95, -242.93, 0, 17, 108.56, -3.3, 0.00377, 18, 12.71, 0.12, 0.99623, 3, 11, 234.83, -391.79, 0, 17, 55.57, 2.4, 0.99639, 18, -39.03, -12.66, 0.00361, 2, 11, 261.52, -345.09, 0, 17, 1.78, 3.03, 1, 3, 11, 282.8, -284.24, 0, 13, 262.14, -84.98, 0, 16, 25.66, 9.8, 1, 4, 11, 284.86, -234.12, 0, 13, 225.35, -50.87, 0, 15, 58.67, 10.46, 0.94771, 16, -24.09, 3.36, 0.05229, 2, 11, 277.4, -186.27, 0, 15, 10.26, 9.55, 1, 4, 11, 262.98, -141.72, 0, 13, 140.87, -7.53, 0.0029, 14, 56.58, 12.05, 0.94784, 15, -35.84, 1.3, 0.04927, 3, 13, 101.06, 4.27, 0.08627, 14, 15.07, 11.46, 0.90778, 15, -75.71, -10.27, 0.00595, 2, 12, 137.43, -26.32, 0.00513, 13, 55.99, 11.38, 0.99487, 2, 12, 97.78, -6.62, 0.03552, 13, 11.97, 6.59, 0.96448, 1, 12, 52.22, 6.43, 1, 1, 12, 8.64, 6.81, 1, 2, 11, 58.06, 13.94, 0.98474, 12, -42.58, 1.42, 0.01526, 1, 11, 8.2, 9.28, 1, 1, 11, -38.86, -12.88, 1 ],
				"hull": 44
			}
		},
		"ice_e1": {
			"ice_e": {
				"x": -63.03,
				"y": 150.61,
				"scaleX": 1.2,
				"scaleY": 1.2,
				"rotation": 12.91,
				"width": 67,
				"height": 150
			}
		},
		"ice_f1": {
			"ice_f": {
				"x": 53.21,
				"y": 159.21,
				"scaleX": 1.5,
				"scaleY": 1.5,
				"rotation": -23.7,
				"width": 63,
				"height": 150
			}
		},
		"ice_f2": {
			"ice_f": { "x": -105.25, "y": 72.33, "scaleY": 0.7, "rotation": 31.56, "width": 63, "height": 150 }
		},
		"ice_f3": {
			"ice_f": { "x": 99.73, "y": 84.13, "scaleX": -0.8, "rotation": -41.44, "width": 63, "height": 150 }
		},
		"ice_f4": {
			"ice_f": {
				"x": 13.47,
				"y": 55.58,
				"scaleX": 0.55,
				"scaleY": 0.9,
				"rotation": -12.98,
				"width": 63,
				"height": 150
			}
		},
		"ice_g": {
			"ice_g": { "x": -40.27, "y": 52.3, "rotation": 12.54, "width": 96, "height": 120 }
		},
		"ice_g2": {
			"ice_g": {
				"x": 26.8,
				"y": 13.54,
				"scaleX": -0.8,
				"scaleY": 0.5,
				"rotation": -21.92,
				"width": 96,
				"height": 120
			}
		},
		"ice_h": {
			"ice_h": { "x": 51.96, "y": 59.38, "scaleX": -1, "rotation": -25.76, "width": 75, "height": 150 }
		},
		"ice_h2": {
			"ice_h": {
				"x": -30.74,
				"y": 102.49,
				"scaleX": 1.2,
				"scaleY": 1.3,
				"rotation": 4.91,
				"width": 75,
				"height": 150
			}
		},
		"light": {
			"light": { "x": -5.71, "y": 35.55, "width": 243, "height": 195 }
		},
		"light2": {
			"light2": { "width": 180, "height": 180 }
		}
	}
},
"animations": {
	"ZhaoYun": {
		"slots": {
			"crack_a": {
				"color": [
					{ "time": 0, "color": "ffffff00" },
					{ "time": 0.1333, "color": "ffffffff", "curve": "stepped" },
					{ "time": 2, "color": "ffffffff" },
					{ "time": 2.4333, "color": "ffffff00" }
				]
			},
			"crack_a2": {
				"color": [
					{ "time": 0, "color": "ffffff00" },
					{ "time": 0.1333, "color": "ffffffff" },
					{ "time": 0.3333, "color": "ffffff00" },
					{ "time": 0.6667, "color": "ffffff2c" },
					{ "time": 1.0333, "color": "ffffff09" },
					{ "time": 1.2333, "color": "ffffff6d" },
					{ "time": 1.6667, "color": "ffffff2d" },
					{ "time": 2, "color": "ffffff6c" },
					{ "time": 2.4333, "color": "ffffff00" }
				]
			},
			"dragon": {
				"color": [
					{ "time": 0, "color": "ffffff00" },
					{ "time": 0.1667, "color": "ffffffff", "curve": "stepped" },
					{ "time": 1.1667, "color": "ffffffff" },
					{ "time": 1.2667, "color": "ffffff00" }
				]
			},
			"dragon2": {
				"color": [
					{ "time": 0, "color": "ffffff00" },
					{ "time": 0.1667, "color": "ffffffff", "curve": "stepped" },
					{ "time": 1.3, "color": "ffffffff" },
					{ "time": 1.4, "color": "ffffff00" }
				]
			},
			"ice_e1": {
				"color": [
					{ "time": 0, "color": "ffffff00", "curve": "stepped" },
					{ "time": 1.1667, "color": "ffffff00" },
					{ "time": 1.2333, "color": "ffffffff", "curve": "stepped" },
					{ "time": 1.8333, "color": "ffffffff" },
					{ "time": 2.2, "color": "ffffff00" }
				]
			},
			"ice_f1": {
				"color": [
					{ "time": 0, "color": "87eaff00", "curve": "stepped" },
					{ "time": 1.3333, "color": "87eaff00" },
					{ "time": 1.4, "color": "87eaffff", "curve": "stepped" },
					{ "time": 1.6667, "color": "87eaffff" },
					{ "time": 2, "color": "87e9ff00" }
				]
			},
			"ice_f2": {
				"color": [
					{ "time": 0, "color": "ffffff00", "curve": "stepped" },
					{ "time": 1.2333, "color": "ffffff00" },
					{ "time": 1.3, "color": "ffffffff", "curve": "stepped" },
					{ "time": 1.6, "color": "ffffffff" },
					{ "time": 1.9667, "color": "ffffff00" }
				]
			},
			"ice_f3": {
				"color": [
					{ "time": 0, "color": "ffffff00", "curve": "stepped" },
					{ "time": 1.2333, "color": "ffffff00" },
					{ "time": 1.3, "color": "ffffffff", "curve": "stepped" },
					{ "time": 1.6, "color": "ffffffff" },
					{ "time": 1.9667, "color": "ffffff00" }
				]
			},
			"ice_f4": {
				"color": [
					{ "time": 0, "color": "ffffff00", "curve": "stepped" },
					{ "time": 1.1667, "color": "ffffff00" },
					{ "time": 1.2333, "color": "ffffffff", "curve": "stepped" },
					{ "time": 1.8333, "color": "ffffffff" },
					{ "time": 2.2, "color": "ffffff00" }
				]
			},
			"ice_g": {
				"color": [
					{ "time": 0, "color": "ffffff00", "curve": "stepped" },
					{ "time": 1.2333, "color": "ffffff00" },
					{ "time": 1.3, "color": "ffffffff", "curve": "stepped" },
					{ "time": 1.6, "color": "ffffffff" },
					{ "time": 1.9667, "color": "ffffff00" }
				]
			},
			"ice_g2": {
				"color": [
					{ "time": 0, "color": "ffffff00", "curve": "stepped" },
					{ "time": 1.3333, "color": "ffffff00" },
					{ "time": 1.4, "color": "ffffffff", "curve": "stepped" },
					{ "time": 1.6667, "color": "ffffffff" },
					{ "time": 2, "color": "87e9ff00" }
				]
			},
			"ice_h": {
				"color": [
					{ "time": 0, "color": "7af6ff00", "curve": "stepped" },
					{ "time": 1.1667, "color": "7af6ff00" },
					{ "time": 1.2333, "color": "7af6ffff", "curve": "stepped" },
					{ "time": 1.8333, "color": "7af6ffff" },
					{ "time": 2.2, "color": "7af6ff00" }
				]
			},
			"ice_h2": {
				"color": [
					{ "time": 0, "color": "ffffff00", "curve": "stepped" },
					{ "time": 1.3333, "color": "ffffff00" },
					{ "time": 1.4, "color": "ffffffff", "curve": "stepped" },
					{ "time": 1.6667, "color": "ffffffff" },
					{ "time": 2, "color": "87e9ff00" }
				]
			},
			"light": {
				"color": [
					{ "time": 0, "color": "ffffff00", "curve": "stepped" },
					{ "time": 1.1667, "color": "ffffff00" },
					{ "time": 1.2, "color": "ffffffff", "curve": "stepped" },
					{ "time": 1.4333, "color": "ffffffff" },
					{ "time": 1.8333, "color": "ffffff00" }
				]
			},
			"light2": {
				"color": [
					{ "time": 0, "color": "ffffff00" },
					{ "time": 0.1667, "color": "ffffffff", "curve": "stepped" },
					{ "time": 0.8, "color": "ffffffff" },
					{ "time": 1.3333, "color": "ffffff00" }
				]
			}
		},
		"bones": {
			"crack_a": {
				"scale": [
					{ "time": 0, "x": 0.3, "y": 0.3 },
					{ "time": 0.1333, "x": 1.5, "y": 1.4 }
				]
			},
			"dragon": {
				"rotate": [
					{ "time": 0, "angle": -95.77 },
					{ "time": 0.1667, "angle": -79.53 },
					{ "time": 0.2667, "angle": 3.91 },
					{ "time": 0.4, "angle": 58.34 },
					{ "time": 0.4667, "angle": 82.63 },
					{ "time": 0.5667, "angle": 104.06 },
					{ "time": 0.6667, "angle": 179.89 },
					{ "time": 0.7333, "angle": -121.34 },
					{ "time": 0.8, "angle": -93.1 },
					{ "time": 0.8667, "angle": -51.89 },
					{ "time": 0.9333, "angle": -9.94 },
					{ "time": 1, "angle": 81.5 },
					{ "time": 1.0667, "angle": 137.43 },
					{ "time": 1.1333, "angle": 139.71 },
					{ "time": 1.1667, "angle": 114.18 },
					{ "time": 1.2, "angle": 102.3 }
				],
				"translate": [
					{ "time": 0, "x": -22.91, "y": -241.27 },
					{ "time": 0.1667, "x": 336.56, "y": -90.41 },
					{ "time": 0.2667, "x": 242.5, "y": 77.24 },
					{ "time": 0.4, "x": 33.04, "y": 101.36 },
					{ "time": 0.4667, "x": -71.09, "y": 50.21 },
					{ "time": 0.5667, "x": -192.74, "y": -50.48 },
					{ "time": 0.6667, "x": -94.87, "y": -154.86 },
					{ "time": 0.7, "x": -5.52, "y": -195.54 },
					{ "time": 0.7333, "x": 127.52, "y": -171.3 },
					{ "time": 0.8, "x": 278.07, "y": -103.72 },
					{ "time": 0.8667, "x": 350.27, "y": 61.76 },
					{ "time": 0.9333, "x": 272.92, "y": 238.9 },
					{ "time": 1, "x": 132.04, "y": 220.62 },
					{ "time": 1.1333, "x": 70.08, "y": 25.03 },
					{ "time": 1.2, "x": -47.21, "y": -261.24 },
					{ "time": 1.2667, "x": -88.73, "y": -309.87 }
				],
				"scale": [
					{ "time": 0, "x": 0.3, "y": 0.3 },
					{ "time": 0.1667, "x": 1, "y": 1 }
				]
			},
			"bone2": {
				"rotate": [
					{ "time": 0, "angle": 10.33 },
					{ "time": 0.1667, "angle": 5.39 },
					{ "time": 0.2667, "angle": -3.43 },
					{ "time": 0.4, "angle": -0.58 },
					{ "time": 0.4667, "angle": 2.24 },
					{ "time": 0.5667, "angle": 5.55 },
					{ "time": 0.6667, "angle": -21.24 },
					{ "time": 0.8, "angle": 8.71 },
					{ "time": 0.8667, "angle": -5.98 },
					{ "time": 0.9333, "angle": 2.63 },
					{ "time": 1, "angle": -44.48 },
					{ "time": 1.1333, "angle": -7.44 },
					{ "time": 1.1667, "angle": 36.48 },
					{ "time": 1.2, "angle": 31.54 }
				],
				"scale": [
					{ "time": 0, "x": 0.695, "y": 1 },
					{ "time": 0.1667, "x": 1, "y": 1 }
				]
			},
			"bone3": {
				"rotate": [
					{ "time": 0, "angle": 10.33 },
					{ "time": 0.1667, "angle": 23.5 },
					{ "time": 0.2667, "angle": -10.85 },
					{ "time": 0.4, "angle": 10.5 },
					{ "time": 0.4667, "angle": 13.87 },
					{ "time": 0.5667, "angle": 22.69 },
					{ "time": 0.6667, "angle": -9.68 },
					{ "time": 0.7, "angle": -15 },
					{ "time": 0.7333, "angle": 19 },
					{ "time": 0.8, "angle": 25.35 },
					{ "time": 0.9333, "angle": 20.04 },
					{ "time": 1, "angle": 16.19 },
					{ "time": 1.0667, "angle": -16.71 },
					{ "time": 1.1333, "angle": 12.2 },
					{ "time": 1.1667, "angle": 40.39 },
					{ "time": 1.2, "angle": 43.4 }
				],
				"scale": [
					{ "time": 0, "x": 0.695, "y": 1 },
					{ "time": 0.1667, "x": 1, "y": 1 },
					{ "time": 1.2667, "x": 0.929, "y": 1 }
				]
			},
			"bone4": {
				"rotate": [
					{ "time": 0, "angle": 10.33 },
					{ "time": 0.2667, "angle": -13.2 },
					{ "time": 0.4667, "angle": -7.39 },
					{ "time": 0.7, "angle": -10.57 },
					{ "time": 0.7333, "angle": -21.46 },
					{ "time": 0.8, "angle": 4.12 },
					{ "time": 0.9333, "angle": -11.91 },
					{ "time": 1.1333, "angle": -28.76 },
					{ "time": 1.2, "angle": 34.94 },
					{ "time": 1.2333, "angle": 24.03 }
				],
				"scale": [
					{ "time": 0, "x": 0.695, "y": 1 },
					{ "time": 0.1667, "x": 0.924, "y": 1 },
					{ "time": 0.2667, "x": 1, "y": 1 },
					{ "time": 1.2667, "x": 0.848, "y": 1 }
				]
			},
			"bone5": {
				"rotate": [
					{ "time": 0, "angle": 10.33 },
					{ "time": 0.1667, "angle": 9.93 },
					{ "time": 0.2667, "angle": 0.49 },
					{ "time": 0.4, "angle": -15.41 },
					{ "time": 0.4667, "angle": -7.49 },
					{ "time": 0.5667, "angle": -3.09 },
					{ "time": 0.6667, "angle": 2.99 },
					{ "time": 0.7, "angle": -5.12 },
					{ "time": 0.7333, "angle": -27.61 },
					{ "time": 0.8, "angle": -9.4 },
					{ "time": 0.8667, "angle": -0.27 },
					{ "time": 0.9333, "angle": -6.44 },
					{ "time": 1, "angle": -2.78 },
					{ "time": 1.0667, "angle": -9.71 },
					{ "time": 1.1333, "angle": -33.75 },
					{ "time": 1.2, "angle": 5.14 },
					{ "time": 1.2667, "angle": 33.37 }
				],
				"scale": [
					{ "time": 0, "x": 0.695, "y": 1 },
					{ "time": 0.1667, "x": 0.839, "y": 1 },
					{ "time": 0.2667, "x": 1, "y": 1, "curve": "stepped" },
					{ "time": 1.2333, "x": 1, "y": 1 },
					{ "time": 1.2667, "x": 0.659, "y": 1 }
				]
			},
			"bone6": {
				"rotate": [
					{ "time": 0, "angle": 10.33 },
					{ "time": 0.1667, "angle": 16.21 },
					{ "time": 0.2667, "angle": 5.42 },
					{ "time": 0.4, "angle": -26.34 },
					{ "time": 0.4667, "angle": -23.42 },
					{ "time": 0.5667, "angle": 0.62 },
					{ "time": 0.6667, "angle": 11.23 },
					{ "time": 0.8, "angle": -31.23 },
					{ "time": 0.8667, "angle": 9.48 },
					{ "time": 1.1333, "angle": -3.76 },
					{ "time": 1.1667, "angle": -28.58 },
					{ "time": 1.2, "angle": 0.19 },
					{ "time": 1.2333, "angle": 3.74 },
					{ "time": 1.2667, "angle": 23.45 }
				],
				"scale": [
					{ "time": 0, "x": 0.695, "y": 1 },
					{ "time": 0.1667, "x": 0.751, "y": 1 },
					{ "time": 0.2667, "x": 1, "y": 1, "curve": "stepped" },
					{ "time": 1.2333, "x": 1, "y": 1 },
					{ "time": 1.2667, "x": 0.772, "y": 1 }
				]
			},
			"bone7": {
				"rotate": [
					{ "time": 0, "angle": 10.33 },
					{ "time": 0.2667, "angle": 11.97 },
					{ "time": 0.4, "angle": -2.78 },
					{ "time": 0.4667, "angle": -17.63 },
					{ "time": 0.5667, "angle": 0.86 },
					{ "time": 0.7, "angle": -2.3 },
					{ "time": 0.8, "angle": -14.08 },
					{ "time": 0.8667, "angle": -9.56 },
					{ "time": 0.9, "angle": 8.87 },
					{ "time": 0.9333, "angle": 4.8 },
					{ "time": 1, "angle": -11.64 },
					{ "time": 1.1333, "angle": -4.28 },
					{ "time": 1.1667, "angle": -33.28 },
					{ "time": 1.2, "angle": 1.48 },
					{ "time": 1.2333, "angle": 4.46 },
					{ "time": 1.2667, "angle": 23.12 }
				],
				"scale": [
					{ "time": 0, "x": 0.695, "y": 1 },
					{ "time": 0.1667, "x": 0.751, "y": 1 },
					{ "time": 0.2667, "x": 1, "y": 1, "curve": "stepped" },
					{ "time": 1.2333, "x": 1, "y": 1 },
					{ "time": 1.2667, "x": 0.867, "y": 1 }
				]
			},
			"bone8": {
				"rotate": [
					{ "time": 0, "angle": 10.33 },
					{ "time": 0.4, "angle": 16.62 },
					{ "time": 0.4667, "angle": 2.99 },
					{ "time": 0.5, "angle": -12.94 },
					{ "time": 0.8, "angle": 1.45 },
					{ "time": 0.9333, "angle": 15.56 },
					{ "time": 1, "angle": -2.47 },
					{ "time": 1.1333, "angle": 8.71 },
					{ "time": 1.1667, "angle": -3.34 },
					{ "time": 1.2333, "angle": 1.89 },
					{ "time": 1.2667, "angle": 41.06 }
				],
				"scale": [
					{ "time": 0, "x": 0.695, "y": 1 },
					{ "time": 0.1667, "x": 0.751, "y": 1 }
				]
			},
			"dragon2": {
				"rotate": [
					{ "time": 0, "angle": -95.77 },
					{ "time": 0.1333, "angle": -97.31 },
					{ "time": 0.1667, "angle": -101.55 },
					{ "time": 0.2333, "angle": -136.4 },
					{ "time": 0.2667, "angle": -146.81 },
					{ "time": 0.3, "angle": -151.84 },
					{ "time": 0.3333, "angle": 140.74 },
					{ "time": 0.3667, "angle": 103.83 },
					{ "time": 0.4, "angle": 29.16 },
					{ "time": 0.4667, "angle": 47.06 },
					{ "time": 0.5333, "angle": 86.89 },
					{ "time": 0.6, "angle": 79.09 },
					{ "time": 0.6667, "angle": -30.27 },
					{ "time": 0.7333, "angle": -83.68 },
					{ "time": 0.8, "angle": -101.32 },
					{ "time": 0.9333, "angle": -102.8 },
					{ "time": 1.0667, "angle": 173.41 },
					{ "time": 1.1333, "angle": 133.83 },
					{ "time": 1.2, "angle": 111.66 },
					{ "time": 1.2667, "angle": 136.1 },
					{ "time": 1.3333, "angle": 157.86 }
				],
				"translate": [
					{ "time": 0, "x": -22.91, "y": -241.27 },
					{ "time": 0.1, "x": -82.73, "y": -54.11 },
					{ "time": 0.1333, "x": -15.37, "y": 49.38 },
					{ "time": 0.1667, "x": 30.55, "y": 70.32 },
					{ "time": 0.2333, "x": 101.1, "y": 54.69 },
					{ "time": 0.2667, "x": 133.29, "y": 43.23 },
					{ "time": 0.3, "x": 145.77, "y": 38.78 },
					{ "time": 0.3667, "x": 58, "y": -32.85 },
					{ "time": 0.4, "x": -10.46, "y": -2.89 },
					{ "time": 0.4667, "x": -117.96, "y": -6.24 },
					{ "time": 0.5333, "x": -199.23, "y": -65.64 },
					{ "time": 0.6, "x": -300.35, "y": -110.32 },
					{ "time": 0.6667, "x": -349.81, "y": -23.89 },
					{ "time": 0.7333, "x": -318.86, "y": 37.31 },
					{ "time": 0.8, "x": -228.66, "y": 115 },
					{ "time": 0.9333, "x": -78.65, "y": 187.65 },
					{ "time": 1.0667, "x": -11.76, "y": 138.49 },
					{ "time": 1.1333, "x": -36.03, "y": 65.41 },
					{ "time": 1.2, "x": -133.84, "y": -115.91 },
					{ "time": 1.2667, "x": -128.24, "y": -211.8 },
					{ "time": 1.3333, "x": -83.04, "y": -307.81 }
				],
				"scale": [
					{ "time": 0, "x": 0.3, "y": 0.3 },
					{ "time": 0.1333, "x": 1, "y": -1 }
				]
			},
			"bone15": {
				"rotate": [
					{ "time": 0, "angle": 10.33 },
					{ "time": 0.2667, "angle": 5.67 },
					{ "time": 0.3, "angle": 73.57 },
					{ "time": 0.3667, "angle": 75.84 },
					{ "time": 0.4, "angle": 48.66 },
					{ "time": 0.4667, "angle": 18.95 },
					{ "time": 0.5333, "angle": 3.23 },
					{ "time": 0.6667, "angle": -11.41 },
					{ "time": 0.7333, "angle": -35.47 },
					{ "time": 0.8, "angle": 56.83 },
					{ "time": 0.9333, "angle": 15.57 },
					{ "time": 1.0667, "angle": -16.46 },
					{ "time": 1.1333, "angle": 0.38 },
					{ "time": 1.2, "angle": 18.22 },
					{ "time": 1.2667, "angle": 28.88 },
					{ "time": 1.3333, "angle": 2.27 }
				],
				"scale": [
					{ "time": 0, "x": 0.695, "y": 1 },
					{ "time": 0.1667, "x": 0.751, "y": 1 }
				]
			},
			"bone14": {
				"rotate": [
					{ "time": 0, "angle": 10.33 },
					{ "time": 0.1667, "angle": -3.19 },
					{ "time": 0.2333, "angle": -12.26 },
					{ "time": 0.2667, "angle": -16.07 },
					{ "time": 0.3, "angle": 47.38 },
					{ "time": 0.3333, "angle": 68.65 },
					{ "time": 0.3667, "angle": 58.8 },
					{ "time": 0.4, "angle": 16.36 },
					{ "time": 0.4667, "angle": -2.68 },
					{ "time": 0.5333, "angle": -17.75 },
					{ "time": 0.6, "angle": -41.41 },
					{ "time": 0.6667, "angle": -36.36 },
					{ "time": 0.7333, "angle": 61.37 },
					{ "time": 0.8, "angle": 51.17 },
					{ "time": 0.9333, "angle": -10.34 },
					{ "time": 1.0667, "angle": -50.22 },
					{ "time": 1.1333, "angle": -4.81 },
					{ "time": 1.2, "angle": -5.58 },
					{ "time": 1.2667, "angle": 33.84 },
					{ "time": 1.3333, "angle": 7.36 }
				],
				"scale": [
					{ "time": 0, "x": 0.695, "y": 1 },
					{ "time": 0.1667, "x": 0.751, "y": 1 },
					{ "time": 0.2667, "x": 1, "y": 1 }
				]
			},
			"bone13": {
				"rotate": [
					{ "time": 0, "angle": 10.33 },
					{ "time": 0.1667, "angle": -14.18 },
					{ "time": 0.2333, "angle": -6.46 },
					{ "time": 0.2667, "angle": -33.42 },
					{ "time": 0.3, "angle": 55.78 },
					{ "time": 0.3667, "angle": 21.32 },
					{ "time": 0.4667, "angle": -19.32 },
					{ "time": 0.5333, "angle": -45.44 },
					{ "time": 0.6, "angle": -66.08 },
					{ "time": 0.6667, "angle": 38.22 },
					{ "time": 0.7333, "angle": 38.05 },
					{ "time": 0.8, "angle": 28.21 },
					{ "time": 0.9333, "angle": -48.76 },
					{ "time": 1.0667, "angle": -14.43 },
					{ "time": 1.1333, "angle": 3.12 },
					{ "time": 1.2, "angle": -0.57 },
					{ "time": 1.2667, "angle": 52.34 },
					{ "time": 1.3333, "angle": 5.64 }
				],
				"scale": [
					{ "time": 0, "x": 0.695, "y": 1 },
					{ "time": 0.1667, "x": 0.751, "y": 1 },
					{ "time": 0.2667, "x": 1, "y": 1 }
				]
			},
			"bone12": {
				"rotate": [
					{ "time": 0, "angle": 10.33 },
					{ "time": 0.1667, "angle": -10.59 },
					{ "time": 0.2667, "angle": -5.2 },
					{ "time": 0.3667, "angle": 5.7 },
					{ "time": 0.4, "angle": -7.41 },
					{ "time": 0.4667, "angle": -38.98 },
					{ "time": 0.5333, "angle": -76.58 },
					{ "time": 0.6, "angle": 39.84 },
					{ "time": 0.6667, "angle": 36.18 },
					{ "time": 0.7333, "angle": 17.22 },
					{ "time": 0.8, "angle": -27.68 },
					{ "time": 0.9333, "angle": -38.65 },
					{ "time": 1.0667, "angle": 5.66 },
					{ "time": 1.1333, "angle": 1.23 },
					{ "time": 1.2, "angle": -37.71 },
					{ "time": 1.2667, "angle": 43.09 },
					{ "time": 1.3333, "angle": -23.66 }
				],
				"scale": [
					{ "time": 0, "x": 0.695, "y": 1 },
					{ "time": 0.1667, "x": 0.839, "y": 1 },
					{ "time": 0.2667, "x": 1, "y": 1 }
				]
			},
			"bone11": {
				"rotate": [
					{ "time": 0, "angle": 10.33 },
					{ "time": 0.1667, "angle": -13.01 },
					{ "time": 0.2667, "angle": 0.51 },
					{ "time": 0.3667, "angle": 1.68 },
					{ "time": 0.4, "angle": -47.96 },
					{ "time": 0.4667, "angle": -71.13 },
					{ "time": 0.5333, "angle": -11.36 },
					{ "time": 0.6, "angle": 58.04 },
					{ "time": 0.6667, "angle": 37.18 },
					{ "time": 0.7333, "angle": -15 },
					{ "time": 0.8, "angle": -54.55 },
					{ "time": 0.9333, "angle": -11.3 },
					{ "time": 1.0667, "angle": 5.29 },
					{ "time": 1.1333, "angle": -0.67 },
					{ "time": 1.2, "angle": -46.55 },
					{ "time": 1.2667, "angle": 49.44 },
					{ "time": 1.3333, "angle": -0.33 }
				],
				"scale": [
					{ "time": 0, "x": 0.695, "y": 1 },
					{ "time": 0.1667, "x": 0.924, "y": 1 },
					{ "time": 0.2667, "x": 1, "y": 1 }
				]
			},
			"bone10": {
				"rotate": [
					{ "time": 0, "angle": 10.33 },
					{ "time": 0.1667, "angle": 23.5 },
					{ "time": 0.2667, "angle": 0.52 },
					{ "time": 0.3, "angle": 13.76 },
					{ "time": 0.3667, "angle": -32.4 },
					{ "time": 0.4, "angle": -42.66 },
					{ "time": 0.4667, "angle": -18.54 },
					{ "time": 0.5333, "angle": 74.87 },
					{ "time": 0.6, "angle": 29.41 },
					{ "time": 0.6667, "angle": -2.09 },
					{ "time": 0.7333, "angle": -14.71 },
					{ "time": 0.8, "angle": -6.23 },
					{ "time": 0.9333, "angle": 23.51 },
					{ "time": 1.0667, "angle": 15.43 },
					{ "time": 1.1333, "angle": -22.43 },
					{ "time": 1.2, "angle": 10.64 },
					{ "time": 1.2667, "angle": 16.18 },
					{ "time": 1.3333, "angle": 54.86 }
				],
				"scale": [
					{ "time": 0, "x": 0.695, "y": 1 },
					{ "time": 0.1667, "x": 1, "y": 1 }
				]
			},
			"bone9": {
				"rotate": [
					{ "time": 0, "angle": 10.33 },
					{ "time": 0.1667, "angle": 5.39 },
					{ "time": 0.2667, "angle": -3.43 },
					{ "time": 0.3, "angle": -19.76 },
					{ "time": 0.3333, "angle": -64.27 },
					{ "time": 0.3667, "angle": -68.81 },
					{ "time": 0.4667, "angle": 14.83 },
					{ "time": 0.5333, "angle": 35.41 },
					{ "time": 0.6, "angle": 17.76 },
					{ "time": 0.6667, "angle": -74.43 },
					{ "time": 0.7333, "angle": -71.1 },
					{ "time": 0.8, "angle": -23.53 },
					{ "time": 0.9333, "angle": 14.77 },
					{ "time": 1.0667, "angle": -57.96 },
					{ "time": 1.1333, "angle": -48.66 },
					{ "time": 1.2, "angle": 16.09 },
					{ "time": 1.2667, "angle": -1.32 },
					{ "time": 1.3333, "angle": 33.73 }
				],
				"scale": [
					{ "time": 0, "x": 0.695, "y": 1 },
					{ "time": 0.1667, "x": 1, "y": 1 }
				]
			},
			"ice_3": {
				"scale": [
					{ "time": 1.2333, "x": 1, "y": 1 },
					{ "time": 1.3, "x": 1.5, "y": 1.5 }
				]
			},
			"ice_1": {
				"translate": [
					{ "time": 0, "x": 0, "y": -41.28, "curve": "stepped" },
					{ "time": 1.1667, "x": 0, "y": -41.28 },
					{ "time": 1.2667, "x": 0, "y": 0 }
				],
				"scale": [
					{ "time": 0, "x": 0.5, "y": 0.5 },
					{ "time": 1.1667, "x": 1.5, "y": 0.5 },
					{ "time": 1.2333, "x": 1.5, "y": 1.5 }
				]
			},
			"ice_2": {
				"scale": [
					{ "time": 1.3333, "x": 1, "y": 1 },
					{ "time": 1.4, "x": 1.5, "y": 1.5 }
				]
			},
			"light1": {
				"scale": [
					{ "time": 0, "x": 0.5, "y": 0.5, "curve": "stepped" },
					{ "time": 1.2, "x": 0.5, "y": 0.5 },
					{ "time": 1.3, "x": 3.5, "y": 3.5 },
					{ "time": 1.8333, "x": 4, "y": 4 }
				]
			},
			"light2": {
				"rotate": [
					{ "time": 0, "angle": 0 },
					{ "time": 0.3333, "angle": 90 },
					{ "time": 0.6667, "angle": 180 },
					{ "time": 1, "angle": -90 },
					{ "time": 1.3333, "angle": 0 }
				]
			},
			"light": {
				"scale": [
					{ "time": 0, "x": 1, "y": 0.7 },
					{ "time": 1.5, "x": 3, "y": 2.1 }
				]
			},
			"00": {
				"translate": [
					{ "time": 0, "x": 0, "y": -37.95 }
				]
			}
		}
	}
}
}