{
"skeleton": { "hash": "Y3V8OVYh8/wrCmATJgXkfDorPBM", "spine": "3.7.94", "width": 645.79, "height": 792.27 },
"bones": [
	{ "name": "root" },
	{ "name": "character2", "parent": "root", "x": 1093.64, "y": -460.74 },
	{ "name": "Rhand1", "parent": "character2", "length": 235.9, "rotation": -73.7, "x": 189, "y": 495.61 },
	{ "name": "Rhand2", "parent": "Rhand1", "length": 399.52, "rotation": -107.94, "x": 235.87, "y": -0.99 },
	{ "name": "Lhand2", "parent": "Rhand2", "length": 169.16, "rotation": -0.34, "x": 280.04, "y": -219.46 },
	{ "name": "Lhand1", "parent": "Lhand2", "length": 158.88, "rotation": 35.92, "x": -88.81, "y": -71.22 },
	{ "name": "Lhand3", "parent": "Lhand2", "length": 50, "rotation": -151.92, "x": 235.69, "y": -138.05 },
	{ "name": "Lhand4", "parent": "Lhand3", "length": 50, "rotation": -29.17, "x": 45.88, "y": -0.74 },
	{ "name": "Lhand5", "parent": "Lhand3", "rotation": 151.92, "x": 29.62, "y": 92.57 },
	{ "name": "Lhand6", "parent": "Lhand3", "rotation": 151.92, "x": 92.96, "y": 64.98 },
	{ "name": "Lhand7", "parent": "Lhand4", "length": 64.1, "rotation": -23.58, "x": 48.45, "y": 0.89 },
	{ "name": "headL", "parent": "character2", "x": 266.79, "y": 660.68 },
	{ "name": "headR", "parent": "character2", "x": -53.54, "y": 739.65 },
	{ "name": "faceR", "parent": "character2", "x": 201.75, "y": 591.12, "shearY": -0.11 },
	{ "name": "faceL", "parent": "character2", "x": 28.37, "y": 596.51, "shearY": -0.11 },
	{ "name": "eye", "parent": "character2", "rotation": 5.06, "x": 124.57, "y": 626.34 },
	{ "name": "mouth", "parent": "character2", "x": 125.26, "y": 569.71, "scaleY": 0.711 }
],
"slots": [
	{ "name": "Lhand2", "bone": "Lhand2", "attachment": "Lhand1" },
	{ "name": "Lhand3", "bone": "Lhand1", "attachment": "Lhand3" },
	{ "name": "body", "bone": "character2", "attachment": "body" },
	{ "name": "Rhand1", "bone": "Rhand1", "attachment": "Rhand1" },
	{ "name": "character2_Lhand2", "bone": "Lhand2", "attachment": "Lhand2" },
	{ "name": "Rhand2", "bone": "Rhand2", "attachment": "Rhand2" }
],
"skins": {
	"default": {
		"Lhand2": {
			"Lhand1": {
				"type": "mesh",
				"uvs": [ 0.38245, 0.01415, 0.29459, 0, 0.32024, 0.0474, 0.21589, 0.0857, 0.24527, 0.10727, 0.18875, 0.14627, 0.22193, 0.16149, 0.1517, 0.2049, 0.17584, 0.22318, 0.11915, 0.24812, 0.1371, 0.26836, 0.07857, 0.29458, 0.07295, 0.2971, 0.10678, 0.33138, 0.01841, 0.38104, 0.01291, 0.48755, 0, 0.73731, 0.16688, 0.83037, 0.28921, 0.89524, 0.48677, 1, 1, 1, 1, 0.87448, 1, 0.76396, 0.71035, 0.72594, 0.46759, 0.69407, 0.24874, 0.6668, 0.2242, 0.48496, 0.28374, 0.48042, 0.33562, 0.46731, 0.38738, 0.45422, 0.43812, 0.4414, 0.49006, 0.42827, 0.54711, 0.39888, 0.60508, 0.36901, 0.64591, 0.33242, 0.6752, 0.30617, 0.69933, 0.28455, 0.67349, 0.22393, 0.63963, 0.23025, 0.59725, 0.23814, 0.54772, 0.24738, 0.50853, 0.25987, 0.46495, 0.27376, 0.4013, 0.28584, 0.34236, 0.29703, 0.28708, 0.30346, 0.24579, 0.30827, 0.22842, 0.29874, 0.2985, 0.2742, 0.25667, 0.24704, 0.3178, 0.22718, 0.32326, 0.20496, 0.35887, 0.17093, 0.33109, 0.14433, 0.39876, 0.10669, 0.37397, 0.07659, 0.47697, 1.0E-5, 0.37416, 0.03438, 0.28748, 0.08011, 0.32335, 0.10657, 0.26806, 0.13752, 0.28131, 0.16173, 0.23492, 0.19367, 0.20439, 0.26245, 0.1442, 0.28808, 0.17524, 0.31985, 0.20755, 0.75647, 0.36996, 0.80416, 0.60535, 0.85465, 0.21746, 0.22058 ],
				"triangles": [ 33, 41, 40, 40, 39, 33, 33, 39, 34, 34, 39, 35, 35, 39, 38, 35, 38, 36, 36, 38, 37, 33, 32, 41, 31, 42, 32, 43, 42, 31, 30, 43, 31, 29, 43, 30, 29, 44, 43, 28, 45, 44, 28, 44, 29, 42, 41, 32, 19, 68, 20, 68, 21, 20, 18, 67, 19, 19, 67, 68, 17, 66, 18, 18, 66, 67, 68, 23, 21, 23, 22, 21, 67, 24, 68, 68, 24, 23, 17, 16, 66, 66, 25, 67, 67, 25, 24, 66, 16, 25, 25, 16, 15, 25, 15, 26, 26, 13, 65, 26, 15, 13, 15, 14, 13, 26, 46, 27, 26, 65, 46, 27, 45, 28, 27, 46, 45, 12, 11, 13, 13, 64, 65, 13, 11, 64, 65, 47, 46, 65, 64, 47, 47, 64, 48, 11, 10, 64, 48, 63, 49, 48, 64, 63, 64, 10, 63, 10, 9, 63, 9, 8, 63, 63, 69, 49, 63, 8, 69, 69, 62, 49, 49, 62, 50, 50, 62, 51, 69, 8, 62, 62, 8, 7, 62, 61, 51, 51, 61, 52, 7, 6, 62, 62, 6, 61, 61, 53, 52, 6, 60, 61, 61, 60, 53, 6, 5, 60, 5, 4, 60, 60, 59, 53, 53, 59, 54, 60, 4, 59, 4, 58, 59, 4, 3, 58, 59, 55, 54, 59, 58, 55, 2, 58, 3, 55, 58, 57, 56, 57, 0, 56, 55, 57, 57, 58, 2, 57, 2, 0, 0, 2, 1 ],
				"vertices": [ 2, 6, 110.85, 141.95, 0.5, 9, 20.44, -76.33, 0.5, 2, 6, 86.76, 153.76, 0.65, 8, -21.61, -80.88, 0.35, 1, 6, 89.61, 132.98, 1, 2, 6, 55.69, 124.93, 0.65, 8, -7.76, -40.82, 0.35, 1, 6, 62.11, 114.24, 1, 2, 6, 41.97, 102.57, 0.65, 8, -6.19, -14.63, 0.35, 1, 6, 50.11, 94.15, 1, 2, 6, 25.58, 81.67, 0.65, 8, -1.56, 11.52, 0.35, 1, 6, 30.8, 72.66, 1, 2, 6, 11.97, 66.64, 0.65, 8, 3.37, 31.19, 0.35, 1, 6, 15.22, 57.28, 1, 2, 6, -4.27, 50.87, 0.65, 8, 10.27, 52.75, 0.35, 2, 6, -6.14, 50.25, 0.65, 8, 11.64, 54.18, 0.35, 1, 6, 0.35, 34.16, 1, 1, 6, -30.05, 20.44, 1, 2, 6, -41.93, -21.83, 0.70105, 4, 262.41, -99.05, 0.29895, 1, 4, 240.33, 1.53, 1, 1, 4, 182.57, 26.18, 1, 1, 4, 140.58, 42.91, 1, 1, 4, 72.77, 69.93, 1, 1, 4, -75.29, 31.58, 1, 1, 4, -62.32, -18.48, 1, 1, 4, -50.9, -62.56, 1, 1, 4, 36.58, -56.08, 1, 1, 4, 109.91, -50.65, 1, 1, 4, 175.86, -45.18, 1, 1, 6, 19.53, -35.56, 1, 2, 6, 37.21, -37.9, 0.65, 7, -8.65, -37.17, 0.35, 2, 6, 53.51, -36.27, 0.44, 7, 7.64, -35.54, 0.56, 1, 7, 23.9, -33.91, 1, 2, 7, 39.84, -32.31, 0.91, 10, -14.61, -31.03, 0.09, 3, 6, 102.02, -31.43, 0.14652, 7, 56.15, -30.68, 0.78, 10, 1.73, -32.45, 0.07348, 2, 7, 75.52, -22.89, 0.66, 10, 22.2, -28.37, 0.34, 2, 7, 95.19, -14.97, 0.18, 10, 43, -24.24, 0.82, 2, 7, 110.55, -3.16, 0.06, 10, 60.28, -15.48, 0.94, 1, 10, 72.68, -9.2, 1, 1, 10, 82.89, -4.02, 1, 1, 10, 86.11, 21.92, 1, 1, 10, 75.84, 23.68, 1, 2, 7, 105.55, 38, 0.06, 10, 62.99, 25.89, 0.94, 2, 7, 90.31, 37.76, 0.2, 10, 47.96, 28.48, 0.8, 2, 7, 77.75, 35.49, 0.66, 10, 35.2, 28.57, 0.34, 2, 6, 109.67, 32.21, 0.09, 7, 63.78, 32.96, 0.91, 2, 7, 44.18, 32.57, 0.91, 10, 1.67, 31.92, 0.09, 1, 7, 26.02, 32.2, 1, 2, 6, 55.27, 32.74, 0.44, 7, 9.39, 33.48, 0.56, 2, 6, 42.85, 33.7, 0.65, 7, -3.04, 34.44, 0.35, 2, 6, 38.74, 38.73, 0.5, 9, 35.48, 48.68, 0.5, 2, 6, 61.41, 43.66, 0.5, 9, 17.8, 33.66, 0.5, 2, 6, 51.91, 57.46, 0.5, 9, 32.67, 25.95, 0.5, 2, 6, 71.54, 61.15, 0.5, 9, 17.09, 13.46, 0.5, 2, 6, 75.27, 69.67, 0.5, 9, 17.81, 4.19, 0.5, 2, 6, 88.87, 80.81, 0.5, 9, 11.05, -12.04, 0.5, 2, 6, 83.39, 93.4, 0.5, 9, 21.81, -20.57, 0.5, 2, 6, 106.63, 103.75, 0.5, 9, 6.18, -40.64, 0.5, 2, 6, 102.36, 117.53, 0.5, 9, 16.44, -50.79, 0.5, 2, 6, 139.6, 141.01, 0.5, 9, -5.36, -89.03, 0.5, 2, 6, 106.49, 134.43, 0.5, 9, 20.75, -67.64, 0.5, 1, 6, 76.97, 122.17, 1, 1, 6, 84.8, 109.07, 1, 1, 6, 65.79, 100.53, 1, 1, 6, 67.29, 89.91, 1, 1, 6, 50.77, 80.36, 1, 1, 6, 35.28, 54.94, 1, 1, 6, 15.37, 48.88, 1, 1, 6, 21.29, 33.99, 1, 1, 4, 178.48, -6.34, 1, 1, 4, 126.69, 0.55, 1, 1, 4, 53.58, 3.1, 1, 1, 6, 43.11, 70.8, 1 ],
				"hull": 57
			}
		},
		"Lhand3": {
			"Lhand3": {
				"x": 24.47,
				"y": 21.29,
				"scaleX": 0.997,
				"scaleY": 0.997,
				"rotation": 134.56,
				"width": 159,
				"height": 132
			}
		},
		"Rhand1": {
			"Rhand1": { "x": 140.82, "y": -1.56, "rotation": 88.55, "width": 202, "height": 273 }
		},
		"Rhand2": {
			"Rhand2": { "x": 208.52, "y": 0.6, "rotation": -163.51, "width": 495, "height": 301 }
		},
		"body": {
			"body": {
				"type": "mesh",
				"uvs": [ 0.6563, 1.0E-5, 0.52469, 1.0E-5, 0.51369, 0.07385, 0.41859, 0.0656, 0.34619, 0.11971, 0.29841, 0.0997, 0.24263, 0.17502, 0.2822, 0.24515, 0.36882, 0.24143, 0.49475, 0.21855, 0.40551, 0.27439, 0.33016, 0.32153, 0.27344, 0.49654, 0.23128, 0.62662, 0.04417, 0.71999, 1.0E-5, 0.85507, 0.24962, 1, 0.8731, 0.96339, 0.76786, 0.81944, 0.90063, 0.70453, 0.99118, 0.55064, 0.98866, 0.40298, 0.81927, 0.26919, 0.90079, 0.28346, 0.99326, 0.24653, 0.98188, 0.12862, 0.91917, 0.126, 0.8332, 0.06677, 0.75319, 0.06839, 0.71776, 1.0E-5, 0.81763, 0.37494, 0.62866, 0.43801, 0.65275, 0.5244, 0.77153, 0.5709, 0.4093, 0.44221, 0.30983, 0.66133, 0.34969, 0.1642, 0.44611, 0.14134, 0.86844, 0.18884, 0.82194, 0.22816, 0.74772, 0.3413, 0.61722, 0.34376, 0.56049, 0.18471, 0.57188, 0.29741, 0.6723, 0.19915, 0.71771, 0.2057, 0.77674, 0.17677, 0.79844, 0.17241, 0.71771, 0.14784, 0.70167, 0.07907, 0.72968, 0.27327, 0.71358, 0.28552, 0.66306, 0.27696, 0.61223, 0.22612, 0.64479, 0.22396, 0.67518, 0.23359, 0.63611, 0.23961, 0.71153, 0.23409, 0.66188, 0.26109, 0.68545, 0.25892, 0.69148, 0.23461, 0.72375, 0.23094, 0.74017, 0.21841, 0.7667, 0.21204, 0.7528, 0.23117, 0.77856, 0.27362, 0.70023, 0.3587, 0.3565, 0.55852, 0.64798, 0.67433, 0.52658, 0.18213, 0.53998, 0.26479, 0.64842, 0.29007, 0.63609, 0.29641, 0.6473, 0.32175, 0.7293, 0.3154, 0.73564, 0.28357, 0.70526, 0.29257, 0.70244, 0.32303, 0.73761, 0.26994, 0.60307, 0.25463, 0.76294, 0.25028, 0.63474, 0.20373, 0.58369, 0.20038, 0.67554, 0.22499, 0.71377, 0.22381, 0.73807, 0.2083, 0.77686, 0.1833, 0.66832, 0.30401, 0.70456, 0.30443, 0.73673, 0.29703, 0.6697, 0.29105, 0.67061, 0.32603, 0.72211, 0.17622, 0.483, 0.3558 ],
				"triangles": [ 47, 28, 27, 28, 47, 46, 39, 47, 38, 86, 47, 39, 65, 63, 86, 64, 62, 63, 61, 62, 64, 80, 64, 63, 65, 80, 63, 65, 86, 39, 78, 61, 64, 78, 64, 80, 50, 61, 78, 57, 61, 50, 39, 40, 65, 78, 80, 65, 22, 39, 23, 75, 50, 78, 51, 50, 75, 65, 89, 75, 65, 75, 78, 40, 89, 65, 22, 40, 39, 4, 3, 37, 36, 6, 5, 36, 5, 4, 8, 36, 37, 7, 6, 36, 7, 36, 8, 49, 0, 29, 49, 29, 28, 37, 3, 2, 48, 49, 28, 36, 4, 37, 46, 48, 28, 46, 92, 48, 2, 0, 49, 0, 2, 1, 49, 42, 2, 48, 42, 49, 42, 69, 2, 9, 37, 2, 86, 46, 47, 48, 44, 42, 92, 44, 48, 81, 82, 42, 44, 81, 42, 45, 44, 92, 45, 92, 46, 85, 45, 46, 85, 46, 86, 63, 85, 86, 62, 85, 63, 69, 9, 2, 45, 83, 44, 84, 45, 85, 83, 54, 81, 84, 83, 45, 83, 81, 44, 53, 82, 81, 53, 81, 54, 62, 61, 84, 62, 84, 85, 55, 54, 83, 84, 60, 83, 57, 84, 61, 60, 55, 83, 84, 57, 60, 56, 53, 54, 56, 54, 55, 8, 37, 9, 79, 82, 53, 79, 53, 56, 59, 55, 60, 58, 56, 55, 58, 55, 59, 70, 69, 42, 43, 70, 42, 82, 43, 42, 9, 69, 70, 52, 58, 59, 60, 57, 51, 51, 59, 60, 57, 50, 51, 52, 59, 51, 71, 56, 58, 71, 58, 52, 72, 79, 56, 76, 90, 52, 71, 52, 90, 51, 76, 52, 76, 51, 75, 71, 72, 56, 76, 75, 89, 79, 43, 82, 43, 79, 72, 87, 71, 90, 72, 71, 87, 88, 90, 76, 88, 76, 89, 87, 90, 88, 74, 88, 89, 73, 72, 87, 77, 87, 88, 77, 88, 74, 91, 87, 77, 73, 87, 91, 74, 89, 40, 41, 43, 72, 41, 72, 73, 70, 93, 10, 70, 10, 9, 93, 70, 43, 66, 91, 77, 40, 66, 77, 40, 77, 74, 41, 73, 91, 66, 41, 91, 30, 40, 22, 21, 30, 22, 31, 41, 66, 30, 31, 66, 30, 66, 40, 93, 43, 41, 31, 93, 41, 93, 11, 10, 34, 11, 93, 12, 11, 34, 32, 31, 30, 34, 93, 31, 32, 34, 31, 67, 12, 34, 33, 32, 30, 20, 33, 30, 20, 30, 21, 13, 12, 67, 35, 13, 67, 32, 67, 34, 68, 32, 33, 68, 67, 32, 19, 33, 20, 68, 33, 19, 18, 68, 19, 35, 67, 68, 18, 35, 68, 35, 14, 13, 16, 35, 18, 16, 14, 35, 15, 14, 16, 16, 18, 17, 38, 47, 27, 26, 38, 27, 26, 25, 24, 24, 23, 38, 24, 38, 26, 39, 38, 23 ],
				"vertices": [ 1, 1, 102.49, 802.21, 1, 1, 1, 30.59, 802.21, 1, 1, 1, 23.43, 745.8, 1, 2, 1, -28.97, 752.1, 0.35, 12, 25.9, 71.54, 0.65, 2, 1, -68.86, 710.76, 0.36, 12, -13.99, 30.2, 0.64, 1, 12, -40.31, 45.49, 1, 1, 12, -71.05, -12.05, 1, 1, 12, -49.25, -65.63, 1, 2, 1, -56.39, 617.76, 0.24055, 12, -1.52, -62.79, 0.75945, 2, 1, 13, 635.25, 0.59, 14, -9.97, 41.35, 0.41, 2, 1, -34.43, 593.42, 0.68217, 14, -62.79, -3.09, 0.31783, 2, 1, -77.69, 556.57, 0.76, 14, -100.5, -37.33, 0.24, 2, 1, -108.95, 422.86, 0.76, 14, -131.49, -171.04, 0.24, 1, 1, -132.17, 323.48, 1, 2, 1, -235.27, 252.15, 0.7, 14, -257.48, -341.75, 0.3, 2, 1, -259.6, 148.95, 0.66, 14, -281.61, -444.95, 0.34, 1, 1, -122.07, 38.22, 1, 2, 1, 221.47, 66.19, 0.68, 13, 15.59, -523.34, 0.32, 2, 1, 163.48, 176.17, 0.792, 13, -42.4, -413.36, 0.208, 2, 1, 236.64, 263.96, 0.688, 13, 30.76, -325.57, 0.312, 2, 1, 286.53, 381.53, 0.69, 13, 80.65, -208, 0.31, 2, 1, 285.14, 494.34, 0.73, 13, 79.26, -95.18, 0.27, 2, 1, 191.81, 596.56, 0.584, 13, -14.07, 7.03, 0.416, 2, 11, -16.78, -67.72, 0.68954, 1, 236.73, 585.65, 0.31046, 1, 11, 34.17, -39.51, 1, 1, 11, 27.9, 50.58, 1, 1, 11, -6.66, 52.58, 1, 2, 11, -54.03, 97.83, 0.70644, 1, 199.48, 751.21, 0.29356, 2, 1, 155.4, 749.97, 0.47, 13, -50.48, 160.44, 0.53, 2, 1, 136.06, 802.21, 0.47, 13, -69.82, 212.68, 0.53, 2, 1, 190.9, 515.77, 0.816, 13, -14.98, -73.76, 0.184, 1, 1, 86.78, 467.58, 1, 1, 1, 100.06, 401.58, 1, 2, 1, 165.5, 366.05, 0.768, 13, -40.37, -223.48, 0.232, 1, 1, -34.09, 464.37, 1, 1, 1, -88.9, 296.97, 1, 2, 1, -66.93, 676.77, 0.4519, 12, -12.06, -3.78, 0.5481, 2, 1, -13.8, 694.23, 0.70655, 12, 41.07, 13.68, 0.29345, 2, 11, -34.61, 4.57, 0.44275, 1, 218.9, 657.94, 0.55725, 3, 11, -60.23, -25.48, 0.00423, 1, 193.28, 627.9, 0.11577, 13, -12.13, 38.63, 0.88, 2, 1, 152.39, 541.46, 0.664, 13, -53.49, -48.07, 0.336, 2, 1, 80.48, 539.58, 0.68, 14, 57.7, -54.32, 0.32, 2, 1, 49.22, 661.1, 0.47, 14, 26.2, 67.2, 0.53, 2, 1, 55.49, 575, 0.55, 14, 32.65, -18.9, 0.45, 1, 1, 110.83, 650.07, 1, 1, 1, 135.85, 645.07, 1, 2, 1, 168.37, 667.17, 0.648, 13, -37.51, 77.64, 0.352, 3, 11, -73.18, 17.12, 0.04937, 1, 180.33, 670.5, 0.31063, 13, -23.62, 82.03, 0.64, 1, 1, 135.85, 689.27, 1, 1, 1, 127.09, 741.81, 1, 2, 1, 142.44, 593.44, 0.47, 13, -63.44, 3.91, 0.53, 3, 1, 133.57, 584.08, 0.43347, 13, -72.3, -5.45, 0.33688, 14, 108.53, -9.82, 0.22965, 3, 1, 105.73, 590.62, 0.52224, 13, -100.15, 1.09, 0.11776, 14, 80.22, -3.28, 0.36, 4, 1, 77.73, 629.46, 0.40262, 13, -128.15, 39.93, 0.12714, 14, 51.36, 35.56, 0.23, 15, -47.04, 3.12, 0.24024, 2, 1, 95.67, 631.12, 0.624, 15, -28.9, 4.77, 0.376, 3, 1, 112.41, 623.76, 0.4368, 13, -93.47, 34.23, 0.1632, 15, -12.39, -2.59, 0.4, 3, 1, 90.89, 619.16, 0.5148, 14, 67.95, 25.26, 0.22, 15, -33.68, -7.19, 0.2652, 2, 1, 132.44, 623.37, 0.56, 13, -73.43, 33.85, 0.44, 3, 1, 105.09, 602.75, 0.67064, 13, -100.79, 13.22, 0.15936, 14, 79.44, 8.85, 0.17, 3, 1, 118.07, 604.41, 0.61304, 13, -87.81, 14.88, 0.17696, 14, 91.97, 10.51, 0.21, 3, 1, 122.37, 622.98, 0.58512, 13, -83.52, 33.45, 0.152, 14, 99.42, 29.08, 0.26288, 3, 1, 139.18, 625.78, 0.2856, 13, -66.7, 36.25, 0.3944, 15, 14.1, -0.56, 0.32, 3, 1, 148.22, 635.35, 0.42768, 13, -57.65, 45.82, 0.36432, 15, 23.27, 9.01, 0.208, 3, 1, 162.84, 640.22, 0.3344, 13, -43.04, 50.69, 0.4256, 15, 37.8, 13.88, 0.24, 3, 1, 155.18, 625.61, 0.2976, 13, -50.69, 36.08, 0.4464, 15, 30.09, -0.74, 0.256, 2, 1, 169.38, 593.17, 0.28, 13, -36.5, 3.64, 0.72, 3, 1, 126.22, 528.17, 0.44277, 13, -79.66, -61.35, 0.30477, 14, 101.38, -65.72, 0.25247, 1, 1, -63.18, 375.51, 1, 1, 1, 97.43, 287.03, 1, 3, 1, 30.54, 663.07, 0.4608, 13, -169.36, 73.54, 0.28, 14, 7.51, 69.17, 0.2592, 3, 1, 37.92, 599.92, 0.348, 13, -161.98, 10.39, 0.42, 14, 15.02, 6.02, 0.232, 3, 1, 97.88, 580.37, 0.63839, 13, -109.17, -9.16, 0.06561, 16, -27.58, 10.66, 0.296, 3, 1, 90.98, 575.72, 0.71322, 13, -116.07, -13.81, 0.05478, 16, -34.44, 6.01, 0.232, 3, 1, 97.14, 556.4, 0.74215, 13, -109.87, -33.12, 0.03385, 16, -28.22, -13.31, 0.224, 3, 1, 142.37, 561.25, 0.43856, 13, -64.65, -28.27, 0.33344, 16, 16.56, -8.46, 0.22801, 3, 1, 145.88, 585.57, 0.32993, 13, -61.19, -3.95, 0.43046, 16, 19.62, 15.86, 0.23961, 3, 1, 129.09, 578.69, 0.58334, 13, -77.96, -10.84, 0.1866, 16, 3.63, 8.98, 0.23006, 3, 1, 127.55, 555.42, 0.51932, 13, -79.46, -34.1, 0.29057, 16, 2.07, -14.29, 0.19012, 2, 1, 149.57, 595.98, 0.19, 13, -61.96, 6.45, 0.81, 3, 1, 68.62, 607.68, 0.73798, 13, -122.98, 18.15, 0.1009, 14, 61.99, 13.78, 0.16112, 2, 1, 151.31, 611.01, 0.3422, 13, -40.3, 21.48, 0.6578, 4, 1, 89.92, 646.82, 0.58975, 13, -115.13, 57.29, 0.05537, 14, 68.6, 50.31, 0.16, 15, -34.65, 20.48, 0.19488, 4, 1, 61.42, 649.9, 0.49613, 13, -143.63, 60.37, 0.07938, 14, 40.1, 53.39, 0.25649, 15, -63.15, 23.56, 0.168, 2, 1, 113.37, 630.33, 0.744, 15, -11.2, 3.99, 0.256, 3, 1, 133.43, 631.23, 0.56391, 13, -71.59, 41.7, 0.22009, 15, 8.86, 4.88, 0.216, 3, 1, 146.82, 643.08, 0.49676, 13, -58.22, 53.55, 0.20724, 15, 22.25, 16.73, 0.296, 3, 1, 168.13, 662.18, 0.46365, 13, -36.94, 72.65, 0.28035, 15, 43.57, 35.83, 0.256, 3, 1, 108.56, 569.96, 0.62373, 13, -96.33, -19.56, 0.04827, 16, -16.7, 0.25, 0.328, 3, 1, 128.51, 569.63, 0.47405, 13, -76.38, -19.9, 0.21066, 16, 3.25, -0.08, 0.31529, 3, 1, 145.82, 575.29, 0.38809, 13, -59.08, -14.24, 0.35866, 16, 20.56, 5.57, 0.25325, 3, 1, 109.33, 579.81, 0.69743, 13, -95.59, -9.72, 0.07057, 16, -15.94, 10.1, 0.232, 3, 1, 109.84, 553.13, 0.6803, 13, -95.02, -36.4, 0.0477, 16, -15.42, -16.58, 0.272, 1, 1, 138.17, 667.63, 1, 2, 1, 7.86, 531.03, 0.75618, 14, -20.38, -65.49, 0.24382 ],
				"hull": 30
			}
		},
		"character2_Lhand2": {
			"Lhand2": { "x": 183.37, "y": 57.52, "rotation": -164.55, "width": 55, "height": 174 }
		}
	}
},
"animations": {
	"Shu": {
		"slots": {
			"Lhand2": {
				"color": [
					{ "time": 0.6667, "color": "ffffffff" },
					{ "time": 1.3333, "color": "00000000" }
				]
			},
			"Lhand3": {
				"color": [
					{ "time": 0.6667, "color": "ffffffff" },
					{ "time": 1.3333, "color": "00000000" }
				]
			},
			"Rhand1": {
				"color": [
					{ "time": 0.6667, "color": "ffffffff" },
					{ "time": 1.3333, "color": "00000000" }
				]
			},
			"Rhand2": {
				"color": [
					{ "time": 0.6667, "color": "ffffffff" },
					{ "time": 1.3333, "color": "00000000" }
				]
			},
			"body": {
				"color": [
					{ "time": 0.6667, "color": "ffffffff" },
					{ "time": 1.3333, "color": "00000000" }
				]
			},
			"character2_Lhand2": {
				"color": [
					{ "time": 0.6667, "color": "ffffffff" },
					{ "time": 1.3333, "color": "00000000" }
				]
			}
		},
		"bones": {
			"character2": {
				"rotate": [
					{ "time": 0, "angle": -3.78 }
				],
				"translate": [
					{ "time": 0, "x": -964.36, "y": -395.71 },
					{ "time": 0.3333, "x": -1236.34, "y": -201.84 },
					{ "time": 1.3333, "x": -1823.53, "y": 47.95 }
				],
				"scale": [
					{ "time": 0, "x": 1.551, "y": 1.551 },
					{ "time": 1.3333, "x": 0.968, "y": 0.968 }
				]
			},
			"Lhand2": {
				"rotate": [
					{ "time": 0, "angle": -1.18 },
					{ "time": 0.3333, "angle": 5.52 },
					{ "time": 0.8333, "angle": 7.14 }
				],
				"translate": [
					{ "time": 0, "x": 2.98, "y": 9.67 },
					{ "time": 0.3333, "x": 1.49, "y": 6.44 },
					{ "time": 0.8333, "x": -36.16, "y": 3.77 }
				],
				"scale": [
					{ "time": 0, "x": 0.9, "y": 0.9 },
					{ "time": 0.3333, "x": 1, "y": 1 },
					{ "time": 0.8333, "x": 1.2, "y": 1.2 }
				]
			},
			"Lhand6": {
				"translate": [
					{ "time": 0, "x": 34.19, "y": -17.9 },
					{ "time": 0.3333, "x": 7.12, "y": -5.25 }
				]
			},
			"headL": {
				"rotate": [
					{ "time": 0, "angle": -18.34 },
					{ "time": 0.3333, "angle": 16.67 }
				],
				"translate": [
					{ "time": 0, "x": -75.36, "y": -5.07 },
					{ "time": 0.3333, "x": -42.99, "y": 45.57 },
					{ "time": 0.8333, "x": -44.35, "y": 59.52 }
				],
				"scale": [
					{ "time": 0, "x": 1, "y": 0.8 },
					{ "time": 0.8333, "x": 1, "y": 0.748 }
				]
			},
			"faceL": {
				"rotate": [
					{ "time": 0, "angle": -0.33 }
				],
				"translate": [
					{ "time": 0, "x": -19.64, "y": 2.64 },
					{ "time": 0.3333, "x": -2.13, "y": -2.16 },
					{ "time": 0.8333, "x": -10.57, "y": 2.79 }
				]
			},
			"Rhand1": {
				"rotate": [
					{ "time": 0, "angle": -21.43 },
					{ "time": 0.3333, "angle": 3.63 },
					{ "time": 0.8333, "angle": 7.86 }
				],
				"translate": [
					{ "time": 0, "x": 1.15, "y": 25.31 },
					{ "time": 0.3333, "x": -39.82, "y": 7.53 }
				]
			},
			"Lhand1": {
				"rotate": [
					{ "time": 0, "angle": 0 },
					{ "time": 0.3333, "angle": -25.51 },
					{ "time": 0.8333, "angle": -41.15 }
				],
				"translate": [
					{ "time": 0, "x": 15.96, "y": -14.5 },
					{ "time": 0.3333, "x": -36.75, "y": -24.44 },
					{ "time": 0.8333, "x": -42.62, "y": -8.65 }
				]
			},
			"Lhand5": {
				"translate": [
					{ "time": 0, "x": 24.41, "y": -7.52 },
					{ "time": 0.3333, "x": 0, "y": 0 }
				]
			},
			"Rhand2": {
				"rotate": [
					{ "time": 0, "angle": -2.47 },
					{ "time": 0.3333, "angle": 2.57 },
					{ "time": 0.8333, "angle": 12.94 }
				],
				"translate": [
					{ "time": 0, "x": 6.55, "y": 20.1 }
				]
			},
			"headR": {
				"rotate": [
					{ "time": 0, "angle": 13.27 },
					{ "time": 0.3333, "angle": -13.9 }
				],
				"translate": [
					{ "time": 0, "x": 44.92, "y": -78.4 },
					{ "time": 0.3333, "x": 27.74, "y": -41.61 },
					{ "time": 0.8333, "x": 12.24, "y": -16.96 }
				],
				"scale": [
					{ "time": 0, "x": 0.927, "y": 0.644 },
					{ "time": 0.8333, "x": 1, "y": 1.239 }
				]
			},
			"Lhand3": {
				"rotate": [
					{ "time": 0, "angle": -8.09 }
				]
			},
			"Lhand4": {
				"rotate": [
					{ "time": 0, "angle": 24.62 },
					{ "time": 0.3333, "angle": 39.34 },
					{ "time": 0.8333, "angle": 36.58 }
				],
				"scale": [
					{ "time": 0, "x": 1, "y": 1 },
					{ "time": 0.3333, "x": 1.189, "y": 1 },
					{ "time": 0.8333, "x": 1.108, "y": 1 }
				]
			},
			"faceR": {
				"translate": [
					{ "time": 0, "x": -13.73, "y": -0.29 },
					{ "time": 0.3333, "x": 4.77, "y": -0.01 },
					{ "time": 0.8333, "x": 0.37, "y": 0.07 }
				]
			},
			"Lhand7": {
				"rotate": [
					{ "time": 0, "angle": 21.5 },
					{ "time": 0.3333, "angle": 37.02 },
					{ "time": 0.8333, "angle": 41.17 }
				]
			},
			"eye": {
				"scale": [
					{ "time": 0, "x": 1, "y": 0.456 },
					{ "time": 0.3333, "x": 1, "y": 1.662 },
					{ "time": 0.8333, "x": 1, "y": 1.898 }
				]
			},
			"mouth": {
				"scale": [
					{ "time": 0, "x": 1.375, "y": 1.891 },
					{ "time": 0.5, "x": 1.139, "y": -0.376 },
					{ "time": 0.8333, "x": 1.139, "y": -0.409 }
				]
			}
		},
		"deform": {
			"default": {
				"body": {
					"body": [
						{
							"time": 0,
							"vertices": [ -6.16293, -0.72986, 0, 0, 0, 0, 0, 0, 0, 0, 0, 0, 0, 0, 0, 0, 0, 0, 0, 0, 0, 0, 0, 0, 0, 0, 0, 0, 0, 0, 0, 0, 0, 0, 0, 0, 0, 0, 0, 0, 0, 0, 0, 0, 0, 0, 0, 0, 0, 0, 0, 0, 0, 0, 0, 0, 0, 0, 0, 0, 0, 0, 0, 0, 0, 0, 0, 0, 0, 0, 0, 0, 0, 0, 0, 0, 0, 0, 0, 0, 0, 0, 0, 0, 0, 0, 0, 0, 0, 0, 1.40041, -1.54785, 1.40331, -1.54796, -6.33898, -1.16034, -6.33675, -1.16046, 0, 0, 0, 0, 0, 0, 0, 0, 0, 0, 0, 0, 0, 0, 0, 0, 0, 0, 0, 0, 0, 0, 0, 0, 0, 0, 0, 0, 0, 0, 0, 0, 0, 0, 0, 0, 0, 0, 0, 0, 0, 0, 0, 0, 0, 0, 0, 0, 0, 0, 0, 0, 0, 0, 0, 0, 0, 0, 0, 0, 0, 0, 0, 0, 0, 0, -2.594, 1.73889, 0, 0, 0, 0, 0, 0, 0, 0, 0, 0, 0, 0, 0, 0, 0, 0, 0, 0, 0, 0, 0, 0, 0, 0, 0, 0, 0, 0, 0, 0, 0, 0, 0, 0, 0, 0, 0, 0, 0, 0, 0, 0, 0, 0, 0, 0, 0, 0, 0, 0, 0, 0, 0, 0, 0, 0, 0, 0, 0, 0, 0, 0, 0, 0, 0, 0, 0, 0, 0, 0, 0, 0, 0, 0, 0, 0, 0, 0, 0, 0, 0, 0, 0, 0, 0, 0, 0, 0, 0, 0, 0, 0, 0, 0, 0, 0, 0, 0, 0, 0, 0, 0, 0, 0, 0, 0, 0, 0, 0, 0, 0, 0, 0, 0, 0, 0, 0, 0, 0, 0, 0, 0, 0, 0, 0, 0, 0, 0, 0, 0, 0, 0, 0, 0, 0, 0, 0, 0, 0, 0, 0, 0, 0, 0, 0, 0, 0, 0, 0, 0, 0, 0, 0, 0, 0, 0, 0, 0, 0, 0, 0, 0, 0, 0, 0, 0, 0, 0, 0, 0, 0, 0, 0, 0, 0, 0, 0, 0, 0, 0, 0, 0, 0, 0, 0, 0, 0, 0, 0, 0, 0, 0, 0, 0, 0, 0, 0, 0, 0, 0, 0, 0, 0, 0, 0, 0, 0, 0, 0, 0, 0, 0, 0, 0, 0, 0, 0, 0, 0, 0, 0, 0, 0, 0, 0, 0, 0, 0, 0, 0, 0, 0, 0, 0, 0, 0, -1.06868, 0.79254 ]
						},
						{
							"time": 0.3333,
							"vertices": [ -3.4603, -0.66138, 4.87407, 0.24152, -3.74635, -0.18542, 0, 0, 0, 0, 0, 0, 0, 0, 0, 0, 0, 0, 0, 0, 0, 0, 0, 0, 0, 0, 0, 0, 6.22286, -5.11743, 6.26257, -5.08224, 18.32569, -5.31909, 18.36664, -5.2136, 11.72496, -6.13721, 11.77254, -6.06916, 13.66918, -4.69714, 0, 0, 0, 0, 0, 0, 0, 0, 0, 0, 0, 0, 0, 0, 0, 0, 0, 0, 0, 0, 0, 0, 3.07977, 10.18927, 3.05934, 10.18876, -7.79547, -1.81952, -7.79192, -1.81982, 0, 0, 0, 0, 0, 0, 0, 0, 0, 0, 0, 0, 0, 0, 0, 0, 0, 0, 0, 0, 0, 0, 0, 0, 0, 0, 0, 0, 0, 0, 0, 0, 0, 0, 0, 0, 0, 0, -3.48364, 2.51495, 0, 0, 0, 0, 0, 0, 0, 0, 0, 0, 0, 0, 0, 0, 0, 0, 0, 0, 0, 0, 0, 0, 0, 0, 0, 0, 0, 0, 0, 0, 0, 0, 0, 0, 0, 0, 0, 0, 0, 0, 0, 0, 0, 0, 0, 0, 0, 0, 0, 0, -2.22954, 0.25909, -5.44246, 1.43408, 0, 0, 0, 0, 0, 0, 0, 0, 0, 0, 0, 0, 0, 0, 0, 0, 0, 0, 0, 0, 0, 0, 0, 0, 0, 0, 0, 0, 0, 0, 0, 0, 0, 0, 0, 0, 0, 0, 0, 0, 0, 0, 0, 0, 0, 0, 0, 0, 0, 0, 0, 0, 0, 0, 0, 0, 0, 0, 0, 0, 0, 0, 0, 0, 0, 0, 0, 0, 0, 0, 0, 0, 0, 0, 0, 0, 0, 0, 0, 0, 0, 0, 0, 0, 0, 0, 0, 0, 0, 0, 0, 0, 0, 0, 0, 0, 0, 0, 0, 0, 0, 0, 0, 0, 0, 0, 0, 0, 0, 0, 0, 0, 0, 0, 0, 0, 0, 0, 0, 0, 0, 0, 0, 0, 0, 0, 0, 0, 0, 0, 0, 0, 0, 0, 0, 0, 0, 0, 0, 0, 0, 0, 0, 0, 0, 0, 0, 0, 0, 0, 0, 0, 0, 0, 0, 0, 0, 0, 0, 0, 0, 0, 0, 0, 0, 0, 0, 0, 0, 0, 0, 0, 0, 0, 0, 0, 0, 0, 0, 0, 0, 0, 0, 0, 0, 0, 0, 0, 0, 0, 0, 0, 0, 0, 0, 0, 0, 0, 0, 0, 0, 0, 0, 0, 0, 0, 0, 0, 0, 0, 0, 0, 0, 0, 0, 0, 0, 0, 0, 0, 0, 0, 0, 0, 0, 0, 0, 0, 0, 0, 0, 0, 0, 0, 0, 0, -3.63064, -1.28796, -7.64497, 1.24707, -7.65451, 1.20158 ]
						},
						{
							"time": 0.8333,
							"vertices": [ -5.3771, -0.02264, 4.87407, 0.24152, -3.06486, -0.15985, 0, 0, 0, 0, 0, 0, 0, 0, 0, 0, 0, 0, 0, 0, 0, 0, 0, 0, 2.89813, -3.64142, 2.92649, -3.62415, 9.94975, -3.81653, 9.97929, -3.75802, 29.12778, -4.53168, 29.16237, -4.36121, 23.9414, -8.16119, 24.00447, -8.02108, 20.27714, -2.30463, -11.00098, 1.85077, -11.01513, 1.7868, -19.7739, 7.45245, -19.83154, 7.33727, 0, 0, 4.1281, -9.47815, 4.14699, -9.47823, -8.64713, 3.18494, -8.65338, 3.18501, 0, 0, 0, 0, 3.4635, 2.33081, 3.45897, 2.33104, -8.20021, 6.0257, -8.21211, 6.02599, 0, 0, 0, 0, 0, 0, 0, 0, 0, 0, 0, 0, 0, 0, 0, 0, 0, 0, 0, 0, 0, 0, 0, 0, 0, 0, 0.56621, 2.89728, 0.56052, 2.89737, 2.98684, 6.35315, -24.86318, 0.04932, -20.49396, -6.4425, -20.48055, -6.44185, -7.58025, 3.6366, -8.18061, 2.26166, 0, 0, 0, 0, 0, 0, 0, 0, 0, 0, 0, 0, 0, 0, 0, 0, 0, 0, 0, 0, 0, 0, 0, 0, 0, 0, 0, 0, 0, 0, 0, 0, 0, 0, 0, 0, 0, 0, 0, 0, 0, 0, 0, 0, 0, 0, 0, 0, -2.26855, 0.9903, -5.56811, 0.54468, 0, 0, 0, 0, 0, 0, 0, 0, 0, 0, 0, 0, 0, 0, 0, 0, 0, 0, 0, 0, 0, 0, 0, 0, 0, 0, 0, 0, 0, 0, 0, 0, 0, 0, 0, 0, 0, 0, 0, 0, 0, 0, 0, 0, 0, 0, 0, 0, 0, 0, 0, 0, 0, 0, 0, 0, 0, 0, 0, 0, 0, 0, 0, 0, 0, 0, 0, 0, 0, 0, 0, 0, 0, 0, 0, 0, 0, 0, 0, 0, 0, 0, 0, 0, 0, 0, 0, 0, 0, 0, 0, 0, 0, 0, 0, 0, -2.95933, 5.22095, -14.38579, 5.29828, 0, 0, 0, 0, 0, 0, 0, 0, 0, 0, 0, 0, 0, 0, 0, 0, 0, 0, 0, 0, 0, 0, 0, 0, 0, 0, 0, 0, 0, 0, 0, 0, 0, 0, 0, 0, 0, 0, 0, 0, 0, 0, 0, 0, 0, 0, 0, 0, 0, 0, 0, 0, 0, 0, 0, 0, 0, 0, 0, 0, 0, 0, 0, 0, 0, 0, 0, 0, 0, 0, 0, 0, 0, 0, 0, 0, 0, 0, 0, 0, 0, 0, 0, 0, 0, 0, 0, 0, 0, 0, 0, 0, 0, 0, 0, 0, 0, 0, 0, 0, 0, 0, 0, 0, 0, 0, 0, 0, 0, 0, 0, 0, 0, 0, 0, 0, 0, 0, 0, 0, 0, 0, 0, 0, 0, 0, 0, 0, 0, 0, 0, 0, 0, 0, 0, 0, -3.64667, -0.92859, -9.80918, 1.11475, -9.81761, 1.0578 ]
						}
					]
				}
			}
		}
	}
}
}