{
  "0": {
    "hitRange": 10 ,
    "fortLvUp": 1,
    "fireNum": 1,
    "free" : 1,
    "killRateUp": {
      "1": 700000,
      "2": 700000,
      "3": 466662,
      "4": 350000,
      "5": 233338,
      "6": 175000,
      "7": 140000,
      "8": 116662,
      "9": 93333,
      "10": 77784,
      "11": 70000,
      "12": 56000,
      "13": 46667,
      "14": 35000,
      "15": 28000,
      "16": 14000,
      "17": 11667,
      "18": 9333,
      "19": 7784,
      "20": 7000,
      "21": 5600,
      "22": 4667,
      "23": 3500,
      "24": 2800,
      "25": 2334,
      "26": 0
    }
  },
  "1": {
    "hitRange": 10 ,
    "fortLvUp": 1,
    "fireNum": 1,
    "free": 1 ,
    "killRateUp": {
      "1": 700000,
      "2": 700000,
      "3": 466662,
      "4": 350000,
      "5": 233338,
      "6": 175000,
      "7": 140000,
      "8": 116662,
      "9": 93333,
      "10": 77784,
      "11": 70000,
      "12": 56000,
      "13": 46667,
      "14": 35000,
      "15": 28000,
      "16": 14000,
      "17": 11667,
      "18": 9333,
      "19": 7784,
      "20": 7000,
      "21": 5600,
      "22": 4667,
      "23": 3500,
      "24": 2800,
      "25": 2334,
      "26": 0
    }
  },
  "2": {
    "hitRange": 10 ,
    "fortLvUp": 1,
    "fireNum": 1,
    "free": 1,
    "killRateUp": {
      "1": 700000,
      "2": 700000,
      "3": 466662,
      "4": 350000,
      "5": 233338,
      "6": 175000,
      "7": 140000,
      "8": 116662,
      "9": 93333,
      "10": 77784,
      "11": 70000,
      "12": 56000,
      "13": 46667,
      "14": 35000,
      "15": 28000,
      "16": 14000,
      "17": 11667,
      "18": 9333,
      "19": 7784,
      "20": 7000,
      "21": 5600,
      "22": 4667,
      "23": 3500,
      "24": 2800,
      "25": 2334,
      "26": 0
    }
  },
  "3": {
    "hitRange": 10 ,
    "fortLvUp": 1,
    "fireNum": 1,
    "free": 1,
    "killRateUp": {
      "1": 50000,
      "2": 50000,
      "3": 66667,
      "4": 75000,
      "5": 83333,
      "6": 87500,
      "7": 90000,
      "8": 91667,
      "9": 93333,
      "10": 94444,
      "11": 95000,
      "12": 76000,
      "13": 63327,
      "14": 47500,
      "15": 38000,
      "16": 19000,
      "17": 15827,
      "18": 12673,
      "19": 10564,
      "20": 9500,
      "21": 7600,
      "22": 6327,
      "23": 4750,
      "24": 3800,
      "25": 3154,
      "26": 0
    }
  },
  "4": {
    "hitRange": 10 ,
    "fortLvUp": 1,
    "fireNum": 1,
    "free": 1,
    "killRateUp": {
      "1": 50000,
      "2": 50000,
      "3": 66667,
      "4": 75000,
      "5": 83333,
      "6": 87500,
      "7": 90000,
      "8": 91667,
      "9": 93333,
      "10": 94444,
      "11": 95000,
      "12": 96000,
      "13": 79992,
      "14": 60000,
      "15": 48000,
      "16": 24000,
      "17": 19992,
      "18": 16008,
      "19": 13344,
      "20": 12000,
      "21": 9600,
      "22": 7992,
      "23": 6000,
      "24": 4800,
      "25": 3984,
      "26": 0
    }
  },
  "5": {
    "hitRange": 10 ,
    "fortLvUp": 1,
    "fireNum": 1,
    "free": 1,
    "killRateUp": {
      "1": 50000,
      "2": 50000,
      "3": 66667,
      "4": 75000,
      "5": 83333,
      "6": 87500,
      "7": 90000,
      "8": 91667,
      "9": 93333,
      "10": 94444,
      "11": 95000,
      "12": 96000,
      "13": 96657,
      "14": 72500,
      "15": 58000,
      "16": 29000,
      "17": 24157,
      "18": 19343,
      "19": 16124,
      "20": 14500,
      "21": 11600,
      "22": 9657,
      "23": 7250,
      "24": 5800,
      "25": 4814,
      "26": 0
    }
  }
}