{
  "1": {
    "index": 1,
    "drawName": "新手箱",
    "bonusNeed": 20000,
    "rewardId": 2001,
    "showReward": 0,
    "chestIcon": "box_lower_001.png"
  },
  "2": {
    "index": 2,
    "drawName": "木质箱",
    "bonusNeed": 200000,
    "rewardId": 2002,
    "showReward": 0,
    "chestIcon": "box_lower_002.png"
  },
  "3": {
    "index": 3,
    "drawName": "白银箱",
    "bonusNeed": 800000,
    "rewardId": 2003,
    "showReward": 0,
    "chestIcon": "box_lower_003.png"
  },
  "4": {
    "index": 4,
    "drawName": "黄金箱",
    "bonusNeed": 6400000,
    "rewardId": 2004,
    "showReward": 0,
    "chestIcon": "box_lower_004.png"
  },
  "5": {
    "index": 5,
    "drawName": "铂金箱",
    "bonusNeed": 12800000,
    "rewardId": 2005,
    "showReward": 0,
    "chestIcon": "box_lower_005.png"
  },
  "6": {
    "index": 6,
    "drawName": "海皇箱",
    "bonusNeed": 25600000,
    "rewardId": 2006,
    "showReward": 0,
    "chestIcon": "box_lower_006.png"
  }
}