{
    "501": {
        "name": "cannon_bullet_1",
        "index": 501,
        "circleArray": [
            { "r": 13, "x": 1, "y": -35 }
        ]
    },
	"502": {
        "name": "cannon_bullet_2",
        "index": 502,
        "circleArray": [
            { "r": 17, "x": 1, "y": -34 }
        ]
    },
	"503": {
        "name": "cannon_bullet_3",
        "index": 503,
        "circleArray": [
            { "r": 14, "x": -1, "y": -36 }
        ]
    },
	"504": {
        "name": "cannon_bullet_4",
        "index": 504,
        "circleArray": [
            { "r": 15, "x": 1, "y": -45 }
        ]
    },
	"505": {
        "name": "cannon_bullet_5",
        "index": 505,
        "circleArray": [
            { "r": 15, "x": 1, "y": -22 }
        ]
    },
	"506": {
        "name": "cannon_bullet_6",
        "index": 506,
        "circleArray": [
            { "r": 15, "x": -1, "y": -32 }
        ]
    },
	"507": {
        "name": "cannon_bullet_7",
        "index": 507,
        "circleArray": [
			{ "r": 16, "x": -1, "y": -27 }
        ]
    },
    "508": {
        "name": "cannon_bullet_8",
        "index": 508,
        "circleArray": [
            { "r": 16, "x": -1, "y": -27 }
        ]
    },
	"509": {
        "name": "cannon_bullet_9",
        "index": 509,
        "circleArray": [
            { "r": 15, "x": 1, "y": -45 }
        ]
    },
	"510": {
        "name": "cannon_bullet_10",
        "index": 510,
        "circleArray": [
            { "r": 32, "x": 0, "y": -47 }
        ]
    },
    "511": {
        "name": "cannon_bullet_11",
        "index": 511,
        "circleArray": [
            { "r": 32, "x": 0, "y": -47 }
        ]
    }
}