{
  "1": {
    "index": "1",
    "cannonlevel": 20,
    "unlock_type": "1",
    "gold_reward": 0,
    "cost_item": "2,1",
    "cost_lucky_stone": "0",
    "return_lucky_stone": "0",
    "success_rate": "0,0,0",
    "add_exp": 10,
    "diamondFixMin": 1,
    "diamondFixMax": 1,
    "diamondGetLimit": 20,
    "dropFix": "1,1,1",
    "matchFix": "0",
    "everyCannonPoints": "0",
    "dayMaxPoints_limit": "0",
    "cannon_FeatsUp": "1",
    "bossdrop": "0",
    "worldbossdrop": "0",
    "skinIndex": "1002,8|1003,0|1004,0"
  },
  "2": {
    "index": "2",
    "cannonlevel": 40,
    "unlock_type": "1",
    "gold_reward": 0,
    "cost_item": "2,1",
    "cost_lucky_stone": "0",
    "return_lucky_stone": "0",
    "success_rate": "0,0,0",
    "add_exp": 11,
    "diamondFixMin": 1,
    "diamondFixMax": 1,
    "diamondGetLimit": 20,
    "dropFix": "1,1,1",
    "matchFix": "0",
    "everyCannonPoints": "0",
    "dayMaxPoints_limit": "0",
    "cannon_FeatsUp": "1",
    "bossdrop": "0",
    "worldbossdrop": "0",
    "skinIndex": "1002,8|1003,0|1004,0"
  },
  "3": {
    "index": "3",
    "cannonlevel": 60,
    "unlock_type": "1",
    "gold_reward": 0,
    "cost_item": "2,3",
    "cost_lucky_stone": "0",
    "return_lucky_stone": "0",
    "success_rate": "0,0,0",
    "add_exp": 13,
    "diamondFixMin": 1,
    "diamondFixMax": 1,
    "diamondGetLimit": 20,
    "dropFix": "1,1,1",
    "matchFix": "0",
    "everyCannonPoints": "0",
    "dayMaxPoints_limit": "0",
    "cannon_FeatsUp": "1",
    "bossdrop": "0",
    "worldbossdrop": "0",
    "skinIndex": "1002,8|1003,0|1004,0"
  },
  "4": {
    "index": "4",
    "cannonlevel": 80,
    "unlock_type": "1",
    "gold_reward": 0,
    "cost_item": "2,4",
    "cost_lucky_stone": "0",
    "return_lucky_stone": "0",
    "success_rate": "0,0,0",
    "add_exp": 16,
    "diamondFixMin": 1,
    "diamondFixMax": 1,
    "diamondGetLimit": 20,
    "dropFix": "1,1,1",
    "matchFix": "0",
    "everyCannonPoints": "0",
    "dayMaxPoints_limit": "0",
    "cannon_FeatsUp": "1",
    "bossdrop": "0",
    "worldbossdrop": "0",
    "skinIndex": "1002,8|1003,0|1004,0"
  },
  "5": {
    "index": "5",
    "cannonlevel": 90,
    "unlock_type": "1",
    "gold_reward": 0,
    "cost_item": "2,5",
    "cost_lucky_stone": "0",
    "return_lucky_stone": "0",
    "success_rate": "0,0,0",
    "add_exp": 17,
    "diamondFixMin": 1,
    "diamondFixMax": 1,
    "diamondGetLimit": 20,
    "dropFix": "1,1,1",
    "matchFix": "0",
    "everyCannonPoints": "0",
    "dayMaxPoints_limit": "0",
    "cannon_FeatsUp": "1",
    "bossdrop": "0",
    "worldbossdrop": "0",
    "skinIndex": "1002,8|1003,0|1004,0"
  },
  "6": {
    "index": "6",
    "cannonlevel": 10,
    "unlock_type": "1",
    "gold_reward": 0,
    "cost_item": "2,8",
    "cost_lucky_stone": "0",
    "return_lucky_stone": "0",
    "success_rate": "0,0,0",
    "add_exp": 20,
    "diamondFixMin": 1,
    "diamondFixMax": 1,
    "diamondGetLimit": 20,
    "dropFix": "1,1,1",
    "matchFix": "0",
    "everyCannonPoints": "0",
    "dayMaxPoints_limit": "0",
    "cannon_FeatsUp": "1",
    "bossdrop": "0",
    "worldbossdrop": "0",
    "skinIndex": "1002,0|1003,0|1004,0"
  },
  "7": {
    "index": "7",
    "cannonlevel": 30,
    "unlock_type": "1",
    "gold_reward": 0,
    "cost_item": "2,2",
    "cost_lucky_stone": "0",
    "return_lucky_stone": "0",
    "success_rate": "0,0,0",
    "add_exp": 12,
    "diamondFixMin": 1,
    "diamondFixMax": 1,
    "diamondGetLimit": 20,
    "dropFix": "1,1,1",
    "matchFix": "0",
    "everyCannonPoints": "0",
    "dayMaxPoints_limit": "0",
    "cannon_FeatsUp": "1",
    "bossdrop": "0",
    "worldbossdrop": "0",
    "skinIndex": "1002,0|1003,0|1004,0"
  },
  "8": {
    "index": "8",
    "cannonlevel": 50,
    "unlock_type": "1",
    "gold_reward": 0,
    "cost_item": "2,4",
    "cost_lucky_stone": "0",
    "return_lucky_stone": "0",
    "success_rate": "0,0,0",
    "add_exp": 15,
    "diamondFixMin": 1,
    "diamondFixMax": 1,
    "diamondGetLimit": 20,
    "dropFix": "1,1,1",
    "matchFix": "0",
    "everyCannonPoints": "0",
    "dayMaxPoints_limit": "0",
    "cannon_FeatsUp": "1",
    "bossdrop": "0",
    "worldbossdrop": "0",
    "skinIndex": "1002,0|1003,0|1004,0"
  },
  "9": {
    "index": "9",
    "cannonlevel": 70,
    "unlock_type": "1",
    "gold_reward": 0,
    "cost_item": "2,5",
    "cost_lucky_stone": "0",
    "return_lucky_stone": "0",
    "success_rate": "0,0,0",
    "add_exp": 19,
    "diamondFixMin": 1,
    "diamondFixMax": 1,
    "diamondGetLimit": 20,
    "dropFix": "1,1,1",
    "matchFix": "0",
    "everyCannonPoints": "0",
    "dayMaxPoints_limit": "0",
    "cannon_FeatsUp": "1",
    "bossdrop": "0",
    "worldbossdrop": "0",
    "skinIndex": "1002,1|1003,0|1004,0"
  },
  "10": {
    "index": "10",
    "cannonlevel": 100,
    "unlock_type": "1",
    "gold_reward": 0,
    "cost_item": "2,8",
    "cost_lucky_stone": "0",
    "return_lucky_stone": "0",
    "success_rate": "0,0,0",
    "add_exp": 21,
    "diamondFixMin": 1,
    "diamondFixMax": 1,
    "diamondGetLimit": 20,
    "dropFix": "1,1,1",
    "matchFix": "0",
    "everyCannonPoints": "0",
    "dayMaxPoints_limit": "0",
    "cannon_FeatsUp": "2",
    "bossdrop": "0",
    "worldbossdrop": "0",
    "skinIndex": "1002,1|1003,4|1004,0"
  },
  "11": {
    "index": "11",
    "cannonlevel": 200,
    "unlock_type": "1",
    "gold_reward": 0,
    "cost_item": "2,8",
    "cost_lucky_stone": "0",
    "return_lucky_stone": "0",
    "success_rate": "0,0,0",
    "add_exp": 23,
    "diamondFixMin": 1,
    "diamondFixMax": 1,
    "diamondGetLimit": 20,
    "dropFix": "1,1,1",
    "matchFix": "0",
    "everyCannonPoints": "0",
    "dayMaxPoints_limit": "0",
    "cannon_FeatsUp": "2",
    "bossdrop": "0",
    "worldbossdrop": "0",
    "skinIndex": "1002,8|1003,2|1004,0"
  },
  "12": {
    "index": "12",
    "cannonlevel": 300,
    "unlock_type": "1",
    "gold_reward": 0,
    "cost_item": "2,8",
    "cost_lucky_stone": "0",
    "return_lucky_stone": "0",
    "success_rate": "0,0,0",
    "add_exp": 26,
    "diamondFixMin": 1,
    "diamondFixMax": 1,
    "diamondGetLimit": 20,
    "dropFix": "1,1,1",
    "matchFix": "0",
    "everyCannonPoints": "0",
    "dayMaxPoints_limit": "0",
    "cannon_FeatsUp": "2",
    "bossdrop": "0",
    "worldbossdrop": "0",
    "skinIndex": "1002,8|1003,2|1004,0"
  },
  "13": {
    "index": "13",
    "cannonlevel": 400,
    "unlock_type": "1",
    "gold_reward": 0,
    "cost_item": "2,8",
    "cost_lucky_stone": "0",
    "return_lucky_stone": "0",
    "success_rate": "0,0,0",
    "add_exp": 29,
    "diamondFixMin": 1,
    "diamondFixMax": 1,
    "diamondGetLimit": 20,
    "dropFix": "1,1,1",
    "matchFix": "0",
    "everyCannonPoints": "0",
    "dayMaxPoints_limit": "0",
    "cannon_FeatsUp": "2",
    "bossdrop": "0",
    "worldbossdrop": "0",
    "skinIndex": "1002,8|1003,2|1004,0"
  },
  "14": {
    "index": "14",
    "cannonlevel": 500,
    "unlock_type": "1",
    "gold_reward": 0,
    "cost_item": "2,10",
    "cost_lucky_stone": "0",
    "return_lucky_stone": "0",
    "success_rate": "0,0,0",
    "add_exp": 31,
    "diamondFixMin": 1,
    "diamondFixMax": 1,
    "diamondGetLimit": 50,
    "dropFix": "1,1,1",
    "matchFix": "0",
    "everyCannonPoints": "0",
    "dayMaxPoints_limit": "0",
    "cannon_FeatsUp": "2",
    "bossdrop": "0",
    "worldbossdrop": "0",
    "skinIndex": "1002,8|1003,2|1004,0"
  },
  "15": {
    "index": "15",
    "cannonlevel": 600,
    "unlock_type": "1",
    "gold_reward": 0,
    "cost_item": "2,12",
    "cost_lucky_stone": "0",
    "return_lucky_stone": "0",
    "success_rate": "0,0,0",
    "add_exp": 34,
    "diamondFixMin": 1,
    "diamondFixMax": 1,
    "diamondGetLimit": 50,
    "dropFix": "1,1,1",
    "matchFix": "0",
    "everyCannonPoints": "0",
    "dayMaxPoints_limit": "0",
    "cannon_FeatsUp": "2",
    "bossdrop": "0",
    "worldbossdrop": "0",
    "skinIndex": "1002,3|1003,2|1004,0"
  },
  "16": {
    "index": "16",
    "cannonlevel": 700,
    "unlock_type": "1",
    "gold_reward": 0,
    "cost_item": "2,14",
    "cost_lucky_stone": "0",
    "return_lucky_stone": "0",
    "success_rate": "0,0,0",
    "add_exp": 37,
    "diamondFixMin": 1,
    "diamondFixMax": 1,
    "diamondGetLimit": 50,
    "dropFix": "1,1,1",
    "matchFix": "0",
    "everyCannonPoints": "0",
    "dayMaxPoints_limit": "0",
    "cannon_FeatsUp": "2",
    "bossdrop": "0",
    "worldbossdrop": "0",
    "skinIndex": "1002,3|1003,3|1004,0"
  },
  "17": {
    "index": "17",
    "cannonlevel": 800,
    "unlock_type": "1",
    "gold_reward": 0,
    "cost_item": "2,16",
    "cost_lucky_stone": "0",
    "return_lucky_stone": "0",
    "success_rate": "0,0,0",
    "add_exp": 39,
    "diamondFixMin": 1,
    "diamondFixMax": 1,
    "diamondGetLimit": 50,
    "dropFix": "1,1,1",
    "matchFix": "0",
    "everyCannonPoints": "0",
    "dayMaxPoints_limit": "0",
    "cannon_FeatsUp": "2",
    "bossdrop": "0",
    "worldbossdrop": "0",
    "skinIndex": "1002,3|1003,3|1004,0"
  },
  "18": {
    "index": "18",
    "cannonlevel": 900,
    "unlock_type": "1",
    "gold_reward": 0,
    "cost_item": "2,18",
    "cost_lucky_stone": "0",
    "return_lucky_stone": "0",
    "success_rate": "0,0,0",
    "add_exp": 42,
    "diamondFixMin": 1,
    "diamondFixMax": 1,
    "diamondGetLimit": 50,
    "dropFix": "1,1,1",
    "matchFix": "0",
    "everyCannonPoints": "0",
    "dayMaxPoints_limit": "0",
    "cannon_FeatsUp": "2",
    "bossdrop": "0",
    "worldbossdrop": "0",
    "skinIndex": "1002,3|1003,4|1004,0"
  },
  "19": {
    "index": "19",
    "cannonlevel": 1000,
    "unlock_type": "1",
    "gold_reward": 0,
    "cost_item": "2,20",
    "cost_lucky_stone": "0",
    "return_lucky_stone": "0",
    "success_rate": "0,0,0",
    "add_exp": 45,
    "diamondFixMin": 1,
    "diamondFixMax": 1,
    "diamondGetLimit": 50,
    "dropFix": "1,1,2",
    "matchFix": "0",
    "everyCannonPoints": "0",
    "dayMaxPoints_limit": "0",
    "cannon_FeatsUp": "3",
    "bossdrop": "3,1030301,5,8",
    "worldbossdrop": "0",
    "skinIndex": "1002,3|1003,4|1004,4"
  },
  "20": {
    "index": "20",
    "cannonlevel": 2000,
    "unlock_type": "1",
    "gold_reward": 0,
    "cost_item": "2,25",
    "cost_lucky_stone": "0",
    "return_lucky_stone": "0",
    "success_rate": "0,0,0",
    "add_exp": 48,
    "diamondFixMin": 1,
    "diamondFixMax": 1,
    "diamondGetLimit": 50,
    "dropFix": "1,1,2",
    "matchFix": "0",
    "everyCannonPoints": "0",
    "dayMaxPoints_limit": "0",
    "cannon_FeatsUp": "3",
    "bossdrop": "3,1030301,10,15",
    "worldbossdrop": "0",
    "skinIndex": "1002,0|1003,4|1004,4"
  },
  "21": {
    "index": "21",
    "cannonlevel": 3000,
    "unlock_type": "1",
    "gold_reward": 0,
    "cost_item": "2,30",
    "cost_lucky_stone": "0",
    "return_lucky_stone": "0",
    "success_rate": "0,0,0",
    "add_exp": 51,
    "diamondFixMin": 1,
    "diamondFixMax": 1,
    "diamondGetLimit": 50,
    "dropFix": "1,1,2",
    "matchFix": "0",
    "everyCannonPoints": "0",
    "dayMaxPoints_limit": "0",
    "cannon_FeatsUp": "3",
    "bossdrop": "3,1030301,15,20",
    "worldbossdrop": "0",
    "skinIndex": "1002,0|1003,4|1004,4"
  },
  "22": {
    "index": "22",
    "cannonlevel": 4000,
    "unlock_type": "1",
    "gold_reward": 0,
    "cost_item": "2,35",
    "cost_lucky_stone": "0",
    "return_lucky_stone": "0",
    "success_rate": "0,0,0",
    "add_exp": 58,
    "diamondFixMin": 1,
    "diamondFixMax": 1,
    "diamondGetLimit": 50,
    "dropFix": "1,1,2",
    "matchFix": "0",
    "everyCannonPoints": "0",
    "dayMaxPoints_limit": "0",
    "cannon_FeatsUp": "3",
    "bossdrop": "3,1030302,2,3",
    "worldbossdrop": "0",
    "skinIndex": "1002,0|1003,5|1004,5"
  },
  "23": {
    "index": "23",
    "cannonlevel": 5000,
    "unlock_type": "1",
    "gold_reward": 0,
    "cost_item": "2,40",
    "cost_lucky_stone": "0",
    "return_lucky_stone": "0",
    "success_rate": "0,0,0",
    "add_exp": 65,
    "diamondFixMin": 1,
    "diamondFixMax": 1,
    "diamondGetLimit": 100,
    "dropFix": "1,1,2",
    "matchFix": "0",
    "everyCannonPoints": "0",
    "dayMaxPoints_limit": "0",
    "cannon_FeatsUp": "3",
    "bossdrop": "3,1030302,2,3",
    "worldbossdrop": "0",
    "skinIndex": "1002,0|1003,5|1004,5"
  },
  "24": {
    "index": "24",
    "cannonlevel": 6000,
    "unlock_type": "1",
    "gold_reward": 0,
    "cost_item": "2,50",
    "cost_lucky_stone": "0",
    "return_lucky_stone": "0",
    "success_rate": "0,0,0",
    "add_exp": 72,
    "diamondFixMin": 1,
    "diamondFixMax": 1,
    "diamondGetLimit": 100,
    "dropFix": "1,1,2",
    "matchFix": "0",
    "everyCannonPoints": "0",
    "dayMaxPoints_limit": "0",
    "cannon_FeatsUp": "3",
    "bossdrop": "3,1030302,3,4",
    "worldbossdrop": "0",
    "skinIndex": "1002,0|1003,0|1004,7"
  },
  "25": {
    "index": "25",
    "cannonlevel": 7000,
    "unlock_type": "1",
    "gold_reward": 0,
    "cost_item": "2,60",
    "cost_lucky_stone": "0",
    "return_lucky_stone": "0",
    "success_rate": "0,0,0",
    "add_exp": 79,
    "diamondFixMin": 1,
    "diamondFixMax": 1,
    "diamondGetLimit": 100,
    "dropFix": "1,1,2",
    "matchFix": "0",
    "everyCannonPoints": "0",
    "dayMaxPoints_limit": "0",
    "cannon_FeatsUp": "3",
    "bossdrop": "3,1030302,3,4",
    "worldbossdrop": "0",
    "skinIndex": "1002,0|1003,0|1004,7"
  },
  "26": {
    "index": "26",
    "cannonlevel": 8000,
    "unlock_type": "1",
    "gold_reward": 0,
    "cost_item": "2,70",
    "cost_lucky_stone": "0",
    "return_lucky_stone": "0",
    "success_rate": "0,0,0",
    "add_exp": 86,
    "diamondFixMin": 1,
    "diamondFixMax": 1,
    "diamondGetLimit": 100,
    "dropFix": "1,1,2",
    "matchFix": "0",
    "everyCannonPoints": "0",
    "dayMaxPoints_limit": "0",
    "cannon_FeatsUp": "3",
    "bossdrop": "3,1030302,4,5",
    "worldbossdrop": "0",
    "skinIndex": "1002,0|1003,0|1004,9"
  },
  "27": {
    "index": "27",
    "cannonlevel": 9000,
    "unlock_type": "1",
    "gold_reward": 0,
    "cost_item": "2,80",
    "cost_lucky_stone": "0",
    "return_lucky_stone": "0",
    "success_rate": "0,0,0",
    "add_exp": 93,
    "diamondFixMin": 1,
    "diamondFixMax": 1,
    "diamondGetLimit": 150,
    "dropFix": "1,1,2",
    "matchFix": "0.5",
    "everyCannonPoints": "0",
    "dayMaxPoints_limit": "0",
    "cannon_FeatsUp": "3",
    "bossdrop": "3,1030302,5,6",
    "worldbossdrop": "0",
    "skinIndex": "1002,0|1003,0|1004,9"
  },
  "28": {
    "index": "28",
    "cannonlevel": 10000,
    "unlock_type": "1",
    "gold_reward": 0,
    "cost_item": "2,90",
    "cost_lucky_stone": "0",
    "return_lucky_stone": "0",
    "success_rate": "0,0,0",
    "add_exp": 100,
    "diamondFixMin": 1,
    "diamondFixMax": 1,
    "diamondGetLimit": 150,
    "dropFix": "1,1,2",
    "matchFix": "0.6",
    "everyCannonPoints": "0",
    "dayMaxPoints_limit": "0",
    "cannon_FeatsUp": "3",
    "bossdrop": "3,1030303,3,4",
    "worldbossdrop": "7,1030303,17,25",
    "skinIndex": "1002,0|1003,0|1004,9"
  }
}