{
  "1": {
    "index": 1,
    "vipGrade": 0,
    "onDole": "1,3000,30|2,3000,45|3,3000,60"
  },
  "2": {
    "index": 2,
    "vipGrade": 1,
    "onDole": "1,6000,30|2,6000,45|3,6000,60"
  },
  "3": {
    "index": 3,
    "vipGrade": 2,
    "onDole": "1,12000,30|2,12000,45|3,12000,60"
  },
  "4": {
    "index": 4,
    "vipGrade": 3,
    "onDole": "1,15000,30|2,15000,45|3,15000,60"
  },
  "5": {
    "index": 5,
    "vipGrade": 4,
    "onDole": "1,20000,30|2,20000,45|3,20000,60|4,20000,60"
  },
  "6": {
    "index": 6,
    "vipGrade": 5,
    "onDole": "1,30000,30|2,30000,45|3,30000,60|4,30000,60"
  },
  "7": {
    "index": 7,
    "vipGrade": 6,
    "onDole": "1,40000,30|2,40000,45|3,40000,60|4,40000,60|5,40000,60"
  }
}