{
  "1": {
    "id": 1,
    "groupName": "青斑鱼",
    "groupType": 0,
    "fishId": 1,
    "fishNum": 1,
    "distance": 20,
    "interval": 2000,
    "pathGroup": [
      0
    ]
  },
  "2": {
    "id": 2,
    "groupName": "石姜鱼",
    "groupType": 0,
    "fishId": 2,
    "fishNum": 1,
    "distance": 20,
    "interval": 2000,
    "pathGroup": [
      0
    ]
  },
  "3": {
    "id": 3,
    "groupName": "红锦鱼",
    "groupType": 0,
    "fishId": 3,
    "fishNum": 1,
    "distance": 20,
    "interval": 2000,
    "pathGroup": [
      3
    ]
  },
  "4": {
    "id": 4,
    "groupName": "花海星",
    "groupType": 0,
    "fishId": 4,
    "fishNum": 1,
    "distance": 20,
    "interval": 2000,
    "pathGroup": [
      0
    ]
  },
  "5": {
    "id": 5,
    "groupName": "豹飞鱼",
    "groupType": 0,
    "fishId": 5,
    "fishNum": 1,
    "distance": 20,
    "interval": 2000,
    "pathGroup": [
      2
    ]
  },
  "6": {
    "id": 6,
    "groupName": "青花鱼",
    "groupType": 0,
    "fishId": 6,
    "fishNum": 1,
    "distance": 30,
    "interval": 2000,
    "pathGroup": [
      2
    ]
  },
  "7": {
    "id": 7,
    "groupName": "恶魔海马",
    "groupType": 0,
    "fishId": 7,
    "fishNum": 1,
    "distance": 30,
    "interval": 2000,
    "pathGroup": [
      2
    ]
  },
  "8": {
    "id": 8,
    "groupName": "多肉刺豚",
    "groupType": 0,
    "fishId": 8,
    "fishNum": 1,
    "distance": 30,
    "interval": 2000,
    "pathGroup": [
      2
    ]
  },
  "9": {
    "id": 9,
    "groupName": "小丑鱼",
    "groupType": 0,
    "fishId": 9,
    "fishNum": 1,
    "distance": 40,
    "interval": 2000,
    "pathGroup": [
      0
    ]
  },
  "10": {
    "id": 10,
    "groupName": "樱花鱼",
    "groupType": 0,
    "fishId": 10,
    "fishNum": 1,
    "distance": 40,
    "interval": 2000,
    "pathGroup": [
      2
    ]
  },
  "11": {
    "id": 11,
    "groupName": "红螺蟹",
    "groupType": 0,
    "fishId": 11,
    "fishNum": 1,
    "distance": 40,
    "interval": 2000,
    "pathGroup": [
      2
    ]
  },
  "12": {
    "id": 12,
    "groupName": "金比目",
    "groupType": 0,
    "fishId": 12,
    "fishNum": 1,
    "distance": 40,
    "interval": 2000,
    "pathGroup": [
      8
    ]
  },
  "13": {
    "id": 13,
    "groupName": "绿鳄灯笼",
    "groupType": 0,
    "fishId": 13,
    "fishNum": 1,
    "distance": 40,
    "interval": 2000,
    "pathGroup": [
      2
    ]
  },
  "14": {
    "id": 14,
    "groupName": "狮子鱼",
    "groupType": 0,
    "fishId": 14,
    "fishNum": 1,
    "distance": 40,
    "interval": 2000,
    "pathGroup": [
      6
    ]
  },
  "15": {
    "id": 15,
    "groupName": "红鳍灯笼",
    "groupType": 0,
    "fishId": 15,
    "fishNum": 1,
    "distance": 40,
    "interval": 2000,
    "pathGroup": [
      6
    ]
  },
  "16": {
    "id": 16,
    "groupName": "千年老龟",
    "groupType": 0,
    "fishId": 16,
    "fishNum": 1,
    "distance": 40,
    "interval": 2000,
    "pathGroup": [
      4
    ]
  },
  "17": {
    "id": 17,
    "groupName": "十字花水母",
    "groupType": 0,
    "fishId": 17,
    "fishNum": 1,
    "distance": 40,
    "interval": 2000,
    "pathGroup": [
      4
    ]
  },
  "18": {
    "id": 18,
    "groupName": "剑齿鲨",
    "groupType": 0,
    "fishId": 18,
    "fishNum": 1,
    "distance": 40,
    "interval": 2000,
    "pathGroup": [
      4
    ]
  },
  "19": {
    "id": 19,
    "groupName": "花章鱼",
    "groupType": 0,
    "fishId": 19,
    "fishNum": 1,
    "distance": 40,
    "interval": 2000,
    "pathGroup": [
      4
    ]
  },
  "20": {
    "id": 20,
    "groupName": "星空魟鱼",
    "groupType": 0,
    "fishId": 20,
    "fishNum": 1,
    "distance": 40,
    "interval": 2000,
    "pathGroup": [
      4
    ]
  },
  "21": {
    "id": 21,
    "groupName": "红尾鲨",
    "groupType": 0,
    "fishId": 21,
    "fishNum": 1,
    "distance": 40,
    "interval": 2000,
    "pathGroup": [
      4
    ]
  },
  "22": {
    "id": 22,
    "groupName": "深海巨鲨",
    "groupType": 0,
    "fishId": 22,
    "fishNum": 1,
    "distance": 40,
    "interval": 2000,
    "pathGroup": [
      4
    ]
  },
  "23": {
    "id": 23,
    "groupName": "魔鬼八爪鱼",
    "groupType": 0,
    "fishId": 23,
    "fishNum": 1,
    "distance": 40,
    "interval": 2000,
    "pathGroup": [
      7
    ]
  },
  "24": {
    "id": 24,
    "groupName": "土财金蟾",
    "groupType": 0,
    "fishId": 24,
    "fishNum": 1,
    "distance": 40,
    "interval": 2000,
    "pathGroup": [
      7
    ]
  },
  "25": {
    "id": 25,
    "groupName": "美人鲛",
    "groupType": 0,
    "fishId": 25,
    "fishNum": 1,
    "distance": 40,
    "interval": 2000,
    "pathGroup": [
      7
    ]
  },
  "26": {
    "id": 26,
    "groupName": "石姜鱼",
    "groupType": 1,
    "fishId": 1,
    "fishNum": 1,
    "distance": 40,
    "interval": 700,
    "pathGroup": [
      0
    ]
  },
  "27": {
    "id": 27,
    "groupName": "红锦鱼",
    "groupType": 1,
    "fishId": 5,
    "fishNum": 1,
    "distance": 40,
    "interval": 750,
    "pathGroup": [
      2
    ]
  },
  "28": {
    "id": 28,
    "groupName": "花海星",
    "groupType": 1,
    "fishId": 3,
    "fishNum": 1,
    "distance": 40,
    "interval": 700,
    "pathGroup": [
      3
    ]
  },
  "29": {
    "id": 29,
    "groupName": "豹飞鱼",
    "groupType": 1,
    "fishId": 6,
    "fishNum": 1,
    "distance": 50,
    "interval": 750,
    "pathGroup": [
      2
    ]
  },
  "30": {
    "id": 30,
    "groupName": "青花鱼",
    "groupType": 1,
    "fishId": 1,
    "fishNum": 1,
    "distance": 40,
    "interval": 700,
    "pathGroup": [
      0
    ]
  },
  "31": {
    "id": 31,
    "groupName": "多肉刺豚",
    "groupType": 1,
    "fishId": 7,
    "fishNum": 1,
    "distance": 50,
    "interval": 750,
    "pathGroup": [
      2
    ]
  },
  "32": {
    "id": 32,
    "groupName": "小丑鱼",
    "groupType": 1,
    "fishId": 3,
    "fishNum": 1,
    "distance": 40,
    "interval": 700,
    "pathGroup": [
      3
    ]
  },
  "33": {
    "id": 33,
    "groupName": "多肉刺豚",
    "groupType": 1,
    "fishId": 8,
    "fishNum": 1,
    "distance": 50,
    "interval": 750,
    "pathGroup": [
      2
    ]
  },
  "34": {
    "id": 34,
    "groupName": "小丑鱼",
    "groupType": 1,
    "fishId": 9,
    "fishNum": 1,
    "distance": 50,
    "interval": 850,
    "pathGroup": [
      2
    ]
  },
  "36": {
    "id": 36,
    "groupName": "多肉刺豚",
    "groupType": 0,
    "fishId": 10,
    "fishNum": 1,
    "distance": 30,
    "interval": 2000,
    "pathGroup": [
      2
    ]
  },
  "37": {
    "id": 37,
    "groupName": "樱花鱼",
    "groupType": 0,
    "fishId": 11,
    "fishNum": 1,
    "distance": 40,
    "interval": 2000,
    "pathGroup": [
      2
    ]
  },
  "38": {
    "id": 38,
    "groupName": "金比目",
    "groupType": 0,
    "fishId": 12,
    "fishNum": 1,
    "distance": 40,
    "interval": 2000,
    "pathGroup": [
      8
    ]
  },
  "39": {
    "id": 39,
    "groupName": "千年老龟",
    "groupType": 0,
    "fishId": 1,
    "fishNum": 1,
    "distance": 40,
    "interval": 2000,
    "pathGroup": [
      0
    ]
  },
  "40": {
    "id": 40,
    "groupName": "十字花水母",
    "groupType": 0,
    "fishId": 2,
    "fishNum": 1,
    "distance": 40,
    "interval": 2000,
    "pathGroup": [
      0
    ]
  },
  "41": {
    "id": 41,
    "groupName": "剑齿鲨",
    "groupType": 0,
    "fishId": 4,
    "fishNum": 1,
    "distance": 40,
    "interval": 2000,
    "pathGroup": [
      2
    ]
  },
  "42": {
    "id": 42,
    "groupName": "樱花鱼",
    "groupType": 0,
    "fishId": 10,
    "fishNum": 1,
    "distance": 40,
    "interval": 2000,
    "pathGroup": [
      2
    ]
  },
  "43": {
    "id": 43,
    "groupName": "红螺蟹",
    "groupType": 0,
    "fishId": 11,
    "fishNum": 1,
    "distance": 40,
    "interval": 2000,
    "pathGroup": [
      2
    ]
  },
  "44": {
    "id": 44,
    "groupName": "金比目",
    "groupType": 0,
    "fishId": 12,
    "fishNum": 1,
    "distance": 40,
    "interval": 2000,
    "pathGroup": [
      8
    ]
  },
  "45": {
    "id": 45,
    "groupName": "绿鳄灯笼",
    "groupType": 0,
    "fishId": 13,
    "fishNum": 1,
    "distance": 40,
    "interval": 2000,
    "pathGroup": [
      2
    ]
  },
  "46": {
    "id": 46,
    "groupName": "狮子鱼",
    "groupType": 0,
    "fishId": 14,
    "fishNum": 1,
    "distance": 40,
    "interval": 2000,
    "pathGroup": [
      6
    ]
  },
  "47": {
    "id": 47,
    "groupName": "红鳍灯笼",
    "groupType": 0,
    "fishId": 15,
    "fishNum": 1,
    "distance": 40,
    "interval": 2000,
    "pathGroup": [
      6
    ]
  },
  "49": {
    "id": 49,
    "groupName": "扑克鱼",
    "groupType": 0,
    "fishId": 28,
    "fishNum": 1,
    "distance": 40,
    "interval": 2000,
    "pathGroup": [
      2
    ]
  },
  "50": {
    "id": 50,
    "groupName": "青斑鱼",
    "groupType": 0,
    "fishId": 1,
    "fishNum": 1,
    "distance": 30,
    "interval": 2000,
    "pathGroup": [
      0
    ]
  },
  "51": {
    "id": 51,
    "groupName": "石姜鱼",
    "groupType": 0,
    "fishId": 2,
    "fishNum": 1,
    "distance": 30,
    "interval": 2000,
    "pathGroup": [
      0
    ]
  },
  "52": {
    "id": 52,
    "groupName": "红锦鱼",
    "groupType": 0,
    "fishId": 3,
    "fishNum": 1,
    "distance": 20,
    "interval": 2000,
    "pathGroup": [
      3
    ]
  },
  "501": {
    "id": 501,
    "groupName": "千年老龟",
    "groupType": 0,
    "fishId": 16,
    "fishNum": 1,
    "distance": 40,
    "interval": 2000,
    "pathGroup": [
      1
    ]
  },
  "502": {
    "id": 502,
    "groupName": "十字花水母",
    "groupType": 0,
    "fishId": 17,
    "fishNum": 1,
    "distance": 40,
    "interval": 2000,
    "pathGroup": [
      1
    ]
  },
  "503": {
    "id": 503,
    "groupName": "剑齿鲨",
    "groupType": 0,
    "fishId": 18,
    "fishNum": 1,
    "distance": 40,
    "interval": 2000,
    "pathGroup": [
      1
    ]
  },
  "504": {
    "id": 504,
    "groupName": "花章鱼",
    "groupType": 0,
    "fishId": 19,
    "fishNum": 1,
    "distance": 40,
    "interval": 2000,
    "pathGroup": [
      1
    ]
  },
  "505": {
    "id": 505,
    "groupName": "星空魟鱼",
    "groupType": 0,
    "fishId": 20,
    "fishNum": 1,
    "distance": 40,
    "interval": 2000,
    "pathGroup": [
      1
    ]
  },
  "506": {
    "id": 506,
    "groupName": "红尾鲨",
    "groupType": 0,
    "fishId": 21,
    "fishNum": 1,
    "distance": 40,
    "interval": 2000,
    "pathGroup": [
      1
    ]
  },
  "507": {
    "id": 507,
    "groupName": "深海巨鲨",
    "groupType": 0,
    "fishId": 22,
    "fishNum": 1,
    "distance": 40,
    "interval": 2000,
    "pathGroup": [
      1
    ]
  },
  "601": {
    "id": 601,
    "groupName": "黄金巨鳄",
    "groupType": 0,
    "fishId": 26,
    "fishNum": 1,
    "distance": 40,
    "interval": 2000,
    "pathGroup": [
      7
    ]
  },
  "101": {
    "id": 101,
    "groupName": "烈焰锤",
    "groupType": 0,
    "fishId": 27,
    "fishNum": 1,
    "distance": 60,
    "interval": 2000,
    "pathGroup": [
      58
    ]
  },
  "102": {
    "id": 102,
    "groupName": "轰雷戟",
    "groupType": 0,
    "fishId": 28,
    "fishNum": 1,
    "distance": 60,
    "interval": 2000,
    "pathGroup": [
      59
    ]
  },
  "103": {
    "id": 103,
    "groupName": "骰子魚",
    "groupType": 0,
    "fishId": 29,
    "fishNum": 1,
    "distance": 60,
    "interval": 2000,
    "pathGroup": [
      58
    ]
  },
  "104": {
    "id": 104,
    "groupName": "拉霸魚",
    "groupType": 0,
    "fishId": 30,
    "fishNum": 1,
    "distance": 60,
    "interval": 2000,
    "pathGroup": [
      59
    ]
  }
}