{
	"0":{
		"id":0,
		"arrayDirection":0,
		"fishId":[
			6,6,6,6,17
		],
		"pathId":[
			76
		],
		"arrayType":0,
		"offsetPoint":[
			{"x":-134.7270615563299,"y":-211.75377468060395},
			{"x":-57.404181184669014,"y":-211.84668989547035},
			{"x":22.595818815330233,"y":-211.84668989547035},
			{"x":102.59581881533033,"y":-211.84668989547035},
			{"x":-8.362369337979109,"y":-113.26364692218348}
		]
	},
	"1":{
		"id":1,
		"arrayDirection":0,
		"fishId":[
			6,6,6,6,17
		],
		"pathId":[
			78
		],
		"arrayType":0,
		"offsetPoint":[
			{"x":-140.30197444831592,"y":226.80603948896638},
			{"x":-60.30197444831572,"y":226.80603948896638},
			{"x":19.69802555168428,"y":226.80603948896638},
			{"x":99.69802555168371,"y":226.80603948896638},
			{"x":0.9291521486643244,"y":137.60743321718934}
		]
	},
	"2":{
		"id":2,
		"arrayDirection":0,
		"fishId":[
			11,11,11,11,11,11,11,11,11,11,5,5,5,5,5,5,5,5,5,5,5,5,5,5,5,20
		],
		"pathId":[
			76
		],
		"arrayType":2,
		"offsetPoint":[
			{"x":8.362369337979109,"y":115.30778164924509},
			{"x":68.57494610078845,"y":94.38531601041055},
			{"x":110.95659356776784,"y":36.051982677077206},
			{"x":110.95659356776802,"y":-36.051982677077206},
			{"x":68.57494610078865,"y":-94.38531601041055},
			{"x":0,"y":-116.66666666666667},
			{"x":-68.57494610078855,"y":-94.38531601041055},
			{"x":-110.95659356776792,"y":-36.051982677077206},
			{"x":-110.95659356776792,"y":36.051982677077206},
			{"x":-68.57494610078855,"y":94.38531601041055},
			{"x":0,"y":183.33333333333334},
			{"x":74.56838456389676,"y":167.4833339011435},
			{"x":136.24321800418898,"y":122.67394449912408},
			{"x":174.36036132077808,"y":56.653115635407026},
			{"x":182.32901415085016,"y":-19.1635515990698},
			{"x":158.77132402714705,"y":-91.66666666666663},
			{"x":107.7606295869534,"y":-148.3197823020737},
			{"x":38.11714331658919,"y":-179.32706013453105},
			{"x":-38.11714331658919,"y":-179.32706013453105},
			{"x":-107.7606295869534,"y":-148.3197823020737},
			{"x":-158.77132402714705,"y":-91.66666666666677},
			{"x":-182.32901415085016,"y":-19.1635515990698},
			{"x":-174.36036132077817,"y":56.653115635407026},
			{"x":-136.24321800418898,"y":122.67394449912388},
			{"x":-74.56838456389667,"y":167.4833339011435},
			{"x":39.65568417928173,"y":0.09291521486640401}
		]
	},
	"3":{
		"id":3,
		"arrayDirection":0,
		"fishId":[
			6
		],
		"pathId":[
			88
		],
		"arrayType":0,
		"offsetPoint":[
			{"x":0,"y":0}
		]
	},
	"4":{
		"id":4,
		"arrayDirection":0,
		"fishId":[
			6
		],
		"pathId":[
			86
		],
		"arrayType":0,
		"offsetPoint":[
			{"x":0,"y":0}
		]
	},
	"5":{
		"id":5,
		"arrayDirection":0,
		"fishId":[
			20,20,20
		],
		"pathId":[
			84
		],
		"arrayType":0,
		"offsetPoint":[
			{"x":-605,"y":0},
			{"x":0,"y":0},
			{"x":605,"y":0}
		]
	}
}