{
	"0":{
		"fishTideId":0,
		"fishTideType":0,
		"fishTideInterval":[
			0.0,0.0,12.0,0.0,12.0,0.0,12.0,0.0
		],
		"fishTideArray":[
			0,1,0,1,0,1,0,1
		]
	},
	"1":{
		"fishTideId":1,
		"fishTideType":0,
		"fishTideInterval":[
			0.0,16.0
		],
		"fishTideArray":[
			2,2
		]
	},
	"2":{
		"fishTideId":2,
		"fishTideType":0,
		"fishTideInterval":[
			0.0,0.0,0.0,1.5,0.0,1.5,0.0,1.5,0.0,1.5,0.0,1.5,0.0,1.5,0.0,1.5,0.0,1.5,0.0,1.5,0.0,1.5,0.0,1.5,0.0,1.5,0.0,1.5,0.0,1.5,0.0,1.5,0.0,1.5,0.0,1.5,0.0
		],
		"fishTideArray":[
			5,3,4,3,4,3,4,3,4,3,4,3,4,3,4,3,4,3,4,3,4,3,4,3,4,3,4,3,4,3,4,3,4,3,4,3,4
		]
	}
}