{
  "1": {
    "index": "1",
    "dayRank": "1,1",
    "dayRankScore": "7000",
    "dayRankReward": "1030303,100",
    "weekRank": "1,1",
    "weekRankScore": "21000",
    "weekRankReward": "1030303,100"
  },
  "2": {
    "index": "2",
    "dayRank": "2,2",
    "dayRankScore": "6000",
    "dayRankReward": "1030303,50",
    "weekRank": "2,2",
    "weekRankScore": "19000",
    "weekRankReward": "1030303,50"
  },
  "3": {
    "index": "3",
    "dayRank": "3,3",
    "dayRankScore": "5500",
    "dayRankReward": "1030303,20",
    "weekRank": "3,3",
    "weekRankScore": "18000",
    "weekRankReward": "1030303,20"
  },
  "4": {
    "index": "4",
    "dayRank": "4,10",
    "dayRankScore": "5000",
    "dayRankReward": "1030303,10",
    "weekRank": "4,10",
    "weekRankScore": "17000",
    "weekRankReward": "1030303,10"
  },
  "5": {
    "index": "5",
    "dayRank": "11,20",
    "dayRankScore": "4500",
    "dayRankReward": "1030303,5",
    "weekRank": "11,20",
    "weekRankScore": "16000",
    "weekRankReward": "1030303,5"
  },
  "6": {
    "index": "6",
    "dayRank": "21,50",
    "dayRankScore": "4000",
    "dayRankReward": "1030303,3",
    "weekRank": "21,50",
    "weekRankScore": "15000",
    "weekRankReward": "1030303,3"
  },
  "7": {
    "index": "7",
    "dayRank": "51,100",
    "dayRankScore": "3500",
    "dayRankReward": "1030302,5",
    "weekRank": "51,100",
    "weekRankScore": "14000",
    "weekRankReward": "1030302,5"
  },
  "8": {
    "index": "8",
    "dayRank": "101,200",
    "dayRankScore": "3000",
    "dayRankReward": "1030302,3",
    "weekRank": "101,200",
    "weekRankScore": "13000",
    "weekRankReward": "1030302,3"
  },
  "9": {
    "index": "9",
    "dayRank": "201,500",
    "dayRankScore": "2500",
    "dayRankReward": "1030101,50",
    "weekRank": "201,500",
    "weekRankScore": "12000",
    "weekRankReward": "1030101,50"
  },
  "10": {
    "index": "10",
    "dayRank": "501,1000",
    "dayRankScore": "2000",
    "dayRankReward": "1030101,20",
    "weekRank": "501,1000",
    "weekRankScore": "11000",
    "weekRankReward": "1030101,20"
  }
}