{
  "1": {
    "index": 1,
    "cannonlevel_limit": "1,9",
    "everyCannonPoints": 0.01,
    "dayMaxPoints_limit": 3000
  },
  "2": {
    "index": 2,
    "cannonlevel_limit": "10,20",
    "everyCannonPoints": 0.02,
    "dayMaxPoints_limit": 3000
  },
  "3": {
    "index": 3,
    "cannonlevel_limit": "21,28",
    "everyCannonPoints": 0.03,
    "dayMaxPoints_limit": 3000
  }
}