{
  "1": {
    "id": 1,
    "projectdata": "00:00:00,00:51:59,4"
  },
  "2": {
    "id": 2,
    "projectdata": "00:52:00,01:31:59,3"
  },
  "3": {
    "id": 3,
    "projectdata": "01:32:00,02:11:59,2"
  },
  "4": {
    "id": 4,
    "projectdata": "02:12:00,08:00:59,1"
  },
  "5": {
    "id": 5,
    "projectdata": "08:01:00,10:10:59,2"
  },
  "6": {
    "id": 6,
    "projectdata": "10:11:00,11:30:59,3"
  },
  "7": {
    "id": 7,
    "projectdata": "11:31:00,14:41:59,5"
  },
  "8": {
    "id": 8,
    "projectdata": "14:42:00,14:50:59,1"
  },
  "9": {
    "id": 9,
    "projectdata": "14:51:00,21:01:59,3"
  },
  "10": {
    "id": 10,
    "projectdata": "21:02:00,23:59:59,5"
  }
}