{
  "1": {
    "index": 1,
    "role_evel": 1,
    "exp": 500,
    "reward": "1030101,1",
    "show": "0,0"
  },
  "2": {
    "index": 2,
    "role_evel": 2,
    "exp": 572,
    "reward": "1030101,1",
    "show": "0,0"
  },
  "3": {
    "index": 3,
    "role_evel": 3,
    "exp": 3000,
    "reward": "1030101,1",
    "show": "0,0"
  },
  "4": {
    "index": 4,
    "role_evel": 4,
    "exp": 5000,
    "reward": "1030101,1",
    "show": "0,0"
  },
  "5": {
    "index": 5,
    "role_evel": 5,
    "exp": 6500,
    "reward": "1030104,1",
    "show": "0,0"
  },
  "6": {
    "index": 6,
    "role_evel": 6,
    "exp": 7500,
    "reward": "1030101,1",
    "show": "0,0"
  },
  "7": {
    "index": 7,
    "role_evel": 7,
    "exp": 8500,
    "reward": "1030101,1",
    "show": "0,0"
  },
  "8": {
    "index": 8,
    "role_evel": 8,
    "exp": 9500,
    "reward": "1030101,1",
    "show": "0,0"
  },
  "9": {
    "index": 9,
    "role_evel": 9,
    "exp": 10000,
    "reward": "1030101,1",
    "show": "0,0"
  },
  "10": {
    "index": 10,
    "role_evel": 10,
    "exp": 42000,
    "reward": "1030104,1",
    "show": "0,0"
  },
  "11": {
    "index": 11,
    "role_evel": 11,
    "exp": 94300,
    "reward": "1030101,2",
    "show": "0,0"
  },
  "12": {
    "index": 12,
    "role_evel": 12,
    "exp": 109200,
    "reward": "1030101,2",
    "show": "0,0"
  },
  "13": {
    "index": 13,
    "role_evel": 13,
    "exp": 125900,
    "reward": "1030101,2",
    "show": "0,0"
  },
  "14": {
    "index": 14,
    "role_evel": 14,
    "exp": 144600,
    "reward": "1030101,2",
    "show": "0,0"
  },
  "15": {
    "index": 15,
    "role_evel": 15,
    "exp": 165400,
    "reward": "1030104,1",
    "show": "0,0"
  },
  "16": {
    "index": 16,
    "role_evel": 16,
    "exp": 188400,
    "reward": "1030101,2",
    "show": "0,0"
  },
  "17": {
    "index": 17,
    "role_evel": 17,
    "exp": 213800,
    "reward": "1030101,2",
    "show": "0,0"
  },
  "18": {
    "index": 18,
    "role_evel": 18,
    "exp": 241800,
    "reward": "1030101,2",
    "show": "0,0"
  },
  "19": {
    "index": 19,
    "role_evel": 19,
    "exp": 272500,
    "reward": "1030101,2",
    "show": "0,0"
  },
  "20": {
    "index": 20,
    "role_evel": 20,
    "exp": 306000,
    "reward": "1030104,2",
    "show": "0,0"
  },
  "21": {
    "index": 21,
    "role_evel": 21,
    "exp": 677100,
    "reward": "1030101,2",
    "show": "0,0"
  },
  "22": {
    "index": 22,
    "role_evel": 22,
    "exp": 756400,
    "reward": "1030101,2",
    "show": "0,0"
  },
  "23": {
    "index": 23,
    "role_evel": 23,
    "exp": 842400,
    "reward": "1030101,2",
    "show": "0,0"
  },
  "24": {
    "index": 24,
    "role_evel": 24,
    "exp": 935200,
    "reward": "1030101,2",
    "show": "0,0"
  },
  "25": {
    "index": 25,
    "role_evel": 25,
    "exp": 1035300,
    "reward": "1030104,2",
    "show": "0,0"
  },
  "26": {
    "index": 26,
    "role_evel": 26,
    "exp": 1142800,
    "reward": "1030101,2",
    "show": "0,0"
  },
  "27": {
    "index": 27,
    "role_evel": 27,
    "exp": 1258200,
    "reward": "1030101,2",
    "show": "0,0"
  },
  "28": {
    "index": 28,
    "role_evel": 28,
    "exp": 1381600,
    "reward": "1030101,2",
    "show": "0,0"
  },
  "29": {
    "index": 29,
    "role_evel": 29,
    "exp": 1513500,
    "reward": "1030101,2",
    "show": "0,0"
  },
  "30": {
    "index": 30,
    "role_evel": 30,
    "exp": 1654000,
    "reward": "1030104,2",
    "show": "0,0"
  },
  "31": {
    "index": 31,
    "role_evel": 31,
    "exp": 2480300,
    "reward": "1030101,3",
    "show": "0,0"
  },
  "32": {
    "index": 32,
    "role_evel": 32,
    "exp": 2721400,
    "reward": "1030101,3",
    "show": "0,0"
  },
  "33": {
    "index": 33,
    "role_evel": 33,
    "exp": 2978000,
    "reward": "1030101,3",
    "show": "0,0"
  },
  "34": {
    "index": 34,
    "role_evel": 34,
    "exp": 3250300,
    "reward": "1030101,3",
    "show": "0,0"
  },
  "35": {
    "index": 35,
    "role_evel": 35,
    "exp": 3539000,
    "reward": "1030104,3",
    "show": "0,0"
  },
  "36": {
    "index": 36,
    "role_evel": 36,
    "exp": 3844500,
    "reward": "1030101,3",
    "show": "0,0"
  },
  "37": {
    "index": 37,
    "role_evel": 37,
    "exp": 4167200,
    "reward": "1030101,3",
    "show": "0,0"
  },
  "38": {
    "index": 38,
    "role_evel": 38,
    "exp": 4507800,
    "reward": "1030101,3",
    "show": "0,0"
  },
  "39": {
    "index": 39,
    "role_evel": 39,
    "exp": 4866500,
    "reward": "1030101,3",
    "show": "0,0"
  },
  "40": {
    "index": 40,
    "role_evel": 40,
    "exp": 5244000,
    "reward": "1030104,3",
    "show": "0,0"
  },
  "41": {
    "index": 41,
    "role_evel": 41,
    "exp": 8397500,
    "reward": "1030101,3",
    "show": "0,0"
  },
  "42": {
    "index": 42,
    "role_evel": 42,
    "exp": 9020600,
    "reward": "1030101,3",
    "show": "0,0"
  },
  "43": {
    "index": 43,
    "role_evel": 43,
    "exp": 9673800,
    "reward": "1030101,3",
    "show": "0,0"
  },
  "44": {
    "index": 44,
    "role_evel": 44,
    "exp": 10358100,
    "reward": "1030101,3",
    "show": "0,0"
  },
  "45": {
    "index": 45,
    "role_evel": 45,
    "exp": 11074000,
    "reward": "1030104,3",
    "show": "0,0"
  },
  "46": {
    "index": 46,
    "role_evel": 46,
    "exp": 11822300,
    "reward": "1030101,3",
    "show": "0,0"
  },
  "47": {
    "index": 47,
    "role_evel": 47,
    "exp": 12603800,
    "reward": "1030101,3",
    "show": "0,0"
  },
  "48": {
    "index": 48,
    "role_evel": 48,
    "exp": 13419000,
    "reward": "1030101,3",
    "show": "0,0"
  },
  "49": {
    "index": 49,
    "role_evel": 49,
    "exp": 14268900,
    "reward": "1030101,3",
    "show": "0,0"
  },
  "50": {
    "index": 50,
    "role_evel": 50,
    "exp": 15154000,
    "reward": "1030104,3",
    "show": "0,0"
  }
}