{
  "1002": {
    "index": 1002,
    "room_name": "初级(初战虎牢)",
    "room_type": 1,
    "background": "gameBK_02",
    "bgm": 4,
    "show_condition": "1,28",
    "cannonlevel_limit": "6,10",
    "playerlevel_limit": 0,
    "gold_limit": "0,0",
    "fish_config_ID": "room1.json",
    "fish_num_limit": 60,
    "summom_groupId": "501,20000|502,20000|503,20000|504,10000|505,10000|506,10000|507,10000",
    "summom_fish_limit": 10,
    "exchange_random": "101,1520|102,700|103,600|104,50|105,10",
    "worldboss_groupId": "0",
    "dropItem": "无"
  },
  "1003": {
    "index": 1003,
    "room_name": "中级(火烧洛阳)",
    "room_type": 1,
    "background": "gameBK_03",
    "bgm": 5,
    "show_condition": "1,28",
    "cannonlevel_limit": "11,17",
    "playerlevel_limit": 0,
    "gold_limit": "0,0",
    "fish_config_ID": "room2.json",
    "fish_num_limit": 60,
    "summom_groupId": "501,20000|502,20000|503,20000|504,10000|505,10000|506,10000|507,10000",
    "summom_fish_limit": 10,
    "exchange_random": "101,1600|102,700|103,500|104,50|105,15|106,10|107,5",
    "worldboss_groupId": "0",
    "dropItem": "青铜或白银弹头"
  },
  "1004": {
    "index": 1004,
    "room_name": "高级(决战长安)",
    "room_type": 1,
    "background": "gameBK_04",
    "bgm": 6,
    "show_condition": "1,28",
    "cannonlevel_limit": "19,23",
    "playerlevel_limit": 0,
    "gold_limit": "0,0",
    "fish_config_ID": "room3.json",
    "fish_num_limit": 60,
    "summom_groupId": "501,20000|502,20000|503,20000|504,10000|505,10000|506,10000|507,10000",
    "summom_fish_limit": 10,
    "exchange_random": "101,1695|102,700|103,400|104,50|105,15|106,10|107,7|108,2|109,1",
    "worldboss_groupId": "601,100000",
    "dropItem": "黄金弹头"
  }
}