{
	"groups": {
		"group1": {
			"groupId": "1,2,3",
			"randomMode": "0",
			"aliveNum": 2,
			"starttime": 0,
			"intervaltime": 1
		},
		"group2": {
			"groupId": "4,5,6,7,8,9",
			"randomMode": "0",
			"aliveNum": 4,
			"starttime": 1,
			"intervaltime": 1
		},
		"group3": {
			"groupId": "10,11,12,13,14,15",
			"randomMode": "0",
			"aliveNum": 4,
			"starttime": 2,
			"intervaltime": 1
		},
		"group4": {
			"groupId": "10,11,12,13,14,15",
			"randomMode": "0",
			"aliveNum": 3,
			"starttime": 11,
			"intervaltime": 1
		},
		"group5": {
			"groupId": "16,17,18",
			"randomMode": "0",
			"aliveNum": 2,
			"starttime": 9,
			"intervaltime": 5
		},
		"group6": {
			"groupId": "19,20",
			"randomMode": "0",
			"aliveNum": 1,
			"starttime": 11,
			"intervaltime": 6
		},
		"group7": {
			"groupId": "36,37,38",
			"randomMode": "0",
			"aliveNum": 1,
			"starttime": 15,
			"intervaltime": 10
		},
		"group8": {
			"groupId": "21,22",
			"randomMode": "0",
			"aliveNum": 1,
			"starttime": 20,
			"intervaltime": 20
		},
		"group9": {
			"groupId": "39,40,41",
			"randomMode": "0",
			"aliveNum": 1,
			"starttime": 40,
			"intervaltime": 40
		},
		"group10": {
			"groupId": "42,43,44",
			"randomMode": "0",
			"aliveNum": 1,
			"starttime": 5,
			"intervaltime": 5
		},
		"group11": {
			"groupId": "45,46,47",
			"randomMode": "0",
			"aliveNum": 1,
			"starttime": 7,
			"intervaltime": 6
		},
		"group12": {
			"groupId": "23,24",
			"randomMode": "0",
			"aliveNum": 1,
			"starttime": 100,
			"intervaltime": 120
		},
		"group18":{
			"groupId":"101,102",
			"randomType": 2,
			"randomMode":"0",
			"aliveNum":1,
			"starttime":60,
			"intervaltime":90
		},
		"group19":{
			"groupId":"103,104",
			"randomType": 2,
			"randomMode":"0",
			"aliveNum":1,
			"starttime":60,
			"intervaltime":90
		}
	},
	"teams": {
		"teams1": {
			"groupId": "26,27,28,29",
			"randomMode": "0",
			"aliveNum": 1,
			"starttime": 5,
			"intervaltime": 5
		},
		"teams2": {
			"groupId": "30,31,32",
			"randomMode": "0",
			"aliveNum": 1,
			"starttime": 9,
			"intervaltime": 9
		},
		"teams3": {
			"groupId": "33,34",
			"randomMode": "0",
			"aliveNum": 1,
			"starttime": 13,
			"intervaltime": 12
		}
	}
}