{
  "1": {
    "id": 1,
    "name": "小丑魚",
    "nameId": "fish_009",
    "action": "xiaochouyu",
    "json": "xiaochouyu.json",
    "arts": "xiaochouyu.atlas",
    "png": "xiaochouyu.png",
    "offsetx": 0,
    "offsety": 0,
    "scale": 0.2
  },
  "2": {
    "id": 2,
    "name": "櫻花魚",
    "nameId": "fish_010",
    "action": "hongliyu",
    "json": "hongliyu.json",
    "arts": "hongliyu.atlas",
    "png": "hongliyu.png",
    "offsetx": 0,
    "offsety": 0,
    "scale": 0.3
  },
  "3": {
    "id": 3,
    "name": "紅螺蟹",
    "nameId": "fish_011",
    "action": "jijuxie",
    "json": "jijuxie.json",
    "arts": "jijuxie.atlas",
    "png": "jijuxie.png",
    "offsetx": 0,
    "offsety": 30,
    "scale": 0.2
  },
  "4": {
    "id": 4,
    "name": "金比目",
    "nameId": "fish_012",
    "action": "bimuyu",
    "json": "bimuyu.json",
    "arts": "bimuyu.atlas",
    "png": "bimuyu.png",
    "offsetx": 0,
    "offsety": 30,
    "scale": 0.2
  },
  "5": {
    "id": 5,
    "name": "綠鱷燈籠",
    "nameId": "fish_013",
    "action": "lvedenglong",
    "json": "lvedenglong.json",
    "arts": "lvedenglong.atlas",
    "png": "lvedenglong.png",
    "offsetx": 0,
    "offsety": 10,
    "scale": 0.4
  },
  "6": {
    "id": 6,
    "name": "獅子魚",
    "nameId": "fish_014",
    "action": "shiziyu",
    "json": "shiziyu.json",
    "arts": "shiziyu.atlas",
    "png": "shiziyu.png",
    "offsetx": 0,
    "offsety": 20,
    "scale": 0.2
  },
  "7": {
    "id": 7,
    "name": "紅鰭燈籠",
    "nameId": "fish_015",
    "action": "denglongyu",
    "json": "denglongyu.json",
    "arts": "denglongyu.atlas",
    "png": "denglongyu.png",
    "offsetx": 0,
    "offsety": 10,
    "scale": 0.4
  },
  "8": {
    "id": 8,
    "name": "千年老龜",
    "nameId": "fish_016",
    "action": "QianNianLaoGui",
    "json": "QianNianLaoGui.json",
    "arts": "QianNianLaoGui.atlas",
    "png": "QianNianLaoGui.png",
    "offsetx": 0,
    "offsety": 30,
    "scale": 0.2
  },
  "9": {
    "id": 9,
    "name": "十字花水母",
    "nameId": "fish_017",
    "action": "shuimu",
    "json": "shuimu.json",
    "arts": "shuimu.atlas",
    "png": "shuimu.png",
    "offsetx": 0,
    "offsety": 70,
    "scale": 0.3
  },
  "10": {
    "id": 10,
    "name": "劍齒鯊",
    "nameId": "fish_018",
    "action": "jianyu",
    "json": "jianyu.json",
    "arts": "jianyu.atlas",
    "png": "jianyu.png",
    "offsetx": 0,
    "offsety": 10,
    "scale": 0.3
  },
  "11": {
    "id": 11,
    "name": "花章魚",
    "nameId": "fish_019",
    "action": "wuzei",
    "json": "wuzei.json",
    "arts": "wuzei.atlas",
    "png": "wuzei.png",
    "offsetx": 0,
    "offsety": 20,
    "scale": 0.2
  },
  "12": {
    "id": 12,
    "name": "星空魚",
    "nameId": "fish_020",
    "action": "hongyu",
    "json": "hongyu.json",
    "arts": "hongyu.atlas",
    "png": "hongyu.png",
    "offsetx": 0,
    "offsety": 0,
    "scale": 0.3
  },
  "13": {
    "id": 13,
    "name": "紅尾鯊",
    "nameId": "fish_021",
    "action": "hongshayu",
    "json": "hongshayu.json",
    "arts": "hongshayu.atlas",
    "png": "hongshayu.png",
    "offsetx": 20,
    "offsety": 0,
    "scale": 0.3
  },
  "14": {
    "id": 14,
    "name": "深海巨鯊",
    "nameId": "fish_022",
    "action": "shayu",
    "json": "shayu.json",
    "arts": "shayu.atlas",
    "png": "shayu.png",
    "offsetx": 0,
    "offsety": -20,
    "scale": 0
  },
  "15": {
    "id": 15,
    "name": "火螃蟹",
    "nameId": "fish_023",
    "action": "pangxie",
    "json": "pangxie.json",
    "arts": "pangxie.atlas",
    "png": "pangxie.png",
    "offsetx": 0,
    "offsety": -65,
    "scale": 0
  },
  "16": {
    "id": 16,
    "name": "史前巨鱷",
    "nameId": "fish_024",
    "action": "eyu",
    "json": "eyu.json",
    "arts": "eyu.atlas",
    "png": "eyu.png",
    "offsetx": 0,
    "offsety": 20,
    "scale": 0.4
  },
  "17": {
    "id": 17,
    "name": "美人鮫",
    "nameId": "fish_025",
    "action": "meirenyu",
    "json": "meirenyu.json",
    "arts": "meirenyu.atlas",
    "png": "meirenyu.png",
    "offsetx": 0,
    "offsety": 20,
    "scale": 0
  }
}