{
  "1": {
    "id": 1,
    "vipLevel": 0,
    "totalPay": 2000,
    "shouItem": "null",
    "sent": 0,
    "sentLimit": 0,
    "receive": 1,
    "receiveLimit": "1,9999|2,9999",
    "vipInfo": "null",
    "slowDown": 1,
    "rebound": 999,
    "sentRecive_time": "9999,9999",
    "goldPlay_limit": 6,
    "luckDrawNumber": 1
  },
  "2": {
    "id": 2,
    "vipLevel": 1,
    "totalPay": 1000,
    "shouItem": "1,1,50000|1,1030101,5|1,1030102,5",
    "sent": 0,
    "sentLimit": 0,
    "receive": 1,
    "receiveLimit": "1,9999|2,9999",
    "vipInfo": "可获得大量金币和道具|开启双炮功能|锁定技能对目标减速5%|救济金领取额度提升至6000金币",
    "slowDown": 1,
    "rebound": 999,
    "sentRecive_time": "9999,9999",
    "goldPlay_limit": 7,
    "luckDrawNumber": 1
  },
  "3": {
    "id": 3,
    "vipLevel": 2,
    "totalPay": 40000,
    "shouItem": "0,101,1",
    "sent": 1,
    "sentLimit": 0,
    "receive": 1,
    "receiveLimit": "1,9999|2,9999",
    "vipInfo": "永久解锁炮台“冰霜旋涡”|救济金领取额度提升至12000金币|救济金领取次数提升至5次|拥有贵族1所有特权",
    "slowDown": 1,
    "rebound": 999,
    "sentRecive_time": "9999,9999",
    "goldPlay_limit": 7,
    "luckDrawNumber": 2
  },
  "4": {
    "id": 4,
    "vipLevel": 3,
    "totalPay": 120000,
    "shouItem": "0,102,1",
    "sent": 1,
    "sentLimit": 0,
    "receive": 1,
    "receiveLimit": "1,9999|2,9999",
    "vipInfo": "永久解锁炮台“光明玄武”|子弹反弹次数增加至3次|救济金领取额度提升至15000金币|拥有贵族2所有特权",
    "slowDown": 1,
    "rebound": 999,
    "sentRecive_time": "9999,9999",
    "goldPlay_limit": 8,
    "luckDrawNumber": 3
  },
  "5": {
    "id": 5,
    "vipLevel": 4,
    "totalPay": 300000,
    "shouItem": "0,103,1",
    "sent": 1,
    "sentLimit": 0,
    "receive": 1,
    "receiveLimit": "1,9999|2,9999",
    "vipInfo": "永久解锁炮台“烈火旋风”|锁定技能对目标减速10%|救济金领取额度提升至20000金币|拥有贵族3所有特权",
    "slowDown": 1,
    "rebound": 999,
    "sentRecive_time": "9999,9999",
    "goldPlay_limit": 8,
    "luckDrawNumber": 3
  },
  "6": {
    "id": 6,
    "vipLevel": 5,
    "totalPay": 1200000,
    "shouItem": "0,104,1",
    "sent": 1,
    "sentLimit": 0,
    "receive": 1,
    "receiveLimit": "1,9999|2,9999",
    "vipInfo": "永久解锁炮台“音波爆炸”|救济金领取额度提升至30000金币|拥有贵族4所有特权",
    "slowDown": 1,
    "rebound": 999,
    "sentRecive_time": "9999,9999",
    "goldPlay_limit": 9,
    "luckDrawNumber": 4
  },
  "7": {
    "id": 7,
    "vipLevel": 6,
    "totalPay": 0,
    "shouItem": "0,105,1",
    "sent": 1,
    "sentLimit": 0,
    "receive": 1,
    "receiveLimit": "1,9999|2,9999",
    "vipInfo": "永久解锁炮台“闪电尖刺”|子弹反弹次数增加至4次|救济金领取额度提升至40000金币|拥有贵族5所有特权",
    "slowDown": 1,
    "rebound": 999,
    "sentRecive_time": "9999,9999",
    "goldPlay_limit": 9,
    "luckDrawNumber": 4
  }
}