info face="resource_085-export" size=32 bold=0 italic=0 charset="" unicode=0 stretchH=100 smooth=1 aa=1 padding=0,0,0,0 spacing=0,0
common lineHeight=30 base=26 scaleW=106 scaleH=102 pages=1 packed=0 alphaChnl=1 redChnl=0 greenChnl=0 blueChnl=0
page id=0 file="font-003.png"
chars count=12
char id=48 x=28 y=33 width=27 height=34 xoffset=0 yoffset=-4 xadvance=30 page=0 chnl=0 letter="0"
char id=49 x=81 y=0 width=25 height=34 xoffset=1 yoffset=-4 xadvance=28 page=0 chnl=0 letter="1"
char id=50 x=0 y=0 width=28 height=34 xoffset=0 yoffset=-4 xadvance=31 page=0 chnl=0 letter="2"
char id=51 x=55 y=0 width=26 height=34 xoffset=1 yoffset=-4 xadvance=29 page=0 chnl=0 letter="3"
char id=52 x=0 y=34 width=28 height=34 xoffset=0 yoffset=-4 xadvance=31 page=0 chnl=0 letter="4"
char id=53 x=28 y=67 width=27 height=33 xoffset=0 yoffset=-3 xadvance=30 page=0 chnl=0 letter="5"
char id=54 x=55 y=34 width=26 height=34 xoffset=1 yoffset=-4 xadvance=29 page=0 chnl=0 letter="6"
char id=55 x=28 y=0 width=27 height=33 xoffset=0 yoffset=-3 xadvance=30 page=0 chnl=0 letter="7"
char id=56 x=0 y=68 width=28 height=34 xoffset=0 yoffset=-4 xadvance=31 page=0 chnl=0 letter="8"
char id=57 x=55 y=68 width=26 height=34 xoffset=1 yoffset=-4 xadvance=29 page=0 chnl=0 letter="9"
char id=32 x=0 y=0 width=0 height=0 xoffset=0 yoffset=0 xadvance=15 page=0 chnl=0 letter=" "
char id=9 x=0 y=0 width=0 height=0 xoffset=0 yoffset=0 xadvance=0 page=0 chnl=0 letter="	"

kernings count=0
