info face="resource_091-export" size=32 bold=0 italic=0 charset="" unicode=0 stretchH=100 smooth=1 aa=1 padding=0,0,0,0 spacing=3,3
common lineHeight=54 base=26 scaleW=127 scaleH=120 pages=1 packed=0 alphaChnl=1 redChnl=0 greenChnl=0 blueChnl=0
page id=0 file="font-009.png"
chars count=13
char id=120 x=0 y=40 width=30 height=29 xoffset=0 yoffset=25 xadvance=34 page=0 chnl=0 letter="x"
char id=48 x=33 y=0 width=30 height=37 xoffset=0 yoffset=17 xadvance=34 page=0 chnl=0 letter="0"
char id=49 x=96 y=80 width=19 height=36 xoffset=0 yoffset=18 xadvance=23 page=0 chnl=0 letter="1"
char id=50 x=33 y=40 width=29 height=37 xoffset=0 yoffset=17 xadvance=33 page=0 chnl=0 letter="2"
char id=51 x=96 y=40 width=28 height=37 xoffset=0 yoffset=17 xadvance=32 page=0 chnl=0 letter="3"
char id=52 x=0 y=0 width=30 height=37 xoffset=0 yoffset=17 xadvance=34 page=0 chnl=0 letter="4"
char id=53 x=0 y=72 width=30 height=36 xoffset=0 yoffset=18 xadvance=34 page=0 chnl=0 letter="5"
char id=54 x=66 y=0 width=28 height=37 xoffset=0 yoffset=17 xadvance=32 page=0 chnl=0 letter="6"
char id=55 x=33 y=80 width=29 height=36 xoffset=0 yoffset=18 xadvance=33 page=0 chnl=0 letter="7"
char id=56 x=65 y=40 width=28 height=37 xoffset=0 yoffset=17 xadvance=32 page=0 chnl=0 letter="8"
char id=57 x=65 y=80 width=28 height=37 xoffset=0 yoffset=17 xadvance=32 page=0 chnl=0 letter="9"
char id=32 x=0 y=0 width=0 height=0 xoffset=0 yoffset=0 xadvance=21 page=0 chnl=0 letter=" "
char id=9 x=0 y=0 width=0 height=0 xoffset=0 yoffset=0 xadvance=0 page=0 chnl=0 letter="	"

kernings count=0
