info face="randomLotteryNum-export" size=32 bold=0 italic=0 charset="" unicode=0 stretchH=100 smooth=1 aa=1 padding=0,0,0,0 spacing=3,3
common lineHeight=47 base=26 scaleW=302 scaleH=361 pages=1 packed=0 alphaChnl=1 redChnl=0 greenChnl=0 blueChnl=0
page id=0 file="randomLotteryNum-export.png"
chars count=15
char id=48 x=162 y=0 width=72 height=90 xoffset=0 yoffset=-43 xadvance=76 page=0 chnl=0 letter="0"
char id=49 x=237 y=0 width=49 height=87 xoffset=0 yoffset=-43 xadvance=53 page=0 chnl=0 letter="1"
char id=50 x=228 y=93 width=71 height=88 xoffset=0 yoffset=-44 xadvance=75 page=0 chnl=0 letter="2"
char id=51 x=153 y=183 width=72 height=89 xoffset=0 yoffset=-42 xadvance=76 page=0 chnl=0 letter="3"
char id=52 x=0 y=273 width=72 height=85 xoffset=0 yoffset=-41 xadvance=76 page=0 chnl=0 letter="4"
char id=53 x=153 y=93 width=72 height=87 xoffset=0 yoffset=-40 xadvance=76 page=0 chnl=0 letter="5"
char id=54 x=0 y=181 width=74 height=89 xoffset=0 yoffset=-42 xadvance=78 page=0 chnl=0 letter="6"
char id=55 x=75 y=273 width=68 height=84 xoffset=0 yoffset=-40 xadvance=72 page=0 chnl=0 letter="7"
char id=56 x=77 y=181 width=73 height=89 xoffset=0 yoffset=-43 xadvance=77 page=0 chnl=0 letter="8"
char id=57 x=87 y=0 width=72 height=90 xoffset=0 yoffset=-43 xadvance=76 page=0 chnl=0 letter="9"
char id=63 x=228 y=184 width=71 height=94 xoffset=0 yoffset=-46 xadvance=75 page=0 chnl=0 letter="?"
char id=120 x=0 y=99 width=76 height=79 xoffset=0 yoffset=-37 xadvance=80 page=0 chnl=0 letter="x"
char id=20493 x=0 y=0 width=84 height=96 xoffset=0 yoffset=-46 xadvance=88 page=0 chnl=0 letter="W"
char id=32 x=0 y=0 width=0 height=0 xoffset=0 yoffset=0 xadvance=22 page=0 chnl=0 letter=" "
char id=9 x=0 y=0 width=0 height=0 xoffset=0 yoffset=0 xadvance=0 page=0 chnl=0 letter="	"

kernings count=0
